test_run_dir/myc01_core_should_test_mul/myc01_core.vcd
$date
2022-02-08T07:51+0000
$end
$version
0.2
$end
$comment

$end
$timescale 1ns  $end
$scope module myc01_core $end
 $var wire 1 $ wb_stage $end
 $var wire 1 4 regfile $end
 $var wire 1 = if_stage $end
 $var wire 32 W io_din $end
 $var wire 32 } io_iaddr $end
 $var wire 1 "K io_dce $end
 $var wire 1 "n ctrl $end
 $var wire 32 "x io_inst $end
 $var wire 1 "y clock $end
 $var wire 1 #+ exe_stage $end
 $var wire 1 #< exemem_reg $end
 $var wire 1 #C io_ice $end
 $var wire 4 #G io_we $end
 $var wire 1 #K idexe_reg $end
 $var wire 1 #T memwb_reg $end
 $var wire 1 #e mem_stage $end
 $var wire 1 #m id_stage $end
 $var wire 32 #| io_daddr $end
 $var wire 1 $! reset $end
 $var wire 32 $; io_dm $end
 $var wire 1 $> ifid_reg $end
  $scope module ifid_reg $end
   $var wire 32 ' io_id_pc $end
   $var wire 32 . io_if_pc $end
   $var wire 1 k clock $end
   $var wire 32 { pc_reg $end
   $var wire 1 #I reset $end
  $upscope $end
  $scope module mem_stage $end
   $var wire 32 " io_din $end
   $var wire 1 & dwe_temp_0 $end
   $var wire 1 5 inst_lb $end
   $var wire 8 8 io_mem_aluop_i $end
   $var wire 1 K dwe_temp_3 $end
   $var wire 1 g dre_temp_2 $end
   $var wire 32 j io_mem_dreg_o $end
   $var wire 1 t io_dce $end
   $var wire 1 "( inst_sw $end
   $var wire 32 "; io_daddr $end
   $var wire 1 "< inst_sh $end
   $var wire 1 "G inst_lhu $end
   $var wire 1 "M dwe_temp_2 $end
   $var wire 1 "U inst_sb $end
   $var wire 1 "t dre_temp_1 $end
   $var wire 1 #( io_load_unsign $end
   $var wire 1 #4 dwe_temp_1 $end
   $var wire 1 #: inst_lbu $end
   $var wire 32 #? io_mem_wd_i $end
   $var wire 4 #A io_dre $end
   $var wire 5 #Q io_mem_wa_o $end
   $var wire 1 #W dre_temp_0 $end
   $var wire 5 #Z io_mem_wa_i $end
   $var wire 1 #[ io_mem_wreg_o $end
   $var wire 32 #j io_mem_din_i $end
   $var wire 1 #r dre_temp_3 $end
   $var wire 1 #s io_mem_wreg_i $end
   $var wire 1 #u _T $end
   $var wire 4 #w io_dwe $end
   $var wire 1 #} inst_lw $end
   $var wire 1 $& io_mem_mreg_o $end
   $var wire 1 $9 inst_lh $end
   $var wire 1 $A io_mem_mreg_i $end
  $upscope $end
  $scope module memwb_reg $end
   $var wire 1 Q clock $end
   $var wire 1 T io_wb_load_unsign $end
   $var wire 1 \ io_mem_mreg $end
   $var wire 1 _ io_wb_wreg $end
   $var wire 1 a io_mem_wreg $end
   $var wire 32 d dreg_reg $end
   $var wire 5 f wa_reg $end
   $var wire 4 w io_wb_dre $end
   $var wire 1 "% unsign_reg $end
   $var wire 5 "5 io_wb_wa $end
   $var wire 1 "9 io_wb_mreg $end
   $var wire 5 "A io_mem_wa $end
   $var wire 1 "E io_mem_load_unsign $end
   $var wire 4 "I io_mem_dre $end
   $var wire 1 "R reset $end
   $var wire 1 "f wreg_reg $end
   $var wire 32 #M io_mem_dreg $end
   $var wire 4 #l dre_reg $end
   $var wire 32 $" io_wb_dreg $end
   $var wire 1 $1 mreg_reg $end
  $upscope $end
  $scope module exe_stage $end
   $var wire 1 * io_exe_mreg_i $end
   $var wire 32 , io_exe_din_o $end
   $var wire 47 0 _GEN_4 $end
   $var wire 32 1 shiftres $end
   $var wire 32 > luiAns $end
   $var wire 32 C mulhsuAns $end
   $var wire 8 G io_exe_aluop_o $end
   $var wire 32 H io_exe_din_i $end
   $var wire 47 L arithres $end
   $var wire 32 S io_exe_src2_i $end
   $var wire 32 V xorAns $end
   $var wire 32 X srlAns $end
   $var wire 32 Y addAns $end
   $var wire 32 i jalrAns $end
   $var wire 32 n mulhAns $end
   $var wire 32 | sltuAns $end
   $var wire 3 ", io_exe_alutype_i $end
   $var wire 63 ". _GEN_0 $end
   $var wire 32 "8 mulhuAns $end
   $var wire 32 "N sltAns $end
   $var wire 32 "Q sllAns $end
   $var wire 32 "Z ret_addr $end
   $var wire 32 "a io_exe_pc_i $end
   $var wire 32 "d orAns $end
   $var wire 32 "k io_exe_src1_i $end
   $var wire 32 "~ io_exe_wd_o $end
   $var wire 44 #! _GEN_2 $end
   $var wire 33 #. _GEN_5 $end
   $var wire 32 #3 sraAns $end
   $var wire 33 #> _T $end
   $var wire 32 #F logicres $end
   $var wire 32 #N andAns $end
   $var wire 5 #U io_exe_wa_o $end
   $var wire 5 #\ io_exe_wa_i $end
   $var wire 32 #c mulAns $end
   $var wire 1 #q io_exe_wreg_o $end
   $var wire 1 #v io_exe_wreg_i $end
   $var wire 32 $- subAns $end
   $var wire 1 $3 io_exe_mreg_o $end
   $var wire 47 $5 auipcAns $end
   $var wire 8 $B io_exe_aluop_i $end
  $upscope $end
  $scope module wb_stage $end
   $var wire 32 ; io_dm $end
   $var wire 32 B io_wb_dreg_i $end
   $var wire 1 Z io_wb_load_unsign $end
   $var wire 32 "C data $end
   $var wire 1 "S io_wb_wreg_i $end
   $var wire 4 "[ io_wb_dre_i $end
   $var wire 1 #* io_wb_wreg_o $end
   $var wire 1 #X io_wb_mreg_i $end
   $var wire 5 $$ io_wb_wa_o $end
   $var wire 32 $8 io_wb_wd_o $end
   $var wire 5 $@ io_wb_wa_i $end
  $upscope $end
  $scope module regfile $end
   $var wire 1 3 _GEN_3 $end
   $var wire 1 9 _T $end
   $var wire 32 D regs $end
   $var wire 5 F io_ra1 $end
   $var wire 32 R _GEN_0 $end
   $var wire 1 v io_re2 $end
   $var wire 1 y _GEN_11 $end
   $var wire 1 "$ clock $end
   $var wire 32 ") _GEN_8 $end
   $var wire 1 "P io_we $end
   $var wire 32 "s io_rd2 $end
   $var wire 1 #1 io_re1 $end
   $var wire 5 #O io_ra2 $end
   $var wire 5 #] io_wa $end
   $var wire 32 #t io_wd $end
   $var wire 32 $2 io_rd1 $end
    $scope module regs $end
      $scope module _T_21 $end
       $var wire 5 N addr $end
       $var wire 32 o pipeline_data_0 $end
       $var wire 1 "2 clk $end
       $var wire 1 "6 en $end
       $var wire 1 "D pipeline_valid_0 $end
       $var wire 32 "_ data $end
       $var wire 1 #` valid $end
       $var wire 5 #b pipeline_addr_0 $end
       $var wire 1 #z mask $end
      $upscope $end
      $scope module _T_7 $end
       $var wire 32 c data $end
       $var wire 1 "! en $end
       $var wire 1 "z clk $end
       $var wire 5 #y addr $end
      $upscope $end
      $scope module _T_16 $end
       $var wire 5 r addr $end
       $var wire 1 "b clk $end
       $var wire 1 "c en $end
       $var wire 32 #) data $end
      $upscope $end
    $upscope $end
  $upscope $end
  $scope module id_stage $end
   $var wire 1 ! inst_lw $end
   $var wire 1 % imm_shamt $end
   $var wire 5 ( rs2 $end
   $var wire 1 ) inst_sra $end
   $var wire 32 2 io_jump_addr $end
   $var wire 13 : imm_B $end
   $var wire 7 < func7 $end
   $var wire 1 A io_exe2id_wreg $end
   $var wire 1 E inst_lh $end
   $var wire 1 J inst_addi $end
   $var wire 1 O inst_srai $end
   $var wire 1 [ inst_srli $end
   $var wire 1 ^ inst_slli $end
   $var wire 1 ` inst_bgeu $end
   $var wire 1 b inst_mul $end
   $var wire 1 e id_alutype_temp_2 $end
   $var wire 1 h inst_add $end
   $var wire 5 l rd $end
   $var wire 1 m inst_beq $end
   $var wire 1 q imm_Stype $end
   $var wire 32 s io_id_src1_o $end
   $var wire 1 ~ inst_srl $end
   $var wire 1 "" inst_slti $end
   $var wire 32 "+ io_rd2 $end
   $var wire 1 "3 inst_bge $end
   $var wire 32 "7 imm_ext $end
   $var wire 1 ": io_rreg2 $end
   $var wire 1 "> inst_sb $end
   $var wire 3 "B func3 $end
   $var wire 1 "F inst_lhu $end
   $var wire 1 "J id_alutype_temp_1 $end
   $var wire 1 "L inst_sltu $end
   $var wire 21 "T imm_J $end
   $var wire 12 "V imm_S $end
   $var wire 32 "W io_id_pc_i $end
   $var wire 1 "Y inst_jalr $end
   $var wire 1 "\ inst_lbu $end
   $var wire 5 "] io_ra2 $end
   $var wire 1 "^ inst_sw $end
   $var wire 1 "` inst_sh $end
   $var wire 1 "e inst_and $end
   $var wire 32 "g io_id_inst_i $end
   $var wire 1 "h inst_lui $end
   $var wire 5 "l io_exe2id_wa $end
   $var wire 1 "m inst_xori $end
   $var wire 1 "o inst_blt $end
   $var wire 1 "p inst_sub $end
   $var wire 1 "r inst_sll $end
   $var wire 1 "v io_rreg1 $end
   $var wire 1 "{ io_jump_flag $end
   $var wire 32 "| io_exe2id_wd $end
   $var wire 32 "} io_id_pc_o $end
   $var wire 1 ## io_mem2id_wreg $end
   $var wire 1 #$ inst_or $end
   $var wire 1 #& inst_mulh $end
   $var wire 1 #- imm_Utype $end
   $var wire 7 #0 opcode $end
   $var wire 1 #2 imm_Btype $end
   $var wire 5 #5 io_id_wa_o $end
   $var wire 1 #6 inst_xor $end
   $var wire 1 #8 io_id_wreg_o $end
   $var wire 12 #9 imm_I $end
   $var wire 32 #; io_id_din_o $end
   $var wire 1 #= inst_auipc $end
   $var wire 1 #@ imm_Itype $end
   $var wire 5 #B io_ra1 $end
   $var wire 32 #D io_rd1 $end
   $var wire 20 #E imm_U $end
   $var wire 1 #L inst_ori $end
   $var wire 1 #P inst_andi $end
   $var wire 2 #S fwrd_reg2 $end
   $var wire 1 #V id_alutype_temp_0 $end
   $var wire 1 #Y io_id_mreg_o $end
   $var wire 32 #^ io_mem2id_wd $end
   $var wire 8 #_ io_id_aluop_o $end
   $var wire 1 #a imm_Jtype $end
   $var wire 1 #d inst_mulhu $end
   $var wire 1 #i inst_mulhsu $end
   $var wire 32 #k id_inst $end
   $var wire 1 #p inst_sltiu $end
   $var wire 1 #~ inst_bltu $end
   $var wire 5 $# io_mem2id_wa $end
   $var wire 2 $' fwrd_reg1 $end
   $var wire 1 $+ inst_slt $end
   $var wire 32 $, io_id_src2_o $end
   $var wire 3 $4 io_id_alutype_o $end
   $var wire 1 $7 inst_bne $end
   $var wire 1 $: inst_lb $end
   $var wire 1 $F io_id_flush_i $end
  $upscope $end
  $scope module idexe_reg $end
   $var wire 1 # wreg_reg $end
   $var wire 32 + io_id_pc $end
   $var wire 5 / io_id_wa $end
   $var wire 32 6 io_id_src2 $end
   $var wire 1 @ io_exe_mreg $end
   $var wire 32 U io_exe_din $end
   $var wire 32 u pc_reg $end
   $var wire 1 "# reset $end
   $var wire 3 "* io_id_alutype $end
   $var wire 8 "0 io_id_aluop $end
   $var wire 8 "4 aluop_reg $end
   $var wire 32 "= io_exe_pc $end
   $var wire 32 "? io_id_src1 $end
   $var wire 5 "@ io_exe_wa $end
   $var wire 1 "X mreg_reg $end
   $var wire 32 "i src1_reg $end
   $var wire 32 "q io_exe_src2 $end
   $var wire 1 "u io_id_wreg $end
   $var wire 1 #% io_id_mreg $end
   $var wire 32 #7 src2_reg $end
   $var wire 32 #R io_exe_src1 $end
   $var wire 1 #h clock $end
   $var wire 3 $( alutype_reg $end
   $var wire 1 $) io_exe_wreg $end
   $var wire 32 $* din_reg $end
   $var wire 5 $0 wa_reg $end
   $var wire 32 $6 io_id_din $end
   $var wire 8 $C io_exe_aluop $end
   $var wire 3 $E io_exe_alutype $end
  $upscope $end
  $scope module exemem_reg $end
   $var wire 32 7 io_exe_wd $end
   $var wire 1 I io_mem_mreg $end
   $var wire 1 P clock $end
   $var wire 32 x io_exe_din $end
   $var wire 1 z mreg_reg $end
   $var wire 32 "- io_mem_wd $end
   $var wire 8 "/ io_mem_aluop $end
   $var wire 5 "O io_mem_wa $end
   $var wire 32 "w wd_reg $end
   $var wire 32 #' io_mem_din $end
   $var wire 1 #, reset $end
   $var wire 1 #/ io_exe_wreg $end
   $var wire 1 #g io_exe_mreg $end
   $var wire 5 #n wa_reg $end
   $var wire 1 #o wreg_reg $end
   $var wire 8 $% aluop_reg $end
   $var wire 32 $. din_reg $end
   $var wire 1 $/ io_mem_wreg $end
   $var wire 5 $< io_exe_wa $end
   $var wire 8 $D io_exe_aluop $end
  $upscope $end
  $scope module ctrl $end
   $var wire 1 - reset $end
   $var wire 1 "H flush_flag_reg $end
   $var wire 1 #H clock $end
   $var wire 1 #f io_flush_flag_id $end
   $var wire 1 #{ io_jump_flag $end
  $upscope $end
  $scope module if_stage $end
   $var wire 1 ? io_jump_flag $end
   $var wire 32 M pc_plus_4 $end
   $var wire 1 ] reset $end
   $var wire 1 p io_ice $end
   $var wire 32 "& io_pc $end
   $var wire 33 "' _T $end
   $var wire 32 "1 _GEN_0 $end
   $var wire 32 "j io_jump_addr $end
   $var wire 32 #" pc_next $end
   $var wire 1 #J ice_reg $end
   $var wire 1 #x clock $end
   $var wire 32 $= pc_reg $end
   $var wire 32 $? io_iaddr $end
  $upscope $end
$upscope $end
$enddefinitions $end
$dumpvars
b000000000000000000000000000000000 #>
0"c
0=
b00000000000000000000000000000000 "j
b00000000000000000000000000000000 $,
0"P
0#1
b00000000000000000000000000000000 "8
0"v
0#W
0m
b00000000000000000000000000000000000000000000000 $5
b000 $(
0~
0"r
0a
b000 ",
0"#
b00000000000000000000000000000000 $;
0z
0"n
b00000000000000000000000000000000 s
0]
0#2
0"<
0@
b00000000000000000000000000000000 #k
b00000 $<
b00000000000000000000000000000000 "C
b00000000000000000000000000000000 "&
b00000 #O
b00000 $0
0p
0$&
0"2
0#s
b00000 (
0"`
0"K
0#,
0O
0#$
b00000000000000000000000000000000 "g
0`
b00000000000000000000000000000000 #D
b00000000000000000000000000000000 "1
b0000000000000 :
0?
b00000000000000000000000000000000 #j
b00000 #Z
b00000000 "4
0#m
0"o
b00000000000000000000000000000000 "W
0#P
0$1
b00000000000000000000000000000000000000000000000 0
b00000000000000000000000000000000 B
b00000000000000000000000000000000 $8
0#~
b000 "B
0#a
0#L
0Z
0#/
0"9
b00000000000000000000000000000000 S
b00000000000000000000000000000000 >
b000000000000000000000000000000000 "'
0k
0#@
0$!
09
b00000 F
b00000000000000000000000000000000 2
b00000000000000000000000000000000 "Q
b0000 "[
b000 $E
0J
0#p
b00000000000000000000000000000000 "w
b00000000000000000000000000000000 .
0-
b00000 #]
0"z
b00000 "5
0#[
b00000000000000000000000000000000 M
b0000 #l
b00000000000000000000000000000000 #?
b00000000000000000000000000000000 {
0"Y
b00000000000000000000000000000000000000000000000 L
b00000000000000000000000000000000 #"
0#:
b00000000000000000000000000000000 ,
b00000000 "/
0#`
0$A
b00000000000000000000000000000000 o
0"M
b00000 f
b00000000000000000000000000000000 "q
b00000000000000000000000000000000 #R
b00000000000000000000000000000000 "i
b00000000000000000000000000000000 "?
b00000000000000000000000000000000 "7
0"{
b0000 #G
0#*
b0000 "I
0#{
b00000000000000000000000000000000 #c
b00000000000000000000000000000000 #N
0#
b00000000000000000000000000000000 #F
b00000 #y
b00000 #\
0#o
0"y
0h
0$3
0"\
0"G
0K
0#(
0#=
b00 #S
b00000000 8
b00000000 $C
0y
0"m
0"X
0$/
0\
b00000000000000000000000000000000 H
b00000000000000000000000000000000 +
b00000000000000000000000000000000 $6
b00000000000000000000000000000000 "_
0*
b0000000 #0
b00000000000000000000000000000000 n
b00000000000000000000000000000000 Y
0"L
0#-
0""
b00000000000000000000000000000000 '
b00000000000000000000000000000000 $2
0&
b00000000 G
0$>
b00000 #5
b00000000000000000000000000000000 "d
0#H
0$)
0"J
0#+
b00000 r
0#v
0#Y
0$:
b00000000000000000000000000000000 }
0g
b00000000000000000000000000000000 $"
0"F
0#<
b00000000000000000000000000000000 6
05
b00000000 $%
b00000000 $D
0[
0":
0)
b00000000000000000000000000000000 "s
b00 $'
b00000000 #_
b00000000000000000000000000000000 ;
0#}
b00000 #U
0#h
b0000 w
0#K
0"U
0#6
b00000000000000000000000000000000 #3
b00000000000000000000000000000000 "=
0v
0%
0#d
b00000 #Q
b00000000000000000000000000000000 "k
b00000000000000000000000000000000 $-
0"f
b000000000000000000000 "T
b00000000000000000000000000000000 "N
b00000000000000000000000000000000 V
0!
b000000000000000000000000000000000000000000000000000000000000000 ".
1#z
0#X
0$9
b00000000000000000000000000000000 |
0Q
0#&
0"E
0I
b00000000000000000000000000000000 #t
0"(
b00000000000000000000000000000000 "~
04
b00000000000000000000000000000000 "a
b00000000000000000000000000000000 i
0#i
b00000000 "0
0b
0E
0"$
0"u
0#V
0$7
b00000 $$
b00000000000000000000000000000000000000000000 #!
b00000000000000000000000000000000 #)
b00000000000000000000000000000000 "+
b000 $4
0#g
0$+
0#J
b00000 "A
b00000000000000000000000000000000 D
0#x
0q
0"e
b00000000000000000000000000000000 j
b00000000000000000000000000000000 U
0T
0"3
0"H
b00000000000000000000000000000000 #M
b00000000000000000000000000000000 $.
b00000 /
0e
0P
0"D
0#%
03
b00000000000000000000000000000000 "}
b000000000000 #9
b00000000000000000000000000000000 #^
b00000000000000000000000000000000 $*
b00000000000000000000000000000000 $?
b00000000 $B
0#r
b00000 $@
0"t
b00000 #B
b00000 $#
b00000000000000000000000000000000 d
0#8
0##
0"%
b00000000000000000000000000000000 $=
b000000000000 "V
b000000000000000000000000000000000 #.
0#f
0"p
b00000 "]
b00000000000000000000000000000000 u
0"h
0"S
b00000000000000000000000000000000 ";
b00000 l
0">
0"6
0#4
0"!
b00000000000000000000000000000000 X
b00000000000000000000000000000000 C
b00000000000000000000000000000000 "Z
b00000000000000000000000000000000 #;
b00000 "@
0#I
b000 "*
0t
0_
b0000 #w
b00000 #n
b00000000000000000000000000000000 7
b00000000000000000000000000000000 "
b00000000000000000000000000000000 #7
b0000 #A
b00000 #b
b00000 "l
0#u
b00000000000000000000000000000000 "|
b00000 "O
0"b
0#C
b00000000000000000000000000000000 R
b00000000000000000000000000000000 #|
b00000000000000000000000000000000 "-
b0000000 <
0#q
b00000000000000000000000000000000 "x
0#T
0"^
b00000000000000000000000000000000 x
b00000000000000000000000000000000 #'
b00000000000000000000000000000000 c
b00000000000000000000 #E
b00000000000000000000000000000000 ")
b00000000000000000000000000000000 1
0#e
0$F
0^
0"R
b00000000000000000000000000000000 W
0A
b00000 N
0$
$end
#0
13
1-
b00000000000000000000000000000100 #"
1$!
b00000000000000000000000000000100 i
1#I
1#,
b000000000000000000000000000000100 "'
1"R
b00000000000000000000000000000100 M
1y
19
1]
1"#
#1
1"2
1Q
1"b
1"$
1#h
1k
1"y
1#H
1"z
1P
1#x
#6
0-
0"2
0Q
0$!
0"$
0#H
0#I
0#,
0"R
0"b
0#h
0k
0"y
0]
0"#
0"z
0P
0#x
#11
1"2
1Q
1"$
1#H
1p
1"b
1#C
1#J
1#h
1k
1"y
b00000000000000000000000000000100 "1
1"z
1P
1#x
#16
0"2
0Q
0"b
0"$
0#h
0k
0"y
0#H
0"z
0P
0#x
#21
1"2
1Q
b00000000000000000000000000001000 #"
1"$
b00000000000000000000000000000100 .
b00000000000000000000000000000100 }
1#H
b00000000000000000000000000000100 "&
b00000000000000000000000000000100 $?
b000000000000000000000000000001000 "'
b00000000000000000000000000001000 M
1"b
1#h
1k
1"y
b00000000000000000000000000001000 "1
1"z
b00000000000000000000000000000100 $=
1P
1#x
#26
0Q
b0000001 <
b11110000000000000000000000000001 $6
1#8
1"v
b11110000000000000000000000000001 6
b00010 #O
1b
b11111111111111111111111111111110 $2
1"!
0#h
b11110000000000000000000000000001 $,
b00000010001000001000 #E
b0110011 #0
1":
0"2
b00001 #y
b00010 (
0"b
b00100110 "0
b11111111111111111111111111111110 s
0k
0"y
09
b001 "*
0P
b11110000000000000000000000000001 "s
0"$
b11111111111111111111111111111110 R
b00000010001000001000000110110011 #k
1"u
1#V
b000000100010 #9
b11110000000000000000000000000001 #;
b00011 /
b11111111111111111111111111111110 c
b00001 F
b00011 #5
b000001000000000100010 "T
b11111111111111111111111111111110 "?
b000000100011 "V
0#x
1#1
1v
0#H
b10110011100000010010000000000010 "g
b00100110 #_
b00001 #B
b00010 r
b10110011100000010010000000000010 "x
1"c
b11111111111111111111111111111110 #D
b00011 l
b11110000000000000000000000000001 ")
0"z
b0100000100010 :
b001 $4
b00010 "]
b11110000000000000000000000000001 #)
b11110000000000000000000000000001 "+
#31
1Q
b00011 #U
b00000000000000000000000000000100 "W
b00000000000000000000000000001000 }
b11110000000000000000000000000001 S
b00011 $0
b000000000000000000000000000001100 "'
b00000000000000000000000000001100 M
1#h
b00100110 G
b00000000000000000000000000000100 2
b00000000000000000000000000000100 "j
b111111111111111111111111111111110 #.
b11101111111111111111111111111111 "8
b00000000000000000000000000000100 {
b00100110 $C
b00011 "l
1A
b11110000000000000000000000000001 ,
b11111111111111111111111111111111 "d
1"2
b001 $E
b01111111111111111111111111111111 X
b11111111111111111111111111111110 C
b00000000000000000000000000001000 .
b001 $(
b11111111111111111111111111111100 "Q
b00100110 "4
b00000000000000000000000000000100 "}
b11110000000000000000000000000001 $*
b00000000000000000000000000001000 $?
b000000000000000000000000000000011111111111111111111111111111110 ".
1"b
1k
b00001111111111111111111111111111 V
1"y
1#q
b00011 #\
1P
b00000000000000000000000000001000 $=
b00011110000000000000000000000000001000000000000 $5
b00000000000000000000000000001100 #"
b001 ",
1"$
b00000000000000000000000000001000 "&
b00000000000000000011111111111111111111111111110 L
b00011111111111111111111111111110 7
b11111111111111111111111111111111 #3
b11110000000000000000000000000001 "q
b11111111111111111111111111111110 #R
b11111111111111111111111111111110 "i
b11110000000000000000000000000001 H
b00100110 $B
b11111111111111111111111111111110 "k
b11110000000000000000000000000001 #7
b00001111111111111111111111111101 $-
b00000000000000000000000000000100 +
1#/
1#x
b00011111111111111111111111111110 #c
b11110000000000000000000000000000 #N
b00100110 $D
b11101111111111111111111111111111 Y
b00011111111111111111111111111110 "|
1#H
1$)
b00000000000000000000000000000100 '
b11110000000000000000000000000001 x
b00011111111111111111111111111110 "~
b00000000000000000001000000000000 >
1#v
b11110000000000000000000000000001 U
1#
b00000000000000000000000000001100 "1
1"z
b00011 $<
b111101111111111111111111111111111 #>
b11110000000000000000000000000001000000000000 #!
b00011 "@
#36
0Q
b0000001 <
b11110000000000000000000000000001 $6
1#8
b001 "B
1"v
b11110000000000000000000000000001 6
b00010 #O
0b
b11111111111111111111111111111110 $2
1"!
0#h
b11110000000000000000000000000001 $,
b00000010001000001001 #E
b0110011 #0
1":
0"2
b00001 #y
b00010 (
0"b
1#&
b00100111 "0
b11111111111111111111111111111110 s
0k
0"y
09
b001 "*
0P
b11110000000000000000000000000001 "s
0"$
b11111111111111111111111111111110 R
b00000010001000001001000110110011 #k
1"u
1#V
b000000100010 #9
b11110000000000000000000000000001 #;
b00011 /
b11111111111111111111111111111110 c
b00001 F
b00011 #5
b000001001000000100010 "T
b11111111111111111111111111111110 "?
b000000100011 "V
0#x
1#1
1v
0#H
b10110011100100010010000000000010 "g
b00100111 #_
b00001 #B
b00010 r
b10110011100100010010000000000010 "x
1"c
b11111111111111111111111111111110 #D
b00011 l
b11110000000000000000000000000001 ")
0"z
b0100000100010 :
b001 $4
b00010 "]
b11110000000000000000000000000001 #)
b11110000000000000000000000000001 "+
#41
1Q
b11110000000000000000000000000001 #j
b00000000000000000000000000001000 "W
1##
b00000000000000000000000000001100 }
b00011111111111111111111111111110 j
b000000000000000000000000000010000 "'
b00011 #n
b00000000000000000000000000010000 M
b00011 #Q
b00000000000000000000000000000000000000000000100 0
1#h
b00100111 G
b00000000000000000000000000001000 2
b00000000000000000000000000001000 "j
b00000000000000000000000000001000 {
b00100111 $C
b11110000000000000000000000000001 $.
b00011111111111111111111111111110 #M
b00011 "O
1"2
b00000000000000000000000000000100 u
b00000000000000000000000000001100 .
b00100111 "4
b00011111111111111111111111111110 #^
b00000000000000000000000000001000 "}
b00000000000000000000000000001100 $?
b00011111111111111111111111111110 "w
1"b
1k
1#o
1"y
b00011 #Z
b00000000000000000000000000001100 $=
1P
b00011110000000000000000000000000001000000000100 $5
b00011111111111111111111111111110 #?
b00011 "A
b00000000000000000000000000010000 #"
1#s
1"$
b00011111111111111111111111111110 ";
b00000000000000000000000000001000 i
b00000000000000000000000000001100 "&
1a
b00000000000000000000000000000000000000000000000 L
b00000000000000000000000000000000 7
b00000000000000000000000000000100 "=
b00100111 $B
b00000000000000000000000000001000 +
1#x
b00100111 $D
1$/
b00000000000000000000000000000000 "|
1#H
b00000000000000000000000000001000 '
b00011111111111111111111111111110 #|
b00011111111111111111111111111110 "-
b00000000000000000000000000000000 "~
b00000000000000000000000000000100 "a
b00011 $#
b00100110 "/
b00100110 $%
b00100110 8
b11110000000000000000000000000001 #'
b00000000000000000000000000010000 "1
1"z
1#[
#46
0Q
b0000001 <
b11110000000000000000000000000001 $6
1#8
b010 "B
1"v
b11110000000000000000000000000001 6
b00010 #O
b11111111111111111111111111111110 $2
1"!
0#h
b11110000000000000000000000000001 $,
b00000010001000001010 #E
b0110011 #0
1":
0"2
b00001 #y
b00010 (
0"b
0#&
b00101000 "0
b11111111111111111111111111111110 s
0k
0"y
09
b001 "*
0P
b11110000000000000000000000000001 "s
0"$
b11111111111111111111111111111110 R
b00000010001000001010000110110011 #k
1"u
1#V
b000000100010 #9
b11110000000000000000000000000001 #;
b00011 /
b11111111111111111111111111111110 c
b00001 F
b00011 #5
b000001010000000100010 "T
b11111111111111111111111111111110 "?
1#i
b000000100011 "V
0#x
1#1
1v
0#H
b10110011101000010010000000000010 "g
b00101000 #_
b00001 #B
b00010 r
b10110011101000010010000000000010 "x
1"c
b11111111111111111111111111111110 #D
b00011 l
b11110000000000000000000000000001 ")
0"z
b0100000100010 :
b001 $4
b00010 "]
b11110000000000000000000000000001 #)
b11110000000000000000000000000001 "+
#51
b00011 f
1Q
b00011111111111111111111111111110 "_
b00000000000000000000000000001100 "W
b00000000000000000000000000010000 }
b00011111111111111111111111111110 $8
b00000000000000000000000000000000 j
b000000000000000000000000000010100 "'
b00000000000000000000000000010100 M
b00000000000000000000000000000000000000000001000 0
1"S
1"6
b00011111111111111111111111111110 d
1#h
b00101000 G
b00000000000000000000000000001100 2
b00000000000000000000000000001100 "j
b00000000000000000000000000001100 {
b00101000 $C
b00000000000000000000000000000000 #M
1"2
b00000000000000000000000000001000 u
b00000000000000000000000000010000 .
1"f
1#*
b00101000 "4
b00000000000000000000000000000000 #^
b00000000000000000000000000001100 "}
b00000000000000000000000000010000 $?
b00011111111111111111111111111110 $"
1#`
b00000000000000000000000000000000 "w
1"b
b00011 $$
1k
1"y
b00000000000000000000000000010000 $=
1P
b00011110000000000000000000000000001000000001000 $5
b00000000000000000000000000000000 #?
b00000000000000000000000000010100 #"
1"$
b00000000000000000000000000000000 ";
b00000000000000000000000000001100 i
b00000000000000000000000000010000 "&
b00000000000000011111111111111111111111111111110 L
b11111111111111111111111111111110 7
b00000000000000000000000000001000 "=
b00011 N
b00101000 $B
b00000000000000000000000000001100 +
1_
1#x
b00101000 $D
b00011111111111111111111111111110 B
1"P
b00011 #]
1#H
b11111111111111111111111111111110 "|
b00000000000000000000000000001100 '
b00011 "5
b00000000000000000000000000000000 #|
b00000000000000000000000000000000 "-
b00011111111111111111111111111110 #t
b00011 $@
b11111111111111111111111111111110 "~
b00000000000000000000000000001000 "a
b00100111 "/
b00100111 $%
b00100111 8
b00000000000000000000000000010100 "1
1"z
#56
0Q
b0000001 <
b11110000000000000000000000000001 $6
1#8
b011 "B
1"v
b11110000000000000000000000000001 6
b00010 #O
b11111111111111111111111111111110 $2
1"!
0#h
b11110000000000000000000000000001 $,
b00000010001000001011 #E
b0110011 #0
1":
0"2
b00001 #y
1#d
b00010 (
0"b
b00101001 "0
b11111111111111111111111111111110 s
0k
0"y
09
b001 "*
0P
b11110000000000000000000000000001 "s
0"$
b11111111111111111111111111111110 R
b00000010001000001011000110110011 #k
1"u
1#V
b000000100010 #9
b11110000000000000000000000000001 #;
b00011 /
b11111111111111111111111111111110 c
b00001 F
b00011 #5
b000001011000000100010 "T
b11111111111111111111111111111110 "?
0#i
b000000100011 "V
0#x
1#1
1v
0#H
b10110011101100010010000000000010 "g
b00101001 #_
b00001 #B
b00010 r
b10110011101100010010000000000010 "x
1"c
b11111111111111111111111111111110 #D
b00011 l
b11110000000000000000000000000001 ")
0"z
b0100000100010 :
b001 $4
b00010 "]
b11110000000000000000000000000001 #)
b11110000000000000000000000000001 "+
