test_run_dir/myc01_core_should_test_jalr/myc01_core.vcd
$date
2022-01-31T07:30+0000
$end
$version
0.2
$end
$comment

$end
$timescale 1ns  $end
$scope module myc01_core $end
 $var wire 1 $ wb_stage $end
 $var wire 32 2 io_id_pc $end
 $var wire 1 5 regfile $end
 $var wire 1 > if_stage $end
 $var wire 1 G io_exe_wreg_o $end
 $var wire 32 R io_exe_wd_o $end
 $var wire 32 X io_din $end
 $var wire 5 p io_exe_wa_o $end
 $var wire 32 | io_iaddr $end
 $var wire 1 "H io_dce $end
 $var wire 1 "k ctrl $end
 $var wire 32 "u io_inst $end
 $var wire 1 "v clock $end
 $var wire 1 #) exe_stage $end
 $var wire 1 #8 exemem_reg $end
 $var wire 8 #> io_exe_aluop_o $end
 $var wire 1 #@ io_ice $end
 $var wire 4 #D io_we $end
 $var wire 1 #H idexe_reg $end
 $var wire 1 #R memwb_reg $end
 $var wire 1 #b mem_stage $end
 $var wire 1 #h id_stage $end
 $var wire 32 #x io_daddr $end
 $var wire 1 #z reset $end
 $var wire 32 $6 io_dm $end
 $var wire 1 $9 ifid_reg $end
  $scope module ifid_reg $end
   $var wire 32 ' io_id_pc $end
   $var wire 32 . io_if_pc $end
   $var wire 1 j clock $end
   $var wire 32 { pc_reg $end
   $var wire 1 #F reset $end
  $upscope $end
  $scope module mem_stage $end
   $var wire 32 " io_din $end
   $var wire 1 & dwe_temp_0 $end
   $var wire 1 6 inst_lb $end
   $var wire 8 9 io_mem_aluop_i $end
   $var wire 1 K dwe_temp_3 $end
   $var wire 1 f dre_temp_2 $end
   $var wire 32 h io_mem_dreg_o $end
   $var wire 1 s io_dce $end
   $var wire 1 "' inst_sw $end
   $var wire 32 "9 io_daddr $end
   $var wire 1 ": inst_sh $end
   $var wire 1 "E inst_lhu $end
   $var wire 1 "J dwe_temp_2 $end
   $var wire 1 "Q inst_sb $end
   $var wire 1 "q dre_temp_1 $end
   $var wire 1 #% io_load_unsign $end
   $var wire 1 #0 dwe_temp_1 $end
   $var wire 1 #5 inst_lbu $end
   $var wire 32 #; io_mem_wd_i $end
   $var wire 4 #< io_dre $end
   $var wire 5 #N io_mem_wa_o $end
   $var wire 1 #V dre_temp_0 $end
   $var wire 1 #Y io_mem_wreg_o $end
   $var wire 5 #Z io_mem_wa_i $end
   $var wire 32 #e io_mem_din_i $end
   $var wire 1 #m dre_temp_3 $end
   $var wire 1 #n io_mem_wreg_i $end
   $var wire 1 #p _T $end
   $var wire 4 #q io_dwe $end
   $var wire 1 #w inst_lw $end
   $var wire 1 #~ io_mem_mreg_o $end
   $var wire 1 $4 inst_lh $end
   $var wire 1 $< io_mem_mreg_i $end
  $upscope $end
  $scope module memwb_reg $end
   $var wire 1 P clock $end
   $var wire 1 T io_wb_load_unsign $end
   $var wire 1 \ io_mem_mreg $end
   $var wire 1 _ io_wb_wreg $end
   $var wire 1 a io_mem_wreg $end
   $var wire 32 c dreg_reg $end
   $var wire 5 d wa_reg $end
   $var wire 4 v io_wb_dre $end
   $var wire 1 "$ unsign_reg $end
   $var wire 5 "4 io_wb_wa $end
   $var wire 1 "7 io_wb_mreg $end
   $var wire 5 "? io_mem_wa $end
   $var wire 1 "C io_mem_load_unsign $end
   $var wire 4 "F io_mem_dre $end
   $var wire 1 "O reset $end
   $var wire 1 "b wreg_reg $end
   $var wire 32 #J io_mem_dreg $end
   $var wire 4 #f dre_reg $end
   $var wire 32 #{ io_wb_dreg $end
   $var wire 1 $, mreg_reg $end
  $upscope $end
  $scope module exe_stage $end
   $var wire 1 * io_exe_mreg_i $end
   $var wire 32 , io_exe_din_o $end
   $var wire 47 0 _GEN_4 $end
   $var wire 32 1 shiftres $end
   $var wire 32 = luiAns $end
   $var wire 8 F io_exe_aluop_o $end
   $var wire 32 H io_exe_din_i $end
   $var wire 47 L arithres $end
   $var wire 32 S io_exe_src2_i $end
   $var wire 32 V xorAns $end
   $var wire 32 W srlAns $end
   $var wire 32 Y addAns $end
   $var wire 32 i jalrAns $end
   $var wire 32 z sltuAns $end
   $var wire 3 "+ io_exe_alutype_i $end
   $var wire 63 "- _GEN_0 $end
   $var wire 32 "K sltAns $end
   $var wire 32 "N sllAns $end
   $var wire 32 "W ret_addr $end
   $var wire 32 "_ io_exe_pc_i $end
   $var wire 32 "a orAns $end
   $var wire 32 "h io_exe_src1_i $end
   $var wire 32 "{ io_exe_wd_o $end
   $var wire 44 "} _GEN_2 $end
   $var wire 32 #/ sraAns $end
   $var wire 33 #: _T $end
   $var wire 32 #C logicres $end
   $var wire 32 #K andAns $end
   $var wire 5 #T io_exe_wa_o $end
   $var wire 5 #[ io_exe_wa_i $end
   $var wire 1 #l io_exe_wreg_o $end
   $var wire 1 #r io_exe_wreg_i $end
   $var wire 32 $' subAns $end
   $var wire 1 $. io_exe_mreg_o $end
   $var wire 47 $0 auipcAns $end
   $var wire 8 $? io_exe_aluop_i $end
  $upscope $end
  $scope module wb_stage $end
   $var wire 32 ; io_dm $end
   $var wire 32 B io_wb_dreg_i $end
   $var wire 1 Z io_wb_load_unsign $end
   $var wire 32 "A data $end
   $var wire 1 "P io_wb_wreg_i $end
   $var wire 4 "X io_wb_dre_i $end
   $var wire 1 #( io_wb_wreg_o $end
   $var wire 1 #W io_wb_mreg_i $end
   $var wire 5 #} io_wb_wa_o $end
   $var wire 32 $3 io_wb_wd_o $end
   $var wire 5 $; io_wb_wa_i $end
  $upscope $end
  $scope module regfile $end
   $var wire 1 4 _GEN_3 $end
   $var wire 1 : _T $end
   $var wire 32 C regs $end
   $var wire 5 E io_ra1 $end
   $var wire 32 Q _GEN_0 $end
   $var wire 1 u io_re2 $end
   $var wire 1 x _GEN_11 $end
   $var wire 1 "# clock $end
   $var wire 32 "( _GEN_8 $end
   $var wire 1 "M io_we $end
   $var wire 32 "p io_rd2 $end
   $var wire 1 #. io_re1 $end
   $var wire 5 #L io_ra2 $end
   $var wire 5 #\ io_wa $end
   $var wire 32 #o io_wd $end
   $var wire 32 $- io_rd1 $end
    $scope module regs $end
      $scope module _T_21 $end
       $var wire 5 M addr $end
       $var wire 32 m pipeline_data_0 $end
       $var wire 1 "1 clk $end
       $var wire 1 "5 en $end
       $var wire 1 "B pipeline_valid_0 $end
       $var wire 32 "\ data $end
       $var wire 1 #_ valid $end
       $var wire 5 #a pipeline_addr_0 $end
       $var wire 1 #v mask $end
      $upscope $end
      $scope module _T_7 $end
       $var wire 32 b data $end
       $var wire 1 ~ en $end
       $var wire 1 "w clk $end
       $var wire 5 #t addr $end
      $upscope $end
      $scope module _T_16 $end
       $var wire 5 q addr $end
       $var wire 1 "^ clk $end
       $var wire 1 "` en $end
       $var wire 32 #& data $end
      $upscope $end
    $upscope $end
  $upscope $end
  $scope module id_stage $end
   $var wire 1 ! inst_lw $end
   $var wire 1 % imm_shamt $end
   $var wire 5 ( rs2 $end
   $var wire 1 ) inst_sra $end
   $var wire 32 3 io_jump_addr $end
   $var wire 7 < func7 $end
   $var wire 1 @ io_exe2id_wreg $end
   $var wire 1 D inst_lh $end
   $var wire 1 J inst_addi $end
   $var wire 1 N inst_srai $end
   $var wire 1 [ inst_srli $end
   $var wire 1 ] inst_slli $end
   $var wire 1 ` inst_bgeu $end
   $var wire 1 e id_alutype_temp_2 $end
   $var wire 1 g inst_add $end
   $var wire 5 k rd $end
   $var wire 1 l inst_beq $end
   $var wire 1 o imm_Stype $end
   $var wire 32 r io_id_src1_o $end
   $var wire 1 } inst_srl $end
   $var wire 1 "! inst_slti $end
   $var wire 32 "* io_rd2 $end
   $var wire 1 "2 inst_bge $end
   $var wire 32 "6 imm_ext $end
   $var wire 1 "8 io_rreg2 $end
   $var wire 1 "< inst_sb $end
   $var wire 3 "@ func3 $end
   $var wire 1 "D inst_lhu $end
   $var wire 1 "G id_alutype_temp_1 $end
   $var wire 1 "I inst_sltu $end
   $var wire 21 "R imm_J $end
   $var wire 12 "S imm_S $end
   $var wire 32 "T io_id_pc_i $end
   $var wire 1 "V inst_jalr $end
   $var wire 1 "Y inst_lbu $end
   $var wire 5 "Z io_ra2 $end
   $var wire 1 "[ inst_sw $end
   $var wire 1 "] inst_sh $end
   $var wire 1 "c inst_and $end
   $var wire 1 "d inst_lui $end
   $var wire 32 "e io_id_inst_i $end
   $var wire 5 "i io_exe2id_wa $end
   $var wire 1 "j inst_xori $end
   $var wire 1 "l inst_blt $end
   $var wire 1 "m inst_sub $end
   $var wire 1 "o inst_sll $end
   $var wire 1 "s io_rreg1 $end
   $var wire 1 "x io_jump_flag $end
   $var wire 32 "y io_exe2id_wd $end
   $var wire 32 "z io_id_pc_o $end
   $var wire 1 "| io_id_hold_i $end
   $var wire 1 #! io_mem2id_wreg $end
   $var wire 1 #" inst_or $end
   $var wire 1 #+ imm_Utype $end
   $var wire 7 #- opcode $end
   $var wire 5 #1 io_id_wa_o $end
   $var wire 1 #2 inst_xor $end
   $var wire 1 #4 io_id_wreg_o $end
   $var wire 12 #6 imm_I $end
   $var wire 32 #7 io_id_din_o $end
   $var wire 1 #9 inst_auipc $end
   $var wire 1 #= imm_Itype $end
   $var wire 5 #? io_ra1 $end
   $var wire 32 #A io_rd1 $end
   $var wire 20 #B imm_U $end
   $var wire 1 #I inst_ori $end
   $var wire 1 #M inst_andi $end
   $var wire 2 #S fwrd_reg2 $end
   $var wire 1 #U id_alutype_temp_0 $end
   $var wire 1 #X io_id_mreg_o $end
   $var wire 32 #] io_mem2id_wd $end
   $var wire 8 #^ io_id_aluop_o $end
   $var wire 1 #` imm_Jtype $end
   $var wire 32 #g id_inst $end
   $var wire 1 #k inst_sltiu $end
   $var wire 1 #y inst_bltu $end
   $var wire 5 #| io_mem2id_wa $end
   $var wire 2 $" fwrd_reg1 $end
   $var wire 1 $& inst_slt $end
   $var wire 32 $( io_id_src2_o $end
   $var wire 3 $/ io_id_alutype_o $end
   $var wire 1 $1 inst_bne $end
   $var wire 1 $5 inst_lb $end
  $upscope $end
  $scope module idexe_reg $end
   $var wire 1 # wreg_reg $end
   $var wire 32 + io_id_pc $end
   $var wire 5 / io_id_wa $end
   $var wire 32 7 io_id_src2 $end
   $var wire 1 A io_exe_mreg $end
   $var wire 32 U io_exe_din $end
   $var wire 32 t pc_reg $end
   $var wire 1 "" reset $end
   $var wire 3 ") io_id_alutype $end
   $var wire 8 "/ io_id_aluop $end
   $var wire 8 "3 aluop_reg $end
   $var wire 32 "; io_exe_pc $end
   $var wire 32 "= io_id_src1 $end
   $var wire 5 "> io_exe_wa $end
   $var wire 1 "U mreg_reg $end
   $var wire 32 "f src1_reg $end
   $var wire 32 "n io_exe_src2 $end
   $var wire 1 "r io_id_wreg $end
   $var wire 1 ## io_id_mreg $end
   $var wire 32 #3 src2_reg $end
   $var wire 32 #Q io_exe_src1 $end
   $var wire 1 #d clock $end
   $var wire 3 $# alutype_reg $end
   $var wire 1 $$ io_exe_wreg $end
   $var wire 32 $% din_reg $end
   $var wire 5 $+ wa_reg $end
   $var wire 32 $2 io_id_din $end
   $var wire 8 $> io_exe_aluop $end
   $var wire 3 $@ io_exe_alutype $end
  $upscope $end
  $scope module exemem_reg $end
   $var wire 32 8 io_exe_wd $end
   $var wire 1 I io_mem_mreg $end
   $var wire 1 O clock $end
   $var wire 32 w io_exe_din $end
   $var wire 1 y mreg_reg $end
   $var wire 32 ", io_mem_wd $end
   $var wire 8 ". io_mem_aluop $end
   $var wire 5 "L io_mem_wa $end
   $var wire 32 "t wd_reg $end
   $var wire 32 #$ io_mem_din $end
   $var wire 1 #* reset $end
   $var wire 1 #, io_exe_wreg $end
   $var wire 1 #c io_exe_mreg $end
   $var wire 5 #i wa_reg $end
   $var wire 1 #j wreg_reg $end
   $var wire 8 $! aluop_reg $end
   $var wire 32 $) din_reg $end
   $var wire 1 $* io_mem_wreg $end
   $var wire 5 $7 io_exe_wa $end
   $var wire 8 $= io_exe_aluop $end
  $upscope $end
  $scope module ctrl $end
   $var wire 1 - reset $end
   $var wire 1 #' hold_flag_reg $end
   $var wire 1 #E clock $end
   $var wire 1 #O io_hold_flag_exe $end
   $var wire 1 #u io_jump_flag $end
  $upscope $end
  $scope module if_stage $end
   $var wire 1 ? io_jump_flag $end
   $var wire 1 ^ reset $end
   $var wire 1 n io_ice $end
   $var wire 32 "% io_pc $end
   $var wire 33 "& _T $end
   $var wire 32 "0 _GEN_0 $end
   $var wire 32 "g io_jump_addr $end
   $var wire 32 "~ pc_next $end
   $var wire 1 #G ice_reg $end
   $var wire 32 #P pc_plus4 $end
   $var wire 1 #s clock $end
   $var wire 32 $8 pc_reg $end
   $var wire 32 $: io_iaddr $end
  $upscope $end
$upscope $end
$enddefinitions $end
$dumpvars
b00 $"
0o
0"c
b0000 #D
0"1
0#c
b00000000000000000000000000000000 #K
b00000 "Z
b00000000000000000000000000000000 r
0"P
b00000 #a
0"v
0#W
b00000000000000000000000000000000 Q
0~
0"r
0$4
b00000000000000000000000000000000 w
b00000000000000000000000000000000 b
0a
b00000 #|
0#!
0D
b00000000000000000000000000000000 #o
0"#
b00000000000000000000000000000000 "y
b00000000000000000000000000000000 "\
b00000000000000000000000000000000 "*
b00000000 "3
0#O
0]
0"Q
0#2
0"<
0@
b00000 #[
b00000000000000000000000000000000 "u
b00000000000000000000000000000000 #$
b000 $/
0#w
0#b
0"l
0#M
0$.
0"d
b000000000000000000000 "R
0"O
0#0
0#E
0"2
0$&
0>
b0000 #q
b00000 #}
0#s
b00000000000000000000000000000000 m
0l
b00000 (
0"`
0O
0"C
b00000000000000000000000000000000 #e
0:
0#,
b00000000000000000000000000000000 3
b00000000000000000000000000000000 "g
b00000000000000000000000000000000 $)
0`
b00000000000000000000000000000000 $%
b00000000000000000000000000000000000000000000000 $0
0?
b00000 #Z
b00000 $;
0#m
0"o
b00000000000000000000000000000000 "W
0$1
b00000000000000000000000000000000 t
b00000000000000000000000000000000000000000000000 0
b00000000000000000000000000000000 "%
b00000000000000000000000000000000 B
b00000000000000000000000000000000 $8
0#~
b00000 $7
b00000 #N
0"k
0Z
b00000000000000000000000000000000 "6
b00000000000000000000000000000000 S
b000000000000000000000000000000000 #:
0#@
0N
b00000 #i
b00000000000000000000000000000000 2
0#_
b00000000000000000000000000000000 "f
b00000000000000000000000000000000 $(
b00000 #L
b0000 #<
0J
0#p
b00000000000000000000000000000000 .
b00000000000000000000000000000000 #C
0-
0$<
0"]
b00000000000000000000000000000000 #&
b00000000000000000000000000000000 "0
b00000000000000000000000000000000 "(
b00000000000000000000000000000000 {
0"Y
b00000000000000000000000000000000000000000000000 L
b00000000000000000000000000000000 "A
b00000000000000000000000000000000 ",
b00000000000000000000000000000000 ,
b00000000 "/
0#`
0n
0"M
0#.
b00000000000000000000000000000000 =
b00000000000000000000000000000000 #g
b00000000000000000000000000000000 $3
b00000000000000000000000000000000 #J
b00000000000000000000000000000000 "T
b000000000000000000000000000000000 "&
1#v
0j
0"I
0#*
b00000000000000000000000000000000 #x
0#
b00000 E
b00000000000000000000000000000000 "e
b00000000000000000000000000000000 $'
b00000 #\
0}
0"q
0#R
b00000 "4
0"G
0K
0#(
0#=
b00 #S
b000 $#
0#k
b00000000000000000000000000000000 z
0y
0#9
b0000 "X
0\
b00000000000000000000000000000000 H
0G
0"m
b00000 q
b00000000000000000000000000000000 +
b00000000000000000000000000000000 "t
b00000000000000000000000000000000 "_
b00000000000000000000000000000000 $6
0*
b00000000000000000000000000000000 Y
0"7
0""
b00000000000000000000000000000000 '
b00000000000000000000000000000000 "p
b00000000000000000000000000000000 #Q
b00000000000000000000000000000000 $2
0&
0#z
b00000 "i
b00000 $+
0"|
0#H
0"J
0#+
0#n
0"x
0#Y
b00000 #1
b00000000000000000000000000000000 h
0g
0#'
b00000000000000000000000000000000 #A
0"[
05
b00000000000000000000 #B
b000000000000000000000000000000000000000000000000000000000000000 "-
b00000000 9
0x
b00000 p
0[
0":
0#l
0)
b0000 #f
b00000 d
b00000000000000000000000000000000 ;
0#h
b00000000000000000000000000000000 #P
0%
0"j
0$,
0"U
b00000000000000000000000000000000 #3
b00000000000000000000000000000000 "=
0"8
b0000000 #-
0#y
06
0#d
b00000000000000000000000000000000 $-
0!
0#G
b00000 ">
b00000000000000000000000000000000 "N
b00000000000000000000000000000000 V
b00000000000000000000000000000000 #/
b00000000000000000000000000000000 "9
0"w
0#X
b00000000000000000000000000000000 |
0$9
0f
0"E
0I
04
b00000000000000000000000000000000 "~
b00000000000000000000000000000000 "a
b00000000000000000000000000000000 i
0"V
b000 $@
0"$
b000000000000 #6
b00000000000000000000000000000000 "z
0#V
b00000000 #^
b00000000 $?
b00000 #T
b00000000 ".
0u
b000 "@
0#5
b000 "+
b0000 "F
0#F
b00000000000000000000000000000000 U
0T
0"H
0#)
b00000000000000000000000000000000 8
b00000 /
0e
0P
0"D
0#%
b00000000000000000000000000000000 #{
b00000000000000000000000000000000000000000000 "}
0"'
b00000000000000000000000000000000 "h
b00000000000000000000000000000000 "K
b00000 #t
0#r
0#j
0#U
b00000 "L
0#8
0"B
0##
b00000000000000000000000000000000 "{
b00000000 $>
b00000000 $!
b00000 M
0#I
0#4
b00000000000000000000000000000000 ";
b00000000000000000000000000000000 X
b00000000000000000000000000000000 C
0$*
0"!
0_
b00000000000000000000000000000000 #;
b00000000 F
b00000000 #>
b00000000000000000000000000000000 7
b00000000000000000000000000000000 "
b00000000000000000000000000000000 #7
0#u
b00000000000000000000000000000000 #]
0"b
0$$
b00000000000000000000000000000000 R
b0000000 <
b00000000000000000000000000000000 $:
b000000000000 "S
0"s
0$5
0"^
b00000000000000000000000000000000 c
0#"
b00000000000000000000000000000000 1
b00000000 $=
0s
0^
b00000 "?
b000 ")
b00000 k
b00000000000000000000000000000000 W
0A
0"5
0$
b00000 #?
b0000 v
b00000000000000000000000000000000 "n
$end
#0
1-
1#F
14
1#z
1#*
b00000000000000000000000000000100 i
1x
b000000000000000000000000000000100 "&
b00000000000000000000000000000100 #P
b00000000000000000000000000000100 "~
1""
1:
1^
1"O
#1
1"^
1"w
1#d
1#s
1"1
1"v
1"#
1O
1j
1P
1#E
#6
0"^
0-
0#F
0#d
0#s
0#z
0#*
0"v
0j
0"w
0""
0"1
0"#
0O
0^
0P
0#E
0"O
#11
1"^
1#d
1#s
1#@
1#G
1"v
1j
1"w
b00000000000000000000000000000100 "0
1"1
1"#
1O
1P
1#E
1n
#16
0"^
0"w
0#d
0#s
0"1
0"v
0"#
0O
0j
0P
0#E
#21
1"^
1#d
1#s
b00000000000000000000000000000100 .
b00000000000000000000000000000100 "%
1"v
b00000000000000000000000000000100 $8
b000000000000000000000000000001000 "&
1j
b00000000000000000000000000001000 #P
b00000000000000000000000000001000 "~
1"w
b00000000000000000000000000000100 $:
b00000000000000000000000000001000 "0
1"1
1"#
1O
b00000000000000000000000000000100 |
1P
1#E
#26
0"^
b00000000000000000000000000000010 3
1#U
0#s
b00010111001000010000000000000000 "u
1#9
0"v
b00000000000000000000000000000010 7
0j
b00010 /
b000000010000000000000 "R
b000000000010 "S
b00000000000000000010000100010111 #g
1#4
b00000000000000000000000000000010 "6
0"#
0#E
b001 $/
b00010111001000010000000000000000 "e
b00010 #1
0#d
b00000000000000000000000000000010 $(
b00000000000000000000000000000010 "g
1#+
b00011101 #^
b00000000000000000010 #B
b0010111 #-
0"w
b00011101 "/
b00010 k
0"1
b001 ")
0O
1"r
0P
b010 "@
#31
1#r
b00000000000000000000000000001000 "%
b00000000000000000000000000000010 S
1#l
1"v
b00000000000000000000000000001000 $8
b00000000000000000000000000000010 "n
b000000000000000000000000000000010 #:
b00000000000000000000000000000000010000000000000 $0
1j
b00010 ">
1G
b00000000000000000000000000000100 2
b00000000000000000000000000000100 {
1"#
1#E
1#d
b00000000000000000000000000001000 .
b00000000000000000000000000000010000000000000 "}
b00011101 $?
b00000000000000000010000000000000 =
1#,
b00000000000000000000000000000001 "K
1"w
1$$
b00000000000000000000000000001100 "0
b00000000000000000000000000000010 V
b00000000000000000010000000000000 "y
b00011101 $=
1P
b00000000000000000010000000000000 "{
b00010 #T
1"^
b00000000000000000000000000000110 3
1#s
b00000000000000000010000000000000 R
b00010 $7
b000000000000000000000000000001100 "&
b00000000000000000000000000000000010000000000000 L
b00000000000000000000000000001100 #P
b00000000000000000000000000000010 #3
b00011101 F
b00010 $+
b00010 "i
b00000000000000000000000000000100 "T
b00000000000000000000000000000001 z
b00000000000000000000000000000100 +
b00000000000000000000000000001000 |
b11111111111111111111111111111110 $'
b00011101 "3
b00000000000000000000000000000010 Y
b00011101 $>
b00000000000000000000000000000110 "g
b00000000000000000000000000000100 '
b00010 p
b001 $@
b00000000000000000000000000001100 "~
b00000000000000000000000000000010 "a
b001 $#
1@
b00000000000000000000000000001000 $:
b00000000000000000010000000000000 8
1#
1"1
b00010 #[
1O
b00000000000000000000000000000100 "z
b00011101 #>
b001 "+
#36
b00000000000000000000000000000010 Q
1#U
0"v
0j
b00000000000000000000000000000010 b
b00000000000000000010000000000000 $2
b000000000011 "S
1#4
b00000000000000000000000000000000 "6
1#.
0"#
0#E
0#d
b00000000000000000000000000000000 $(
b00010 E
b00100101 #^
b00000000000000000000000000000010 #A
b01 $"
1#u
1?
0"w
b00000000000000000010000000000000 "0
b00011 k
1#=
0P
1"s
0"^
b00010 #?
b00000000000000000010000000000000 3
0#s
b11100111000000010000000100000000 "u
0#9
1~
b00000000000000000000000000000000 7
b00011 /
b000010000000000000000 "R
b00000000000000000010000000000000 "=
b00000000000000010000000111100111 #g
1e
b00000000000000000000000000000010 $-
1"V
b00000000000000000010000000000000 #7
b101 $/
b11100111000000010000000100000000 "e
b00011 #1
b00000000000000000010000000000000 "g
0#+
b00010 #t
b00000000000000000010000000000000 "~
b00000000000000010000 #B
b1100111 #-
b00100101 "/
b00000000000000000010000000000000 r
1"x
0"1
b101 ")
0O
0:
1"r
b000 "@
#41
b00000000000000000000000000000000 S
1"v
b00000000000000000010000000000000 $8
1j
1#n
b00000000000000000000000000000000 b
b00000000000000000010000000000000 #Q
b00000000000000000000000000000000 $2
b00000000000000000000000000000000000000000000100 0
b000000000000 "S
b00011 ">
b00000000000000000000000000001000 {
1"#
b00000000000000000010000000000000 ,
1#E
b00000000000000000010000000000000 "f
0#u
b00100101 $=
b00000000000000000000000000001000 "{
1"^
b00000 #?
b00000000000000000010000000000000 ",
b00000000000000000000000000001000 R
b00011 $7
1J
b00000000000000000000000000000100 ";
0~
b000000000000000000010000000000100 "&
1a
b00000000000000000000000000000000000000000000000 L
b00000000000000000010000000000100 #P
b00000000000000000010000000000000 #;
b00000000000000000000000000000000 "=
b00000000000000000000000000010011 #g
b00100101 F
b00000000000000000010000000000000 #J
b00011 $+
b00010 "?
b00011 "i
b00000000000000000000000000001000 "T
b00000000000000000000000000001000 +
b00000000000000000010000000000000 "N
b00000000000000000010000000000000 #/
b00000000000000000010000000000000 |
b00010 #N
b001 $/
b00000000000000000010000000000000 Y
b00000000000000000000000000001000 '
b00010 #|
b000000000000000000000000000000000000000000000000010000000000000 "-
b00000000000000000000000000000000 r
b00000000000000000010000000000000 U
1#Y
b00000000000000000010000000000000 $%
0"x
b00000000000000000010000000000000 $:
1#'
1"1
1O
1:
b00100101 #>
1#!
b101 "+
b00000000000000000000000000000000 Q
1#j
b00000000000000000010000000000000 "t
b00011101 $!
b00000000000000000000000000000100 "_
b00000000000000000000000000001000 "W
b00000000000000000010000000000000 h
b00000000000000000010000000000000 "%
1#O
b00000000000000000000000000000000 "n
b000000000000000000010000000000000 #:
b00000000000000000000000000000000000000000000100 $0
b00000000000000000000000000001000 2
1#d
b00000000000000000010000000000000 .
b00000000000000000010000000000000 w
b00000 E
b00000000000000000000000000000000000000000000 "}
1$*
b00000000000000000000000000000000 =
b00000000000000000010000000000000 "h
b00100101 $?
b00000000000000000000000000000000 "K
b00001011 #^
b00000000000000000000000000000000 #A
b11 $"
b00011101 ".
0?
1"w
b00000000000000000010000000000100 "0
b00000 k
b00000000000000000010000000000000 V
b00010 #Z
b00000000000000000000000000001000 "y
b00011101 9
1P
b00011 #T
b00000000000000000000000000001000 3
1#s
b00000000000000000000000000001000 i
b00000 /
b00000000000000000000000000000000 #3
b000000000000000000000 "R
b00000000000000000000000000000000 z
0e
b00010 #i
b00000000000000000010000000000000 H
b00000000000000000000000000000000 $-
0"V
b00000000000000000000000000000000 #7
b00000000000000000010000000000000 "9
b00000000000000000000000000000100 t
b00000000000000000010000000000000 #x
b00000000000000000010000000000000 $'
b00000 #1
b00100101 "3
b00100101 $>
b00000000000000000010000000000000 #]
1"|
b00000000000000000000000000001000 "g
b00011 p
b00000 #t
b101 $@
b00000000000000000010000000000100 "~
b00000000000000000010000000000000 "a
b00010 "L
b101 $#
b00000000000000000000 #B
b0010011 #-
b00001011 "/
b00000000000000000000000000001000 8
b001 ")
b00000000000000000010000000000000 W
b00011 #[
b00000000000000000000000000001000 "z
#46
0"^
0"w
b11100111000000010010000100000000 "e
0#d
0#s
b11100111000000010010000100000000 "u
0"1
0"v
0"#
0O
0j
0P
0#E
#51
04
1"v
b00000000000000000010000000000100 $8
1j
b00000000000000000000000000000010 b
b00010 M
b00000000000000000000000000000000 #Q
b00000000000000000000000000000000000000000001000 0
b000000000011 "S
b00000 ">
b00010 #}
1"M
b00000000000000000010000000000000 {
1"#
b00000000000000000000000000000000 ,
1#E
b00000000000000000000000000000000 "f
b00000000000000000000000000000010 $(
b00010 "4
1#u
1"b
b00000000000000000000000000000010 #&
b00010 #\
b00001011 $=
b00000000000000000000000000000000 "{
1"^
b00010 #?
b00000000000000000000000000001000 ",
b00000000000000000000000000000000 R
b00000 $7
0J
b00000000000000000010000000000000 #$
b00000000000000000000000000001000 ";
b000000000000000000010000000001000 "&
b00000000000000000010000000001000 #P
b00000000000000000000000000001000 #;
b00010 "Z
b00000000000000000010000000000000 "=
b00000000000000000010000000000000 c
b00000000001000010000000111100111 #g
b00001011 F
b00000000000000000000000000001000 #J
b00000 $+
b00011 "?
b00000 "i
b00000000000000000010000000000000 "T
b00000000000000000010000000000000 +
b00000000000000000000000000000000 "N
b00000000000000000000000000000000 #/
b00000000000000000010000000000100 |
b00011 #N
b101 $/
b00000000000000000010000000000000 #e
b00000000000000000000000000000000 Y
b00000000000000000010000000000000 '
b00011 #|
b000000000000000000000000000000000000000000000000000000000000000 "-
b00000000000000000010000000000000 r
b00000000000000000000000000000000 U
1"x
b00000000000000000000000000000000 $%
b00000000000000000010000000000100 $:
0#'
1"1
1O
0:
b00001011 #>
b001 "+
b00000000000000000010000000000000 Q
b00000000000000000000000000001000 "t
b00100101 $!
b00000000000000000000000000001000 "_
b00000000000000000000000000000000 "W
b00000000000000000000000000001000 h
b00000000000000000010000000000100 "%
0#O
b000000000000000000000000000000000 #:
b00000000000000000000000000000000000000000001000 $0
b00000000000000000000000000000010 "6
b00010 d
b00000000000000000010000000000000 2
b000000000010 #6
1#d
b00000000000000000010000000000100 .
b00000000000000000000000000000000 w
b00000000000000000010000000000000 #{
b00010 E
b00001011 $?
b00000000000000000000000000000000 "h
b00100101 #^
b00010 (
1"`
b00000000000000000010000000000000 #A
b00100101 ".
b00010 q
1?
1"w
b00000000000000000010000000000010 "0
b00011 k
b00000000000000000000000000000000 V
b00000000000000000010000000000000 #o
b00010 $;
b00011 #Z
b00100101 9
b00000000000000000000000000000000 "y
b00000000000000000010000000000000 "\
1#(
1P
b00000 #T
b00000000000000000010000000000010 3
1#s
b00000000000000000000000000001100 i
b00000000000000000000000000000010 7
b00011 /
b000010000000000000010 "R
b00000000000000000010000000000000 $3
1e
b00011 #i
b00000000000000000000000000000000 H
b00010 #L
1"V
b00000000000000000010000000000000 $-
b00000000000000000000000000001000 "9
b00000000000000000000000000001000 t
1_
b00000000000000000000000000001000 #x
b00000000000000000010000000000000 B
b00000000000000000000000000000000 $'
1"P
b00011 #1
b00001011 "3
b00001011 $>
b00000000000000000010000000000000 $)
b00000000000000000000000000001000 #]
0"|
b00000000000000000010000000000010 "g
1"5
b00000 p
b00010 #t
1#_
b001 $@
b00000000000000000010000000000010 "~
b00000000000000000000000000000000 "a
b00011 "L
b001 $#
b00000000001000010000 #B
b1100111 #-
b00100101 "/
b00000000000000000000000000000000 8
b101 ")
b00000000000000000000000000000000 W
b00000 #[
b00000000000000000010000000000000 "z
#56
b00000000000000000000000000000000 Q
0#U
14
0"v
0j
b00000000000000000000000000000000 b
b000000000000 "S
0#4
b00000000000000000000000000000000 "6
b000000000000 #6
0#.
0"#
0#E
0#d
b00000000000000000000000000000000 $(
b00000 E
b00000000 #^
b00000 (
0"`
b00000000000000000000000000000000 #A
b00 $"
b00000 q
0#u
0?
0"w
b00000000000000000000000000000000 #&
b00000000000000000010000000001000 "0
b00000 k
0#=
0P
0"s
0"^
b00000 #?
b00000000000000000010000000000000 3
0#s
b00000000000000000000000000000000 "u
b00000000000000000000000000000000 7
b00000 "Z
b00000 /
b000000000000000000000 "R
b00000000000000000000000000000000 "=
b00000000000000000000000000000000 #g
0e
b00000 #L
0"V
b00000000000000000000000000000000 $-
b000 $/
b00000000000000000000000000000000 "e
b00000 #1
b00000000000000000010000000000000 "g
b00000 #t
b00000000000000000010000000001000 "~
b00000000000000000000 #B
b0000000 #-
b00000000 "/
b00000000000000000000000000000000 r
0"x
0"1
b000 ")
0O
1:
0"r
