test_run_dir/myc01_core_should_test/myc01_core.vcd
$date
2022-01-16T09:10+0000
$end
$version
0.2
$end
$comment

$end
$timescale 1ns  $end
$scope module myc01_core $end
 $var wire 1 " wb_stage $end
 $var wire 32 ' io_id_pc $end
 $var wire 1 * regfile $end
 $var wire 1 / if_stage $end
 $var wire 1 4 io_exe_wreg_o $end
 $var wire 32 : io_exe_wd_o $end
 $var wire 5 L io_exe_wa_o $end
 $var wire 32 R io_iaddr $end
 $var wire 32 "' io_inst $end
 $var wire 1 "( clock $end
 $var wire 1 ". exe_stage $end
 $var wire 1 "8 exemem_reg $end
 $var wire 8 "; io_exe_aluop_o $end
 $var wire 1 "= io_ice $end
 $var wire 1 "A idexe_reg $end
 $var wire 1 "G memwb_reg $end
 $var wire 1 "Q mem_stage $end
 $var wire 1 "T id_stage $end
 $var wire 1 "^ reset $end
 $var wire 1 "k ifid_reg $end
  $scope module ifid_reg $end
   $var wire 32 # io_id_pc $end
   $var wire 32 % io_if_pc $end
   $var wire 1 H clock $end
   $var wire 32 P pc_reg $end
   $var wire 1 "@ reset $end
  $upscope $end
  $scope module mem_stage $end
   $var wire 32 F io_mem_dreg_o $end
   $var wire 32 ": io_mem_wd_i $end
   $var wire 5 "E io_mem_wa_o $end
   $var wire 1 "J io_mem_wreg_o $end
   $var wire 5 "K io_mem_wa_i $end
   $var wire 1 "Y io_mem_wreg_i $end
  $upscope $end
  $scope module memwb_reg $end
   $var wire 1 8 clock $end
   $var wire 1 @ io_wb_wreg $end
   $var wire 1 A io_mem_wreg $end
   $var wire 32 C dreg_reg $end
   $var wire 5 D wa_reg $end
   $var wire 5 c io_wb_wa $end
   $var wire 5 g io_mem_wa $end
   $var wire 1 q reset $end
   $var wire 1 y wreg_reg $end
   $var wire 32 "B io_mem_dreg $end
   $var wire 32 "_ io_wb_dreg $end
  $upscope $end
  $scope module exe_stage $end
   $var wire 32 ( shiftres $end
   $var wire 8 3 io_exe_aluop_o $end
   $var wire 32 5 arithres $end
   $var wire 32 ; io_exe_src2_i $end
   $var wire 32 < xorAns $end
   $var wire 32 = srlAns $end
   $var wire 32 > addAns $end
   $var wire 32 Q sltuAns $end
   $var wire 3 \ io_exe_alutype_i $end
   $var wire 63 ^ _GEN_0 $end
   $var wire 32 m sltAns $end
   $var wire 32 p sllAns $end
   $var wire 32 w orAns $end
   $var wire 32 } io_exe_src1_i $end
   $var wire 32 "* io_exe_wd_o $end
   $var wire 32 "3 sraAns $end
   $var wire 33 "9 _T $end
   $var wire 32 "? logicres $end
   $var wire 32 "C andAns $end
   $var wire 5 "H io_exe_wa_o $end
   $var wire 5 "L io_exe_wa_i $end
   $var wire 1 "W io_exe_wreg_o $end
   $var wire 1 "Z io_exe_wreg_i $end
   $var wire 32 "e subAns $end
   $var wire 8 "q io_exe_aluop_i $end
  $upscope $end
  $scope module wb_stage $end
   $var wire 32 0 io_wb_dreg_i $end
   $var wire 1 r io_wb_wreg_i $end
   $var wire 1 "- io_wb_wreg_o $end
   $var wire 5 "` io_wb_wa_o $end
   $var wire 32 "j io_wb_wd_o $end
   $var wire 5 "o io_wb_wa_i $end
  $upscope $end
  $scope module regfile $end
   $var wire 1 ) _GEN_3 $end
   $var wire 1 - _T $end
   $var wire 32 1 regs $end
   $var wire 5 2 io_ra1 $end
   $var wire 32 9 _GEN_0 $end
   $var wire 1 N io_re2 $end
   $var wire 1 O _GEN_11 $end
   $var wire 1 V clock $end
   $var wire 32 Y _GEN_8 $end
   $var wire 1 o io_we $end
   $var wire 32 "# io_rd2 $end
   $var wire 1 "2 io_re1 $end
   $var wire 5 "D io_ra2 $end
   $var wire 5 "M io_wa $end
   $var wire 6 "X io_wd $end
   $var wire 32 "h io_rd1 $end
    $scope module regs $end
      $scope module _T_21 $end
       $var wire 5 6 addr $end
       $var wire 32 I pipeline_data_0 $end
       $var wire 1 ` clk $end
       $var wire 1 d en $end
       $var wire 1 j pipeline_valid_0 $end
       $var wire 32 t data $end
       $var wire 1 "O valid $end
       $var wire 5 "P pipeline_addr_0 $end
       $var wire 1 "] mask $end
      $upscope $end
      $scope module _T_7 $end
       $var wire 32 B data $end
       $var wire 1 T en $end
       $var wire 1 ") clk $end
       $var wire 5 "\ addr $end
      $upscope $end
      $scope module _T_16 $end
       $var wire 5 K addr $end
       $var wire 1 u clk $end
       $var wire 1 v en $end
       $var wire 32 ", data $end
      $upscope $end
    $upscope $end
  $upscope $end
  $scope module id_stage $end
   $var wire 1 $ inst_sra $end
   $var wire 7 . func7 $end
   $var wire 1 E id_alutype_temp_2 $end
   $var wire 1 G inst_add $end
   $var wire 32 M io_id_src1_o $end
   $var wire 1 S inst_srl $end
   $var wire 32 Z io_rd2 $end
   $var wire 1 e io_rreg2 $end
   $var wire 3 i func3 $end
   $var wire 1 k id_alutype_temp_1 $end
   $var wire 1 l inst_sltu $end
   $var wire 5 s io_ra2 $end
   $var wire 8 x _T $end
   $var wire 1 z inst_and $end
   $var wire 32 { io_id_inst_i $end
   $var wire 1 ~ inst_sub $end
   $var wire 1 "" inst_sll $end
   $var wire 1 "% io_rreg1 $end
   $var wire 1 "+ inst_or $end
   $var wire 7 "1 opcode $end
   $var wire 5 "4 io_id_wa_o $end
   $var wire 1 "5 inst_xor $end
   $var wire 1 "7 io_id_wreg_o $end
   $var wire 5 "< io_ra1 $end
   $var wire 32 "> io_rd1 $end
   $var wire 1 "I id_alutype_temp_0 $end
   $var wire 8 "N io_id_aluop_o $end
   $var wire 32 "S id_inst $end
   $var wire 1 "c inst_slt $end
   $var wire 32 "d io_id_src2_o $end
   $var wire 3 "i io_id_alutype_o $end
  $upscope $end
  $scope module idexe_reg $end
   $var wire 1 ! wreg_reg $end
   $var wire 5 & io_id_wa $end
   $var wire 32 + io_id_src2 $end
   $var wire 1 U reset $end
   $var wire 3 [ io_id_alutype $end
   $var wire 8 _ io_id_aluop $end
   $var wire 8 b aluop_reg $end
   $var wire 32 f io_id_src1 $end
   $var wire 5 h io_exe_wa $end
   $var wire 32 | src1_reg $end
   $var wire 32 "! io_exe_src2 $end
   $var wire 1 "$ io_id_wreg $end
   $var wire 32 "6 src2_reg $end
   $var wire 32 "F io_exe_src1 $end
   $var wire 1 "R clock $end
   $var wire 3 "a alutype_reg $end
   $var wire 1 "b io_exe_wreg $end
   $var wire 5 "g wa_reg $end
   $var wire 8 "p io_exe_aluop $end
   $var wire 3 "r io_exe_alutype $end
  $upscope $end
  $scope module exemem_reg $end
   $var wire 32 , io_exe_wd $end
   $var wire 1 7 clock $end
   $var wire 32 ] io_mem_wd $end
   $var wire 5 n io_mem_wa $end
   $var wire 32 "& wd_reg $end
   $var wire 1 "/ reset $end
   $var wire 1 "0 io_exe_wreg $end
   $var wire 5 "U wa_reg $end
   $var wire 1 "V wreg_reg $end
   $var wire 1 "f io_mem_wreg $end
   $var wire 5 "m io_exe_wa $end
  $upscope $end
  $scope module if_stage $end
   $var wire 1 ? reset $end
   $var wire 1 J io_ice $end
   $var wire 32 W io_pc $end
   $var wire 1 X _T $end
   $var wire 32 a _GEN_0 $end
   $var wire 1 "[ clock $end
   $var wire 32 "l pc_reg $end
   $var wire 32 "n io_iaddr $end
  $upscope $end
$upscope $end
$enddefinitions $end
$dumpvars
0X
b00000000000000000000000000000000 Y
0"7
0""
b00000000000000000000000000000000 <
b00000000 b
b00000000000000000000000000000000 '
b00000000000000000000000000000000 ">
0"c
0o
b00000 g
b00000 "o
b00000000000000000000000000000000 "j
b00000000000000000000000000000000 "#
b00000 D
b00000000000000000000000000000000 "d
0V
0"J
b00000000000000000000000000000000 :
b00000000 ";
b00000000000000000000000000000000 Q
b000 \
b00000 "P
b00000000000000000000000000000000 }
0"[
b00000 "H
0")
0~
b00000000000000000000000000000000 w
0"@
b00000 n
b00000000000000000000000000000000 0
0/
b00000000000000000000000000000000 "*
b00000 h
0)
0z
0r
0"Q
0H
0@
b00000000000000000000000000000000 "C
b00000000000000000000000000000000 "&
b00000000000000000000000000000000 ;
0v
b00000 2
b00000000000000000000000000000000 Z
0"8
b00000000000000000000000000000000 (
0"O
b00000 "<
0"2
b00000 K
0!
0"f
b00000000000000000000000000000000 9
b000 "i
b00000000000000000000000000000000 m
b00000 "M
0l
0O
b00000000000000000000000000000000 P
b000000000000000000000000000000000000000000000000000000000000000 ^
0".
b00000000000000000000000000000000 |
0"Z
b00000 s
04
0"(
b000000000000000000000000000000000 "9
0`
0"V
0E
0"$
0?
b00000 "\
b00000000000000000000000000000000 t
0"=
b00000000000000000000000000000000 B
b000 "r
0u
0"T
b00000000000000000000000000000000 "'
b0000000 .
b00000 "m
0"k
b00000000000000000000000000000000 "S
b00000000000000000000000000000000 p
b00000000000000000000000000000000 "6
b00000000000000000000000000000000 "!
b00000000 "q
b00000000000000000000000000000000 >
0q
1J
0T
b00000 L
0"
b00000000000000000000000000000000 "l
b00000000000000000000000000000000 #
07
b00000000000000000000000000000000 ":
0k
b00000 c
0N
0"-
b00000000000000000000000000000000 f
0e
0"/
b00000000000000000000000000000000 I
b00000000000000000000000000000000 "h
0-
b00000 "g
b000000 "X
b00000000000000000000000000000000 M
0"+
b00000000 "N
b00000 "L
0"W
b00000 "D
0"%
b00000000000000000000000000000000 {
b00000 6
0"Y
b00000000 3
b00000000000000000000000000000000 ",
b000 i
b00000000000000000000000000000000 ,
b0000000 "1
b00000000000000000000000000000000 C
b00000000 x
b00000000000000000000000000000000 =
b00000000000000000000000000000000 "?
0S
0j
0U
0"I
08
b00000000 _
b00000 "U
b00000000000000000000000000000000 "e
0d
b00000000000000000000000000000000 "3
b000 [
0"b
b00000000000000000000000000000000 R
b00000000 "p
0"0
b00000000000000000000000000000000 5
b00000 "4
b00000000000000000000000000000000 a
0"G
b00000 &
0"^
b00000000000000000000000000000000 "F
b00000 "`
b00000 "K
0"A
b00000000000000000000000000000000 F
b00000000000000000000000000000000 1
b000 "a
0y
b00000 "E
1"]
b00000000000000000000000000000000 ]
0G
0*
b00000000000000000000000000000000 +
b00000000000000000000000000000000 "_
b00000000000000000000000000000000 "B
0"R
b00000000000000000000000000000000 W
0A
0"5
0$
b00000000000000000000000000000000 "n
b00000000000000000000000000000000 %
$end
#0
1"^
1)
1"@
1-
1"/
1?
1U
1O
b00000000000000000000000000000100 a
1q
1"=
#1
1u
1`
18
1"(
1V
1"[
1")
1H
17
1"R
#6
0"^
0u
0`
07
0q
0"R
0?
0"/
0U
08
0"(
0V
0"[
0")
0H
0"@
#11
1u
1`
b00000000000000000000000000000100 %
b00000000000000000000000000000100 R
b00000000000000000000000000000100 "n
b00000000000000000000000000001000 a
17
1"R
18
1"(
1V
1"[
1")
1H
b00000000000000000000000000000100 W
b00000000000000000000000000000100 "l
#16
b00000000000000000000000011111111 f
b00000000000000000000000000000100 ",
1"$
1"%
b00101 K
b001 i
07
b10110011000100010101001100000000 "'
b00110 "<
0"R
b00000000000000000000000011111111 M
b00000000010100110001000110110011 "S
1N
b00000000000000000000000011111111 ">
b100 "i
b00110 2
1""
1e
1"7
0H
b10110011000100010101001100000000 {
b00000000000000000000000000000100 "#
b00000000000000000000000000000100 +
b00000011 "N
b00000011 _
b00000000000000000000000000000100 "d
b00000000000000000000000011111111 B
0u
0`
0-
1"2
1v
b00011 &
b00000000000000000000000000000100 Y
b00011 "4
b00000000000000000000000000000100 Z
1E
b00000000000000000000000011111111 "h
b100 [
1T
b00101 "D
b00101 s
08
0"(
0V
0"[
b0110011 "1
b00000000000000000000000011111111 9
0")
b00110 "\
#21
b00000000000000000000000011111011 <
14
1"W
b00000000000000000000000011111111 }
b00011 h
b00000000000000000000000000001000 "n
b00000011 b
b00000011 "p
b00000000000000000000000000000100 "6
b00000000000000000000000000000100 "!
b000000000000000000000000000000000000000000000000000000011111111 ^
b00000000000000000000000000001000 "l
b00000000000000000000111111110000 ,
1u
1`
b00000000000000000000000011111111 w
b00000000000000000000000000001111 =
b00000000000000000000111111110000 (
b100 \
1"b
1"0
1"(
1V
b00000000000000000000111111110000 "*
b00000000000000000000000000000100 P
b00000000000000000000000000000100 ;
b00000011 3
b00000000000000000000000000001000 R
b00000000000000000000000000000100 "C
b00000011 ";
b00000000000000000000000000001100 a
b00011 L
17
1"Z
1"R
b00000011 "q
1H
b00000000000000000000000011111111 |
b000000000000000000000000100000011 "9
b00011 "m
b00000000000000000000000011111011 "e
b00000000000000000000000000001000 %
b00000000000000000000000000001111 "3
b00011 "g
b00000000000000000000000000000100 '
b00000000000000000000111111110000 p
b00000000000000000000000100000011 >
b100 "a
b00011 "L
1!
18
b00000000000000000000000000000100 #
1"[
b00000000000000000000000011111111 "F
1")
b00000000000000000000000000001000 W
b00000000000000000000111111110000 :
b100 "r
b00011 "H
#26
b00000000000000000000000000000000 f
b00000000000000000000000000000000 ",
0"$
0"%
b00000 K
b000 i
07
b00000000000000000000000000000000 "'
b00000 "<
0"R
b00000000000000000000000000000000 M
b00000000000000000000000000000000 "S
0N
b00000000000000000000000000000000 ">
b000 "i
b00000 2
0""
0e
0"7
0H
b00000000000000000000000000000000 {
b00000000000000000000000000000000 "#
b00000000000000000000000000000000 +
b00000000 "N
b00000000 _
b00000000000000000000000000000000 "d
b00000000000000000000000000000000 B
0u
0`
1-
0"2
0v
b00000 &
b00000000000000000000000000000000 Y
b00000 "4
b00000000000000000000000000000000 Z
0E
b00000000000000000000000000000000 "h
b000 [
0T
b00000 "D
b00000 s
08
0"(
0V
0"[
b0000000 "1
b00000000000000000000000000000000 9
0")
b00000 "\
#31
b00000000000000000000000000000000 <
04
0"W
b00000000000000000000111111110000 "B
b00000000000000000000000000000000 }
b00000 h
b00000000000000000000000000001100 "n
1"Y
b00000000 b
b00000000 "p
b00000000000000000000000000000000 "6
b00000000000000000000000000000000 "!
b00011 "U
b000000000000000000000000000000000000000000000000000000000000000 ^
b00000000000000000000000000001100 "l
1A
b00000000000000000000000000000000 ,
b00000000000000000000111111110000 ":
1u
1`
1"f
b00000000000000000000000000000000 w
b00000000000000000000000000000000 =
b00000000000000000000000000000000 (
b00011 "K
b000 \
0"b
b00011 "E
0"0
1"(
1V
b00000000000000000000000000000000 "*
b00000000000000000000000000001000 P
b00000000000000000000000000000000 ;
b00000000 3
b00011 g
b00000000000000000000000000001100 R
b00000000000000000000000000000000 "C
b00000000 ";
b00000000000000000000111111110000 "&
b00000000000000000000000000010000 a
b00000 L
17
0"Z
1"R
b00000000 "q
b00000000000000000000111111110000 F
b00000000000000000000111111110000 ]
1H
1"V
b00000000000000000000000000000000 |
b000000000000000000000000000000000 "9
b00000 "m
b00000000000000000000000000000000 "e
b00000000000000000000000000001100 %
b00000000000000000000000000000000 "3
b00000 "g
b00000000000000000000000000001000 '
1"J
b00000000000000000000000000000000 p
b00000000000000000000000000000000 >
b000 "a
b00000 "L
0!
18
b00000000000000000000000000001000 #
1"[
b00000000000000000000000000000000 "F
1")
b00000000000000000000000000001100 W
b00000000000000000000000000000000 :
b000 "r
b00000 "H
b00011 n
#36
0u
0`
08
0"(
0V
0"[
0")
0H
07
0"R
#41
b00000000000000000000111111110000 "_
b00000 g
b00000000000000000000000000010000 R
b00000000000000000000000000000000 "B
b110000 "X
b00011 6
b00000000000000000000000000000000 "&
0"Y
b00000000000000000000000000010000 "n
b00000000000000000000000000010100 a
17
b00011 "o
1"R
b00000000000000000000111111110000 0
b00011 c
b00000000000000000000000000000000 F
1y
1d
b00000000000000000000111111110000 "j
b00000 "U
b00000000000000000000000000000000 ]
b00011 "M
1H
0"V
b00000000000000000000000000010000 "l
0A
b00000000000000000000000000110000 t
1"O
b00000000000000000000000000000000 ":
1u
1`
b00000000000000000000000000010000 %
b00000000000000000000111111110000 C
0"f
b00011 D
1o
b00000000000000000000000000001100 '
0"J
1"-
b00011 "`
b00000 "K
1r
1@
b00000 "E
18
1"(
1V
b00000000000000000000000000001100 #
1"[
1")
b00000000000000000000000000010000 W
b00000000000000000000000000001100 P
b00000 n
#46
0u
0`
08
0"(
0V
0"[
0")
0H
07
0"R
#51
b00000000000000000000000000000000 "_
b00000000000000000000000000010100 R
b000000 "X
b00000 6
b00000000000000000000000000010100 "n
b00000000000000000000000000011000 a
17
1j
b00000 "o
1"R
b00000000000000000000000000000000 0
b00000 c
0y
0d
b00000000000000000000000000000000 "j
b00000 "M
1H
b00000000000000000000000000110000 I
b00000000000000000000000000010100 "l
b00000000000000000000000000000000 t
0"O
1u
1`
b00011 "P
b00000000000000000000000000010100 %
b00000000000000000000000000000000 C
b00000 D
0o
b00000000000000000000000000010000 '
0"-
b00000 "`
0r
0@
18
1"(
1V
b00000000000000000000000000010000 #
1"[
1")
b00000000000000000000000000010100 W
b00000000000000000000000000010000 P
#56
0u
0`
08
0"(
0V
0"[
0")
0H
07
0"R
#61
1u
1`
b00000 "P
b00000000000000000000000000011000 %
b00000000000000000000000000011000 R
b00000000000000000000000000010100 '
b00000000000000000000000000011000 "n
b00000000000000000000000000011100 a
17
0j
1"R
18
1"(
1V
b00000000000000000000000000010100 #
1"[
1")
1H
b00000000000000000000000000011000 W
b00000000000000000000000000000000 I
b00000000000000000000000000011000 "l
b00000000000000000000000000010100 P
#66
0u
0`
08
0"(
0V
0"[
0")
0H
07
0"R
#71
1u
1`
b00000000000000000000000000011100 %
b00000000000000000000000000011100 R
b00000000000000000000000000011000 '
b00000000000000000000000000011100 "n
b00000000000000000000000000100000 a
17
1"R
18
1"(
1V
b00000000000000000000000000011000 #
1"[
1")
1H
b00000000000000000000000000011100 W
b00000000000000000000000000011100 "l
b00000000000000000000000000011000 P
#76
0u
0`
08
0"(
0V
0"[
0")
0H
07
0"R
#81
1u
1`
b00000000000000000000000000100000 %
b00000000000000000000000000100000 R
b00000000000000000000000000011100 '
b00000000000000000000000000100000 "n
b00000000000000000000000000100100 a
17
1"R
18
1"(
1V
b00000000000000000000000000011100 #
1"[
1")
1H
b00000000000000000000000000100000 W
b00000000000000000000000000100000 "l
b00000000000000000000000000011100 P
#86
0u
0`
08
0"(
0V
0"[
0")
0H
07
0"R
#91
1u
1`
b00000000000000000000000000100100 %
b00000000000000000000000000100100 R
b00000000000000000000000000100000 '
b00000000000000000000000000100100 "n
b00000000000000000000000000101000 a
17
1"R
18
1"(
1V
b00000000000000000000000000100000 #
1"[
1")
1H
b00000000000000000000000000100100 W
b00000000000000000000000000100100 "l
b00000000000000000000000000100000 P
#96
0u
0`
08
0"(
0V
0"[
0")
0H
07
0"R
#101
1u
1`
b00000000000000000000000000101000 %
b00000000000000000000000000101000 R
b00000000000000000000000000100100 '
b00000000000000000000000000101000 "n
b00000000000000000000000000101100 a
17
1"R
18
1"(
1V
b00000000000000000000000000100100 #
1"[
1")
1H
b00000000000000000000000000101000 W
b00000000000000000000000000101000 "l
b00000000000000000000000000100100 P
#106
0u
0`
08
0"(
0V
0"[
0")
0H
07
0"R
#111
1u
1`
b00000000000000000000000000101100 %
b00000000000000000000000000101100 R
b00000000000000000000000000101000 '
b00000000000000000000000000101100 "n
b00000000000000000000000000110000 a
17
1"R
18
1"(
1V
b00000000000000000000000000101000 #
1"[
1")
1H
b00000000000000000000000000101100 W
b00000000000000000000000000101100 "l
b00000000000000000000000000101000 P
#116
0u
0`
08
0"(
0V
0"[
0")
0H
07
0"R
#121
1u
1`
b00000000000000000000000000110000 %
b00000000000000000000000000110000 R
b00000000000000000000000000101100 '
b00000000000000000000000000110000 "n
b00000000000000000000000000110100 a
17
1"R
18
1"(
1V
b00000000000000000000000000101100 #
1"[
1")
1H
b00000000000000000000000000110000 W
b00000000000000000000000000110000 "l
b00000000000000000000000000101100 P
#126
b00000000000000000000000011111111 f
b00000000000000000000000000000100 ",
1"$
1"%
1S
b00101 K
b101 i
07
b10110011010100010101001100000000 "'
b00110 "<
0"R
b00000000000000000000000011111111 M
b00000000010100110101000110110011 "S
1N
b00000000000000000000000011111111 ">
b100 "i
b00110 2
1e
1"7
0H
b10110011010100010101001100000000 {
b00000000000000000000000000000100 "#
b00000000000000000000000000000100 +
b00000111 "N
b00000111 _
b00000000000000000000000000000100 "d
b00000000000000000000000011111111 B
0u
0`
0-
1"2
1v
b00011 &
b00000000000000000000000000000100 Y
b00011 "4
b00000000000000000000000000000100 Z
1E
b00000000000000000000000011111111 "h
b100 [
1T
b00101 "D
b00101 s
08
0"(
0V
0"[
b0110011 "1
b00000000000000000000000011111111 9
0")
b00110 "\
#131
b00000000000000000000000011111011 <
14
1"W
b00000000000000000000000011111111 }
b00011 h
b00000000000000000000000000110100 "n
b00000111 b
b00000111 "p
b00000000000000000000000000000100 "6
b00000000000000000000000000000100 "!
b000000000000000000000000000000000000000000000000000000011111111 ^
b00000000000000000000000000110100 "l
b00000000000000000000000000001111 ,
1u
1`
b00000000000000000000000011111111 w
b00000000000000000000000000001111 =
b00000000000000000000000000001111 (
b100 \
1"b
1"0
1"(
1V
b00000000000000000000000000001111 "*
b00000000000000000000000000110000 P
b00000000000000000000000000000100 ;
b00000111 3
b00000000000000000000000000110100 R
b00000000000000000000000000000100 "C
b00000111 ";
b00000000000000000000000000111000 a
b00011 L
17
1"Z
1"R
b00000111 "q
1H
b00000000000000000000000011111111 |
b000000000000000000000000100000011 "9
b00011 "m
b00000000000000000000000011111011 "e
b00000000000000000000000000110100 %
b00000000000000000000000000001111 "3
b00011 "g
b00000000000000000000000000110000 '
b00000000000000000000111111110000 p
b00000000000000000000000100000011 >
b100 "a
b00011 "L
1!
18
b00000000000000000000000000110000 #
1"[
b00000000000000000000000011111111 "F
1")
b00000000000000000000000000110100 W
b00000000000000000000000000001111 :
b100 "r
b00011 "H
#136
b00000000000000000000000000000000 f
b00000000000000000000000000000000 ",
0"$
0"%
0S
b00000 K
b000 i
07
b00000000000000000000000000000000 "'
b00000 "<
0"R
b00000000000000000000000000000000 M
b00000000000000000000000000000000 "S
0N
b00000000000000000000000000000000 ">
b000 "i
b00000 2
0e
0"7
0H
b00000000000000000000000000000000 {
b00000000000000000000000000000000 "#
b00000000000000000000000000000000 +
b00000000 "N
b00000000 _
b00000000000000000000000000000000 "d
b00000000000000000000000000000000 B
0u
0`
1-
0"2
0v
b00000 &
b00000000000000000000000000000000 Y
b00000 "4
b00000000000000000000000000000000 Z
0E
b00000000000000000000000000000000 "h
b000 [
0T
b00000 "D
b00000 s
08
0"(
0V
0"[
b0000000 "1
b00000000000000000000000000000000 9
0")
b00000 "\
#141
b00000000000000000000000000000000 <
04
0"W
b00000000000000000000000000001111 "B
b00000000000000000000000000000000 }
b00000 h
b00000000000000000000000000111000 "n
1"Y
b00000000 b
b00000000 "p
b00000000000000000000000000000000 "6
b00000000000000000000000000000000 "!
b00011 "U
b000000000000000000000000000000000000000000000000000000000000000 ^
b00000000000000000000000000111000 "l
1A
b00000000000000000000000000000000 ,
b00000000000000000000000000001111 ":
1u
1`
1"f
b00000000000000000000000000000000 w
b00000000000000000000000000000000 =
b00000000000000000000000000000000 (
b00011 "K
b000 \
0"b
b00011 "E
0"0
1"(
1V
b00000000000000000000000000000000 "*
b00000000000000000000000000110100 P
b00000000000000000000000000000000 ;
b00000000 3
b00011 g
b00000000000000000000000000111000 R
b00000000000000000000000000000000 "C
b00000000 ";
b00000000000000000000000000001111 "&
b00000000000000000000000000111100 a
b00000 L
17
0"Z
1"R
b00000000 "q
b00000000000000000000000000001111 F
b00000000000000000000000000001111 ]
1H
1"V
b00000000000000000000000000000000 |
b000000000000000000000000000000000 "9
b00000 "m
b00000000000000000000000000000000 "e
b00000000000000000000000000111000 %
b00000000000000000000000000000000 "3
b00000 "g
b00000000000000000000000000110100 '
1"J
b00000000000000000000000000000000 p
b00000000000000000000000000000000 >
b000 "a
b00000 "L
0!
18
b00000000000000000000000000110100 #
1"[
b00000000000000000000000000000000 "F
1")
b00000000000000000000000000111000 W
b00000000000000000000000000000000 :
b000 "r
b00000 "H
b00011 n
#146
0u
0`
08
0"(
0V
0"[
0")
0H
07
0"R
#151
b00000000000000000000000000001111 "_
b00000 g
b00000000000000000000000000111100 R
b00000000000000000000000000000000 "B
b001111 "X
b00011 6
b00000000000000000000000000000000 "&
0"Y
b00000000000000000000000000111100 "n
b00000000000000000000000001000000 a
17
b00011 "o
1"R
b00000000000000000000000000001111 0
b00011 c
b00000000000000000000000000000000 F
1y
1d
b00000000000000000000000000001111 "j
b00000 "U
b00000000000000000000000000000000 ]
b00011 "M
1H
0"V
b00000000000000000000000000111100 "l
0A
b00000000000000000000000000001111 t
1"O
b00000000000000000000000000000000 ":
1u
1`
b00000000000000000000000000111100 %
b00000000000000000000000000001111 C
0"f
b00011 D
1o
b00000000000000000000000000111000 '
0"J
1"-
b00011 "`
b00000 "K
1r
1@
b00000 "E
18
1"(
1V
b00000000000000000000000000111000 #
1"[
1")
b00000000000000000000000000111100 W
b00000000000000000000000000111000 P
b00000 n
#156
0u
0`
08
0"(
0V
0"[
0")
0H
07
0"R
#161
b00000000000000000000000000000000 "_
b00000000000000000000000001000000 R
b000000 "X
b00000 6
b00000000000000000000000001000000 "n
b00000000000000000000000001000100 a
17
1j
b00000 "o
1"R
b00000000000000000000000000000000 0
b00000 c
0y
0d
b00000000000000000000000000000000 "j
b00000 "M
1H
b00000000000000000000000000001111 I
b00000000000000000000000001000000 "l
b00000000000000000000000000000000 t
0"O
1u
1`
b00011 "P
b00000000000000000000000001000000 %
b00000000000000000000000000000000 C
b00000 D
0o
b00000000000000000000000000111100 '
0"-
b00000 "`
0r
0@
18
1"(
1V
b00000000000000000000000000111100 #
1"[
1")
b00000000000000000000000001000000 W
b00000000000000000000000000111100 P
#166
0u
0`
08
0"(
0V
0"[
0")
0H
07
0"R
#171
1u
1`
b00000 "P
b00000000000000000000000001000100 %
b00000000000000000000000001000100 R
b00000000000000000000000001000000 '
b00000000000000000000000001000100 "n
b00000000000000000000000001001000 a
17
0j
1"R
18
1"(
1V
b00000000000000000000000001000000 #
1"[
1")
1H
b00000000000000000000000001000100 W
b00000000000000000000000000000000 I
b00000000000000000000000001000100 "l
b00000000000000000000000001000000 P
#176
0u
0`
08
0"(
0V
0"[
0")
0H
07
0"R
#181
1u
1`
b00000000000000000000000001001000 %
b00000000000000000000000001001000 R
b00000000000000000000000001000100 '
b00000000000000000000000001001000 "n
b00000000000000000000000001001100 a
17
1"R
18
1"(
1V
b00000000000000000000000001000100 #
1"[
1")
1H
b00000000000000000000000001001000 W
b00000000000000000000000001001000 "l
b00000000000000000000000001000100 P
#186
0u
0`
08
0"(
0V
0"[
0")
0H
07
0"R
#191
1u
1`
b00000000000000000000000001001100 %
b00000000000000000000000001001100 R
b00000000000000000000000001001000 '
b00000000000000000000000001001100 "n
b00000000000000000000000001010000 a
17
1"R
18
1"(
1V
b00000000000000000000000001001000 #
1"[
1")
1H
b00000000000000000000000001001100 W
b00000000000000000000000001001100 "l
b00000000000000000000000001001000 P
#196
0u
0`
08
0"(
0V
0"[
0")
0H
07
0"R
#201
1u
1`
b00000000000000000000000001010000 %
b00000000000000000000000001010000 R
b00000000000000000000000001001100 '
b00000000000000000000000001010000 "n
b00000000000000000000000001010100 a
17
1"R
18
1"(
1V
b00000000000000000000000001001100 #
1"[
1")
1H
b00000000000000000000000001010000 W
b00000000000000000000000001010000 "l
b00000000000000000000000001001100 P
#206
0u
0`
08
0"(
0V
0"[
0")
0H
07
0"R
#211
1u
1`
b00000000000000000000000001010100 %
b00000000000000000000000001010100 R
b00000000000000000000000001010000 '
b00000000000000000000000001010100 "n
b00000000000000000000000001011000 a
17
1"R
18
1"(
1V
b00000000000000000000000001010000 #
1"[
1")
1H
b00000000000000000000000001010100 W
b00000000000000000000000001010100 "l
b00000000000000000000000001010000 P
#216
0u
0`
08
0"(
0V
0"[
0")
0H
07
0"R
#221
1u
1`
b00000000000000000000000001011000 %
b00000000000000000000000001011000 R
b00000000000000000000000001010100 '
b00000000000000000000000001011000 "n
b00000000000000000000000001011100 a
17
1"R
18
1"(
1V
b00000000000000000000000001010100 #
1"[
1")
1H
b00000000000000000000000001011000 W
b00000000000000000000000001011000 "l
b00000000000000000000000001010100 P
#226
0u
0`
08
0"(
0V
0"[
0")
0H
07
0"R
#231
1u
1`
b00000000000000000000000001011100 %
b00000000000000000000000001011100 R
b00000000000000000000000001011000 '
b00000000000000000000000001011100 "n
b00000000000000000000000001100000 a
17
1"R
18
1"(
1V
b00000000000000000000000001011000 #
1"[
1")
1H
b00000000000000000000000001011100 W
b00000000000000000000000001011100 "l
b00000000000000000000000001011000 P
#236
b00000000000000000000000011111111 f
b00000000000000000000000000000100 ",
1"$
1"%
b00101 K
b101 i
07
b10110011010100010101001101000000 "'
b00110 "<
0"R
b00000000000000000000000011111111 M
b01000000010100110101000110110011 "S
1N
b00000000000000000000000011111111 ">
b100 "i
b00110 2
1e
1"7
0H
b10110011010100010101001101000000 {
b00000000000000000000000000000100 "#
b00000000000000000000000000000100 +
b00001000 "N
b00001000 _
b00000000000000000000000000000100 "d
b00000000000000000000000011111111 B
0u
0`
0-
1"2
b0100000 .
1v
b00011 &
b00000000000000000000000000000100 Y
b00011 "4
b00000000000000000000000000000100 Z
1E
b01000000 x
b00000000000000000000000011111111 "h
b100 [
1T
b00101 "D
b00101 s
08
0"(
0V
0"[
b0110011 "1
b00000000000000000000000011111111 9
0")
b00110 "\
1$
