test_run_dir/myc01_core_should_test_Stype/myc01_core.vcd
$date
2022-01-24T04:42+0000
$end
$version
0.2
$end
$comment

$end
$timescale 1ns  $end
$scope module myc01_core $end
 $var wire 1 $ wb_stage $end
 $var wire 32 / io_id_pc $end
 $var wire 1 1 regfile $end
 $var wire 1 9 if_stage $end
 $var wire 1 A io_exe_wreg_o $end
 $var wire 32 L io_exe_wd_o $end
 $var wire 32 Q io_din $end
 $var wire 5 g io_exe_wa_o $end
 $var wire 32 r io_iaddr $end
 $var wire 1 "< io_dce $end
 $var wire 32 "a io_inst $end
 $var wire 1 "b clock $end
 $var wire 1 "m exe_stage $end
 $var wire 1 "{ exemem_reg $end
 $var wire 8 #" io_exe_aluop_o $end
 $var wire 1 #$ io_ice $end
 $var wire 4 #' io_we $end
 $var wire 1 #) idexe_reg $end
 $var wire 1 #1 memwb_reg $end
 $var wire 1 #@ mem_stage $end
 $var wire 1 #F id_stage $end
 $var wire 32 #U io_daddr $end
 $var wire 1 #V reset $end
 $var wire 32 #n io_dm $end
 $var wire 1 #q ifid_reg $end
  $scope module ifid_reg $end
   $var wire 32 ' io_id_pc $end
   $var wire 32 , io_if_pc $end
   $var wire 1 b clock $end
   $var wire 32 p pc_reg $end
   $var wire 1 #( reset $end
  $upscope $end
  $scope module mem_stage $end
   $var wire 32 " io_din $end
   $var wire 1 & dwe_temp_0 $end
   $var wire 1 2 inst_lb $end
   $var wire 8 5 io_mem_aluop_i $end
   $var wire 1 E dwe_temp_3 $end
   $var wire 1 _ dre_temp_2 $end
   $var wire 32 a io_mem_dreg_o $end
   $var wire 1 j io_dce $end
   $var wire 1 { inst_sw $end
   $var wire 32 ". io_daddr $end
   $var wire 1 "/ inst_sh $end
   $var wire 1 "9 inst_lhu $end
   $var wire 1 "> dwe_temp_2 $end
   $var wire 1 "E inst_sb $end
   $var wire 1 "] dre_temp_1 $end
   $var wire 1 "j io_load_unsign $end
   $var wire 1 "s dwe_temp_1 $end
   $var wire 1 "x inst_lbu $end
   $var wire 32 "} io_mem_wd_i $end
   $var wire 4 "~ io_dre $end
   $var wire 5 #/ io_mem_wa_o $end
   $var wire 1 #5 dre_temp_0 $end
   $var wire 1 #8 io_mem_wreg_o $end
   $var wire 5 #9 io_mem_wa_i $end
   $var wire 32 #C io_mem_din_i $end
   $var wire 1 #K dre_temp_3 $end
   $var wire 1 #L io_mem_wreg_i $end
   $var wire 1 #N _T $end
   $var wire 4 #O io_dwe $end
   $var wire 1 #T inst_lw $end
   $var wire 1 #Z io_mem_mreg_o $end
   $var wire 1 #l inst_lh $end
   $var wire 1 #t io_mem_mreg_i $end
  $upscope $end
  $scope module memwb_reg $end
   $var wire 1 J clock $end
   $var wire 1 N io_wb_load_unsign $end
   $var wire 1 V io_mem_mreg $end
   $var wire 1 Y io_wb_wreg $end
   $var wire 1 Z io_mem_wreg $end
   $var wire 32 \ dreg_reg $end
   $var wire 5 ] wa_reg $end
   $var wire 4 l io_wb_dre $end
   $var wire 1 x unsign_reg $end
   $var wire 5 ") io_wb_wa $end
   $var wire 1 ", io_wb_mreg $end
   $var wire 5 "3 io_mem_wa $end
   $var wire 1 "7 io_mem_load_unsign $end
   $var wire 4 ": io_mem_dre $end
   $var wire 1 "C reset $end
   $var wire 1 "R wreg_reg $end
   $var wire 32 #+ io_mem_dreg $end
   $var wire 4 #D dre_reg $end
   $var wire 32 #W io_wb_dreg $end
   $var wire 1 #f mreg_reg $end
  $upscope $end
  $scope module exe_stage $end
   $var wire 1 * io_exe_mreg_i $end
   $var wire 32 + io_exe_din_o $end
   $var wire 32 . shiftres $end
   $var wire 8 @ io_exe_aluop_o $end
   $var wire 32 B io_exe_din_i $end
   $var wire 32 F arithres $end
   $var wire 32 M io_exe_src2_i $end
   $var wire 32 P xorAns $end
   $var wire 32 R srlAns $end
   $var wire 32 S addAns $end
   $var wire 32 q sltuAns $end
   $var wire 3 "! io_exe_alutype_i $end
   $var wire 63 "# _GEN_0 $end
   $var wire 32 "? sltAns $end
   $var wire 32 "B sllAns $end
   $var wire 32 "P orAns $end
   $var wire 32 "V io_exe_src1_i $end
   $var wire 32 "e io_exe_wd_o $end
   $var wire 32 "r sraAns $end
   $var wire 33 "| _T $end
   $var wire 32 #& logicres $end
   $var wire 32 #, andAns $end
   $var wire 5 #3 io_exe_wa_o $end
   $var wire 5 #: io_exe_wa_i $end
   $var wire 1 #J io_exe_wreg_o $end
   $var wire 1 #P io_exe_wreg_i $end
   $var wire 32 #b subAns $end
   $var wire 1 #h io_exe_mreg_o $end
   $var wire 8 #v io_exe_aluop_i $end
  $upscope $end
  $scope module wb_stage $end
   $var wire 32 7 io_dm $end
   $var wire 32 < io_wb_dreg_i $end
   $var wire 1 T io_wb_load_unsign $end
   $var wire 32 "5 data $end
   $var wire 1 "D io_wb_wreg_i $end
   $var wire 4 "H io_wb_dre_i $end
   $var wire 1 "l io_wb_wreg_o $end
   $var wire 1 #6 io_wb_mreg_i $end
   $var wire 5 #Y io_wb_wa_o $end
   $var wire 32 #k io_wb_wd_o $end
   $var wire 5 #s io_wb_wa_i $end
  $upscope $end
  $scope module regfile $end
   $var wire 1 0 _GEN_3 $end
   $var wire 1 6 _T $end
   $var wire 32 = regs $end
   $var wire 5 ? io_ra1 $end
   $var wire 32 K _GEN_0 $end
   $var wire 1 k io_re2 $end
   $var wire 1 n _GEN_11 $end
   $var wire 1 w clock $end
   $var wire 32 | _GEN_8 $end
   $var wire 1 "A io_we $end
   $var wire 32 "\ io_rd2 $end
   $var wire 1 "q io_re1 $end
   $var wire 5 #- io_ra2 $end
   $var wire 5 #; io_wa $end
   $var wire 32 #M io_wd $end
   $var wire 32 #g io_rd1 $end
    $scope module regs $end
      $scope module _T_21 $end
       $var wire 5 G addr $end
       $var wire 32 d pipeline_data_0 $end
       $var wire 1 "' clk $end
       $var wire 1 "* en $end
       $var wire 1 "6 pipeline_valid_0 $end
       $var wire 32 "L data $end
       $var wire 1 #> valid $end
       $var wire 5 #? pipeline_addr_0 $end
       $var wire 1 #S mask $end
      $upscope $end
      $scope module _T_7 $end
       $var wire 32 [ data $end
       $var wire 1 t en $end
       $var wire 1 "c clk $end
       $var wire 5 #R addr $end
      $upscope $end
      $scope module _T_16 $end
       $var wire 5 h addr $end
       $var wire 1 "N clk $end
       $var wire 1 "O en $end
       $var wire 32 "k data $end
      $upscope $end
    $upscope $end
  $upscope $end
  $scope module id_stage $end
   $var wire 1 ! inst_lw $end
   $var wire 1 % imm_shamt $end
   $var wire 5 ( rs2 $end
   $var wire 1 ) inst_sra $end
   $var wire 7 8 func7 $end
   $var wire 1 : io_exe2id_wreg $end
   $var wire 1 > inst_lh $end
   $var wire 1 D inst_addi $end
   $var wire 1 H inst_srai $end
   $var wire 1 U inst_srli $end
   $var wire 1 W inst_slli $end
   $var wire 1 ^ id_alutype_temp_2 $end
   $var wire 1 ` inst_add $end
   $var wire 5 c rd $end
   $var wire 1 f imm_Stype $end
   $var wire 32 i io_id_src1_o $end
   $var wire 1 s inst_srl $end
   $var wire 1 u inst_slti $end
   $var wire 32 ~ io_rd2 $end
   $var wire 32 "+ imm_ext $end
   $var wire 1 "- io_rreg2 $end
   $var wire 1 "0 inst_sb $end
   $var wire 3 "4 func3 $end
   $var wire 1 "8 inst_lhu $end
   $var wire 1 "; id_alutype_temp_1 $end
   $var wire 1 "= inst_sltu $end
   $var wire 12 "F imm_S $end
   $var wire 1 "I inst_lbu $end
   $var wire 5 "J io_ra2 $end
   $var wire 1 "K inst_sw $end
   $var wire 1 "M inst_sh $end
   $var wire 8 "Q _T $end
   $var wire 1 "S inst_and $end
   $var wire 32 "T io_id_inst_i $end
   $var wire 5 "W io_exe2id_wa $end
   $var wire 1 "X inst_xori $end
   $var wire 1 "Y inst_sub $end
   $var wire 1 "[ inst_sll $end
   $var wire 1 "_ io_rreg1 $end
   $var wire 32 "d io_exe2id_wd $end
   $var wire 1 "f io_mem2id_wreg $end
   $var wire 1 "g inst_or $end
   $var wire 7 "p opcode $end
   $var wire 5 "t io_id_wa_o $end
   $var wire 1 "u inst_xor $end
   $var wire 1 "w io_id_wreg_o $end
   $var wire 12 "y imm_I $end
   $var wire 32 "z io_id_din_o $end
   $var wire 1 #! imm_Itype $end
   $var wire 5 ## io_ra1 $end
   $var wire 32 #% io_rd1 $end
   $var wire 1 #* inst_ori $end
   $var wire 1 #. inst_andi $end
   $var wire 2 #2 fwrd_reg2 $end
   $var wire 1 #4 id_alutype_temp_0 $end
   $var wire 1 #7 io_id_mreg_o $end
   $var wire 32 #< io_mem2id_wd $end
   $var wire 8 #= io_id_aluop_o $end
   $var wire 32 #E id_inst $end
   $var wire 1 #I inst_sltiu $end
   $var wire 5 #X io_mem2id_wa $end
   $var wire 2 #\ fwrd_reg1 $end
   $var wire 1 #` inst_slt $end
   $var wire 32 #a io_id_src2_o $end
   $var wire 3 #i io_id_alutype_o $end
   $var wire 1 #m inst_lb $end
  $upscope $end
  $scope module idexe_reg $end
   $var wire 1 # wreg_reg $end
   $var wire 5 - io_id_wa $end
   $var wire 32 3 io_id_src2 $end
   $var wire 1 ; io_exe_mreg $end
   $var wire 32 O io_exe_din $end
   $var wire 1 v reset $end
   $var wire 3 } io_id_alutype $end
   $var wire 8 "% io_id_aluop $end
   $var wire 8 "( aluop_reg $end
   $var wire 32 "1 io_id_src1 $end
   $var wire 5 "2 io_exe_wa $end
   $var wire 1 "G mreg_reg $end
   $var wire 32 "U src1_reg $end
   $var wire 32 "Z io_exe_src2 $end
   $var wire 1 "^ io_id_wreg $end
   $var wire 1 "h io_id_mreg $end
   $var wire 32 "v src2_reg $end
   $var wire 32 #0 io_exe_src1 $end
   $var wire 1 #B clock $end
   $var wire 3 #] alutype_reg $end
   $var wire 1 #^ io_exe_wreg $end
   $var wire 32 #_ din_reg $end
   $var wire 5 #e wa_reg $end
   $var wire 32 #j io_id_din $end
   $var wire 8 #u io_exe_aluop $end
   $var wire 3 #x io_exe_alutype $end
  $upscope $end
  $scope module exemem_reg $end
   $var wire 32 4 io_exe_wd $end
   $var wire 1 C io_mem_mreg $end
   $var wire 1 I clock $end
   $var wire 32 m io_exe_din $end
   $var wire 1 o mreg_reg $end
   $var wire 32 "" io_mem_wd $end
   $var wire 8 "$ io_mem_aluop $end
   $var wire 5 "@ io_mem_wa $end
   $var wire 32 "` wd_reg $end
   $var wire 32 "i io_mem_din $end
   $var wire 1 "n reset $end
   $var wire 1 "o io_exe_wreg $end
   $var wire 1 #A io_exe_mreg $end
   $var wire 5 #G wa_reg $end
   $var wire 1 #H wreg_reg $end
   $var wire 8 #[ aluop_reg $end
   $var wire 32 #c din_reg $end
   $var wire 1 #d io_mem_wreg $end
   $var wire 5 #p io_exe_wa $end
   $var wire 8 #w io_exe_aluop $end
  $upscope $end
  $scope module if_stage $end
   $var wire 1 X reset $end
   $var wire 1 e io_ice $end
   $var wire 32 y io_pc $end
   $var wire 1 z _T $end
   $var wire 32 "& _GEN_0 $end
   $var wire 1 #Q clock $end
   $var wire 32 #o pc_reg $end
   $var wire 32 #r io_iaddr $end
  $upscope $end
$upscope $end
$enddefinitions $end
$dumpvars
b00000000 "(
0o
0"c
b0000 #D
b00000 g
b00000 #;
b00000000000000000000000000000000 "U
b00000000000000000000000000000000 r
b00000 -
0#1
0#t
b00000000000000000000000000000000 Q
b000 "4
0#!
0D
b00000000000000000000000000000000 #o
b00000000000000000000000000000000 "\
0z
0"n
b0000 #O
0H
0"<
b00000 ")
b00000000000000000000000000000000 #k
b00000000000000000000000000000000 "&
b000000000000000000000000000000000000000000000000000000000000000 "#
b00000000 #v
0"l
b00000 #:
b00000000000000000000000000000000 q
0"O
0>
0#^
b00000000 "%
b00000000000000000000000000000000 m
b00000 (
0"K
0#A
b00000000000000000000000000000000 P
0"C
0#$
0:
b00000 G
b00000000000000000000000000000000 3
b00000000000000000000000000000000 "5
0`
0"*
b00000000000000000000000000000000 /
b00000000000000000000000000000000 "1
b0000000 "p
b0000000 8
1#S
b00000000000000000000000000000000 #j
0#m
0"o
0#P
0"=
b00000000000000000000000000000000 B
b00000000000000000000000000000000 "v
b00000000000000000000000000000000 #W
0;
b00000 #9
0#L
b00000000000000000000000000000000 p
0Z
0"N
0"9
b00000000000000000000000000000000 S
b00000000000000000000000000000000 [
b00 #\
b00000000 "$
0k
0"_
0#@
b00000 c
09
0N
0"-
0J
b00000 #e
b00000000000000000000000000000000 .
b00000000000000000000000000000000 #C
0"]
b00000000000000000000000000000000 #&
0#>
b00000000000000000000000000000000 M
b00000 "J
b00000000 #[
0"Y
b00000000000000000000000000000000 ,
0#`
0n
0Y
0"M
0#.
b00000000000000000000000000000000 =
b00000000000000000000000000000000 #g
b00000000000000000000000000000000 "i
b00000000000000000000000000000000 "T
b00000000000000000000000000000000 "?
b00000000000000000000000000000000 ""
0"{
0j
0U
0"I
0#*
b00000000000000000000000000000000 #c
0",
0#
b00000000000000000000000000000000 "e
b00000000000000000000000000000000 "P
b000 #x
b00000 #G
0#Z
b00000000000000000000000000000000 ~
0"q
0"G
b00000000000000000000000000000000 a
b00000000000000000000000000000000 L
0#(
b00000000 #w
b00000 #X
0"m
0"X
0#N
0";
b00000000000000000000000000000000 #r
b00000000000000000000000000000000 +
b00000000000000000000000000000000 #U
0*
b00000000000000000000000000000000 "B
b0000 "~
b00000000 #u
0X
0C
0"7
b00000000000000000000000000000000 #n
b00000000000000000000000000000000 <
b00000000000000000000000000000000 '
0&
b000 }
b0000 "H
b00000000 #"
b0000 l
b00000000000000000000000000000000 "d
b00000000000000000000000000000000 #E
0"g
0V
b000 "!
0#H
b00000000000000000000000000000000 O
1e
0"x
b00000000000000000000000000000000 "`
0"[
b00000 "3
b00000000000000000000000000000000 ".
b00000000000000000000000000000000 K
0x
b00000 h
b0000 ":
b00000 #Y
0#l
0)
b00000000 5
0W
b00000 "t
0#h
0%
0v
0"j
0#K
b00000 "W
b00000 ##
0#6
0"8
06
0#d
b00000000000000000000000000000000 #a
b000000000000 "F
b00000000000000000000000000000000 "k
0"f
0!
b00000000 "Q
0"w
0{
b00000000000000000000000000000000 |
0f
0"E
0I
b00000000000000000000000000000000 #_
b00000000000000000000000000000000 "a
b00000000000000000000000000000000 "L
b00000000000000000000000000000000 i
b00000000000000000000000000000000 #%
b00000000 @
0w
0b
0#7
0E
00
b00000000000000000000000000000000 "z
0"u
0#V
b00000000000000000000000000000000 "r
b00000000000000000000000000000000 "+
b00 #2
0u
0#J
0#5
b000000000000000000000000000000000 "|
b0000 #'
b00000000 #=
b00000 #3
0#F
0T
0#)
b000000000000 "y
b00000 #R
b00000000000000000000000000000000 #b
b00000000000000000000000000000000 #M
b00000000000000000000000000000000 #0
0#B
b00000 #/
0"D
0"/
b00000 ]
b00000000000000000000000000000000 4
0"'
b00000000000000000000000000000000 "}
b00000000000000000000000000000000 #,
b00000 #-
b00000000000000000000000000000000 y
b00000000000000000000000000000000 d
0#8
b00000000000000000000000000000000 \
01
b00000 #p
0#f
0#Q
0t
0"h
0"S
0">
0#4
b00000 "@
0"6
0#I
0_
b00000000000000000000000000000000 "Z
b00000000000000000000000000000000 7
b00000000000000000000000000000000 "
b00000000000000000000000000000000 "V
b000 #i
02
b00000 ?
0"b
b00000000000000000000000000000000 #+
b00000000000000000000000000000000 R
b00000 "2
0"0
b000 #]
b00000 #s
0#q
0"s
0#T
0"^
b00000000000000000000000000000000 #<
0"A
b00000000000000000000000000000000 F
0s
0^
0"R
0A
0$
b00000 #?
$end
#0
10
1X
1v
1#V
1#$
1"C
16
1"n
1#(
b00000000000000000000000000000100 "&
1n
#1
1#Q
1"b
1"c
1J
1w
1"N
1"'
1I
1b
1#B
#6
0X
0v
0#V
0J
0w
0"C
0"n
0"'
0b
0#B
0#Q
0"b
0"c
0#(
0"N
0I
#11
b00000000000000000000000000000100 #r
1J
1w
b00000000000000000000000000001000 "&
1"'
1b
1#B
1#Q
b00000000000000000000000000000100 r
1"b
b00000000000000000000000000000100 y
1"c
b00000000000000000000000000000100 #o
1"N
1I
b00000000000000000000000000000100 ,
#16
b00000000000000000000000000000001 3
1f
b00000001000000100000001100000100 #j
b00001 "t
1"_
b00001 ##
0J
b001 }
b00011 h
b00011001 "%
b00000000000000000000000000000011 K
06
b00000001000000100000001100000100 ~
b00000000000000000000000000000011 i
0"'
0b
0#Q
b0100011 "p
b00001 c
1#4
b00000000000000000000000000000011 #g
b00001 #R
1"q
b10100011100000000011000000000000 "T
b001 #i
b00000000000000000000000000000001 #a
b00000001000000100000001100000100 "k
0"N
0I
b00000001000000100000001100000100 |
1t
b00000000001100001000000010100011 #E
1"O
b00001 -
0w
b00011 "J
b00011 (
1"-
b00000000000000000000000000000011 [
b10100011100000000011000000000000 "a
0#B
b00011 #-
b00001 ?
b00000000000000000000000000000011 #%
0"b
1"0
0"c
1k
b000000000001 "F
b000000000011 "y
b00000000000000000000000000000011 "1
b00011001 #=
b00000001000000100000001100000100 "\
b00000001000000100000001100000100 "z
b00000000000000000000000000000001 "+
#21
b00000000000000000000000000001000 #r
b00000000000000000000000000000100 4
b00001 "W
b00000000000000000000000000000110 "B
b00000000000000000000000000000100 S
b00000000000000000000000000000001 "v
b00001 #:
1"'
1b
b00000000000000000000000000000001 M
1#Q
b00000000000000000000000000001000 y
b001 "!
b00000000000000000000000000000011 "U
b000000000000000000000000000000000000000000000000000000000000011 "#
1I
b00000000000000000000000000000010 #b
b00000000000000000000000000001000 ,
b00000000000000000000000000000100 "d
b00000000000000000000000000000011 #0
b00001 "2
1w
b00000000000000000000000000000001 #,
b00011001 #u
1"b
b00011001 #w
b00011001 "(
b00000000000000000000000000001000 #o
b00000001000000100000001100000100 m
b00000000000000000000000000000010 P
b00011001 #"
b00001 g
b00000000000000000000000000000001 R
1J
b00000000000000000000000000001100 "&
b00000000000000000000000000000100 L
b00000000000000000000000000000001 "Z
b00000000000000000000000000000100 /
b00001 #3
b00000000000000000000000000000100 F
b00000000000000000000000000000011 "V
b00000001000000100000001100000100 +
1"N
b001 #x
b00000001000000100000001100000100 B
b00000000000000000000000000000100 "e
b00000000000000000000000000000011 "P
b00001 #e
b000000000000000000000000000000100 "|
b001 #]
b00000000000000000000000000000100 '
b00000000000000000000000000000100 p
b00000001000000100000001100000100 #_
1#B
b00000000000000000000000000001000 r
b00011001 #v
b00011001 @
1"c
b00001 #p
b00000001000000100000001100000100 O
b00000000000000000000000000000001 "r
#26
b00000000000000000000000000000010 3
1f
b00000001000000100000001100000100 #j
b00010 "t
1"_
b00001 ##
0J
b001 }
b00011 h
b00011001 "%
b00000000000000000000000000000011 K
06
b00000001000000100000001100000100 ~
b00000000000000000000000000000011 i
0"'
0b
0#Q
b0100011 "p
b00010 c
1#4
b00000000000000000000000000000011 #g
b00001 #R
1"q
b00100011100000010011000000000000 "T
b001 #i
b00000000000000000000000000000010 #a
b00000001000000100000001100000100 "k
0"N
0I
b00000001000000100000001100000100 |
1t
b00000000001100001000000100100011 #E
1"O
b00010 -
0w
b00011 "J
b00011 (
1"-
b00000000000000000000000000000011 [
0#B
b00100011100000010011000000000000 "a
b00011 #-
b00001 ?
b00000000000000000000000000000011 #%
0"b
1"0
0"c
1k
b000000000010 "F
b000000000011 "y
b00000000000000000000000000000011 "1
b00011001 #=
b00000001000000100000001100000100 "\
b00000001000000100000001100000100 "z
b00000000000000000000000000000010 "+
#31
b00000000000000000000000000001100 #r
b00000100000001000000010000000100 Q
b00000000000000000000000000000100 #U
b00000000000000000000000000000101 4
b00010 "W
b00000000000000000000000000001100 "B
b00000000000000000000000000000101 S
b00000000000000000000000000000010 "v
b1000 #O
b00010 #:
1"<
1"'
1j
1b
b00000000000000000000000000000010 M
1#Q
b00000000000000000000000000001100 y
1I
b00000000000000000000000000000001 #b
b00000000000000000000000000001100 ,
b00000000000000000000000000000101 "d
b00010 "2
b00001 #G
1w
1E
b00000000000000000000000000000100 "}
b00000000000000000000000000000100 "`
b00000000000000000000000000000010 #,
b00000000000000000000000000000100 ".
b00001 #X
1"b
b00000001000000100000001100000100 #C
b00000100000001000000010000000100 "
1"E
b00000000000000000000000000001100 #o
b00000000000000000000000000000001 P
b00011001 "$
b00010 g
b00000000000000000000000000000000 R
1J
b00011001 5
b00001 #9
b00000000000000000000000000010000 "&
b00000000000000000000000000000100 a
b00000000000000000000000000000101 L
b00000000000000000000000000000010 "Z
b00000000000000000000000000001000 /
b00010 #3
b00000000000000000000000000000101 F
b00000001000000100000001100000100 "i
b00000000000000000000000000000100 ""
1"N
b00001 #/
b00000001000000100000001100000100 #c
b00000000000000000000000000000101 "e
b00001 "3
b00010 #e
b000000000000000000000000000000101 "|
b00000000000000000000000000001000 '
b00000000000000000000000000000100 #+
b00000000000000000000000000001000 p
1#B
b00000000000000000000000000001100 r
1"c
b00000000000000000000000000000100 #<
b1000 #'
b00010 #p
b00011001 #[
b00000000000000000000000000000000 "r
b00001 "@
#36
b00000000000000000000000000000011 3
1f
b00000001000000100000001100000100 #j
b00011 "t
1"_
b00001 ##
0J
b001 }
b00011 h
b00011001 "%
b00000000000000000000000000000011 K
06
b00000001000000100000001100000100 ~
b00000000000000000000000000000011 i
0"'
0b
0#Q
b0100011 "p
b00011 c
1#4
b00000000000000000000000000000011 #g
b00001 #R
1"q
b10100011100000010011000000000000 "T
b001 #i
b00000000000000000000000000000011 #a
b00000001000000100000001100000100 "k
0"N
0I
b00000001000000100000001100000100 |
1t
b00000000001100001000000110100011 #E
1"O
b00011 -
0w
b00011 "J
b00011 (
1"-
b00000000000000000000000000000011 [
0#B
b10100011100000010011000000000000 "a
b00011 #-
b00001 ?
b00000000000000000000000000000011 #%
0"b
1"0
0"c
1k
b000000000011 "F
b000000000011 "y
b00000000000000000000000000000011 "1
b00011001 #=
b00000001000000100000001100000100 "\
b00000001000000100000001100000100 "z
b00000000000000000000000000000011 "+
#41
b00000000000000000000000000010000 #r
b00000000000000000000000000000100 <
b00000000000000000000000000000101 #U
b00000000000000000000000000000110 4
b00011 "W
b00000000000000000000000000011000 "B
b00000000000000000000000000000110 S
b00000000000000000000000000000100 #W
b00000000000000000000000000000011 "v
b0100 #O
b00011 #:
1"'
1b
b00000000000000000000000000000011 M
1#Q
1">
b00000000000000000000000000010000 y
b00001 G
1I
b00000000000000000000000000000000 #b
b00000000000000000000000000000100 #M
b00000000000000000000000000010000 ,
b00000000000000000000000000000110 "d
b00011 "2
b00010 #G
1w
0E
b00000000000000000000000000000101 "}
b00000000000000000000000000000101 "`
b00000000000000000000000000000011 #,
b00000000000000000000000000000101 ".
b00000000000000000000000000000100 \
b00010 #X
1"b
b00000000000000000000000000010000 #o
b00000000000000000000000000000000 P
b00001 #s
b00011 g
b00000000000000000000000000000100 #k
1J
b00010 #9
b00000000000000000000000000010100 "&
b00000000000000000000000000000101 a
b00000000000000000000000000000110 L
b00001 #;
b00000000000000000000000000000011 "Z
b00000000000000000000000000001100 /
b00011 #3
b00000000000000000000000000000110 F
b00000000000000000000000000000101 ""
b00001 ]
1"N
b00010 #/
b00000000000000000000000000000110 "e
b00010 "3
b00011 #e
b000000000000000000000000000000110 "|
b00000000000000000000000000001100 '
b00000000000000000000000000000101 #+
b00000000000000000000000000001100 p
1#B
b00000000000000000000000000000100 "L
b00000000000000000000000000010000 r
b00001 #Y
1"c
b00000000000000000000000000000101 #<
b0100 #'
b00001 ")
b00011 #p
b00010 "@
#46
b00000000000000000000000000000100 3
1f
b00000001000000100000001100000100 #j
b00100 "t
1"_
b00001 ##
0J
b001 }
b00011 h
b00011001 "%
b00000000000000000000000000000011 K
06
b00000001000000100000001100000100 ~
b00000000000000000000000000000011 i
0"'
0b
0#Q
b0100011 "p
b00100 c
1#4
b00000000000000000000000000000011 #g
b00001 #R
1"q
b00100011100000100011000000000000 "T
b001 #i
b00000000000000000000000000000100 #a
b00000001000000100000001100000100 "k
0"N
0I
b00000001000000100000001100000100 |
1t
b00000000001100001000001000100011 #E
1"O
b00100 -
0w
b00011 "J
b00011 (
1"-
b00000000000000000000000000000011 [
0#B
b00100011100000100011000000000000 "a
b00011 #-
b00001 ?
b00000000000000000000000000000011 #%
0"b
1"0
0"c
1k
b000000000100 "F
b000000000011 "y
b00000000000000000000000000000011 "1
b00011001 #=
b00000001000000100000001100000100 "\
b00000001000000100000001100000100 "z
b00000000000000000000000000000100 "+
#51
b00000000000000000000000000010100 #r
b00000000000000000000000000000101 <
b00000000000000000000000000000110 #U
b00000000000000000000000000000111 4
b00100 "W
b00000000000000000000000000110000 "B
b00000000000000000000000000000111 S
b00000000000000000000000000000101 #W
b00000000000000000000000000000100 "v
b0010 #O
b00100 #:
1"'
1b
b00000000000000000000000000000100 M
1#Q
0">
b00000000000000000000000000010100 y
b00000000000000000000000000000100 d
b00010 G
1I
b11111111111111111111111111111111 #b
b00000000000000000000000000000101 #M
b00000000000000000000000000010100 ,
b00000000000000000000000000000111 "d
b00100 "2
b00011 #G
1w
b00000000000000000000000000000110 "}
b00000000000000000000000000000110 "`
b00000000000000000000000000000000 #,
b00000000000000000000000000000110 ".
b00000000000000000000000000000101 \
b00000000000000000000000000000001 q
b00011 #X
1"b
b00000000000000000000000000010100 #o
b00000000000000000000000000000111 P
1"s
b00001 #?
b00010 #s
b00100 g
b00000000000000000000000000000101 #k
1J
b00011 #9
b00000000000000000000000000011000 "&
b00000000000000000000000000000110 a
b00000000000000000000000000000111 L
b00010 #;
b00000000000000000000000000000100 "Z
b00000000000000000000000000010000 /
b00100 #3
b00000000000000000000000000000111 F
b00000000000000000000000000000001 "?
b00000000000000000000000000000110 ""
b00010 ]
1"N
b00011 #/
b00000000000000000000000000000111 "e
b00000000000000000000000000000111 "P
b00011 "3
b00100 #e
b000000000000000000000000000000111 "|
b00000000000000000000000000010000 '
b00000000000000000000000000000110 #+
b00000000000000000000000000010000 p
1#B
b00000000000000000000000000000101 "L
b00000000000000000000000000010100 r
b00010 #Y
1"c
b00000000000000000000000000000110 #<
b0010 #'
b00010 ")
b00100 #p
b00011 "@
#56
1f
b00000001000000100000001100000100 #j
b00001 "t
1"_
b00001 ##
b001 }
b00011 h
b00011010 "%
b00000000000000000000000000000011 K
06
0"'
0b
0#Q
b0100011 "p
1#4
1"M
0I
b00000000001100001001000010100011 #E
1"O
0w
b001 "4
b00011 (
b00001 ?
0"b
0"0
1k
b000000000011 "y
b00011010 #=
b00000001000000100000001100000100 "\
b00000000000000000000000000000001 3
0J
b00000001000000100000001100000100 ~
b00000000000000000000000000000011 i
b00001 c
b00000000000000000000000000000011 #g
b00001 #R
1"q
b10100011100100000011000000000000 "T
b001 #i
b00000000000000000000000000000001 #a
b00000001000000100000001100000100 "k
0"N
b00000001000000100000001100000100 |
1t
b00001 -
b00011 "J
1"-
b00000000000000000000000000000011 [
0#B
b10100011100100000011000000000000 "a
b00011 #-
b00000000000000000000000000000011 #%
0"c
b000000000001 "F
b00000000000000000000000000000011 "1
b00000001000000100000001100000100 "z
b00000000000000000000000000000001 "+
#61
b00000000000000000000000000011000 #r
b00000000000000000000000000000110 <
b00000000000000000000000000000111 #U
b00000000000000000000000000000100 4
b00001 "W
b00000000000000000000000000000110 "B
b00000000000000000000000000000100 S
b00000000000000000000000000000110 #W
b00000000000000000000000000000001 "v
b0001 #O
b00001 #:
1"'
1b
b00000000000000000000000000000001 M
1#Q
b00000000000000000000000000011000 y
b00000000000000000000000000000101 d
b00011 G
1I
b00000000000000000000000000000010 #b
b00000000000000000000000000000110 #M
b00000000000000000000000000011000 ,
b00000000000000000000000000000100 "d
b00001 "2
b00100 #G
1&
1w
b00000000000000000000000000000111 "}
b00000000000000000000000000000111 "`
b00000000000000000000000000000001 #,
b00000000000000000000000000000111 ".
b00000000000000000000000000000110 \
b00000000000000000000000000000000 q
b00011010 #u
b00100 #X
1"b
b00011010 #w
b00011010 "(
b00000000000000000000000000011000 #o
b00000000000000000000000000000010 P
0"s
b00010 #?
b00011010 #"
b00011 #s
b00001 g
b00000000000000000000000000000001 R
b00000000000000000000000000000110 #k
1J
b00100 #9
b00000000000000000000000000011100 "&
b00000000000000000000000000000111 a
b00000000000000000000000000000100 L
b00011 #;
b00000000000000000000000000000001 "Z
b00000000000000000000000000010100 /
b00001 #3
b00000000000000000000000000000100 F
b00000000000000000000000000000000 "?
b00000000000000000000000000000111 ""
b00011 ]
1"N
b00100 #/
b00000000000000000000000000000100 "e
b00000000000000000000000000000011 "P
b00100 "3
b00001 #e
b000000000000000000000000000000100 "|
b00000000000000000000000000010100 '
b00000000000000000000000000000111 #+
b00000000000000000000000000010100 p
1#B
b00000000000000000000000000000110 "L
b00000000000000000000000000011000 r
b00011010 #v
b00011010 @
b00011 #Y
1"c
b00000000000000000000000000000111 #<
b0001 #'
b00011 ")
b00001 #p
b00000000000000000000000000000001 "r
b00100 "@
