test_run_dir/myc01_core_should_test_forward/myc01_core.vcd
$date
2022-01-18T06:52+0000
$end
$version
0.2
$end
$comment

$end
$timescale 1ns  $end
$scope module myc01_core $end
 $var wire 1 " wb_stage $end
 $var wire 32 * io_id_pc $end
 $var wire 1 , regfile $end
 $var wire 1 1 if_stage $end
 $var wire 1 7 io_exe_wreg_o $end
 $var wire 32 ? io_exe_wd_o $end
 $var wire 5 S io_exe_wa_o $end
 $var wire 32 Y io_iaddr $end
 $var wire 32 "3 io_inst $end
 $var wire 1 "4 clock $end
 $var wire 1 "< exe_stage $end
 $var wire 1 "G exemem_reg $end
 $var wire 8 "J io_exe_aluop_o $end
 $var wire 1 "L io_ice $end
 $var wire 1 "P idexe_reg $end
 $var wire 1 "X memwb_reg $end
 $var wire 1 "d mem_stage $end
 $var wire 1 "g id_stage $end
 $var wire 1 "r reset $end
 $var wire 1 #$ ifid_reg $end
  $scope module ifid_reg $end
   $var wire 32 $ io_id_pc $end
   $var wire 32 ' io_if_pc $end
   $var wire 1 O clock $end
   $var wire 32 X pc_reg $end
   $var wire 1 "O reset $end
  $upscope $end
  $scope module mem_stage $end
   $var wire 32 M io_mem_dreg_o $end
   $var wire 32 "I io_mem_wd_i $end
   $var wire 5 "V io_mem_wa_o $end
   $var wire 1 "\ io_mem_wreg_o $end
   $var wire 5 "] io_mem_wa_i $end
   $var wire 1 "m io_mem_wreg_i $end
  $upscope $end
  $scope module memwb_reg $end
   $var wire 1 = clock $end
   $var wire 1 G io_wb_wreg $end
   $var wire 1 H io_mem_wreg $end
   $var wire 32 J dreg_reg $end
   $var wire 5 K wa_reg $end
   $var wire 5 k io_wb_wa $end
   $var wire 5 p io_mem_wa $end
   $var wire 1 z reset $end
   $var wire 1 "$ wreg_reg $end
   $var wire 32 "Q io_mem_dreg $end
   $var wire 32 "s io_wb_dreg $end
  $upscope $end
  $scope module exe_stage $end
   $var wire 32 ) shiftres $end
   $var wire 8 6 io_exe_aluop_o $end
   $var wire 32 9 arithres $end
   $var wire 32 @ io_exe_src2_i $end
   $var wire 32 A xorAns $end
   $var wire 32 B srlAns $end
   $var wire 32 C addAns $end
   $var wire 32 W sltuAns $end
   $var wire 3 b io_exe_alutype_i $end
   $var wire 63 f _GEN_0 $end
   $var wire 32 v sltAns $end
   $var wire 32 y sllAns $end
   $var wire 32 "" orAns $end
   $var wire 32 "( io_exe_src1_i $end
   $var wire 32 "7 io_exe_wd_o $end
   $var wire 32 "A sraAns $end
   $var wire 33 "H _T $end
   $var wire 32 "N logicres $end
   $var wire 32 "R andAns $end
   $var wire 5 "Y io_exe_wa_o $end
   $var wire 5 "^ io_exe_wa_i $end
   $var wire 1 "k io_exe_wreg_o $end
   $var wire 1 "n io_exe_wreg_i $end
   $var wire 32 "z subAns $end
   $var wire 8 #( io_exe_aluop_i $end
  $upscope $end
  $scope module wb_stage $end
   $var wire 32 3 io_wb_dreg_i $end
   $var wire 1 { io_wb_wreg_i $end
   $var wire 1 "; io_wb_wreg_o $end
   $var wire 5 "u io_wb_wa_o $end
   $var wire 32 #" io_wb_wd_o $end
   $var wire 5 #' io_wb_wa_i $end
  $upscope $end
  $scope module regfile $end
   $var wire 1 + _GEN_3 $end
   $var wire 1 / _T $end
   $var wire 32 4 regs $end
   $var wire 5 5 io_ra1 $end
   $var wire 32 > _GEN_0 $end
   $var wire 1 U io_re2 $end
   $var wire 1 V _GEN_11 $end
   $var wire 1 ^ clock $end
   $var wire 32 a _GEN_8 $end
   $var wire 1 x io_we $end
   $var wire 32 "/ io_rd2 $end
   $var wire 1 "@ io_re1 $end
   $var wire 5 "T io_ra2 $end
   $var wire 5 "_ io_wa $end
   $var wire 32 "l io_wd $end
   $var wire 32 "~ io_rd1 $end
    $scope module regs $end
      $scope module _T_21 $end
       $var wire 5 : addr $end
       $var wire 32 P pipeline_data_0 $end
       $var wire 1 h clk $end
       $var wire 1 l en $end
       $var wire 1 s pipeline_valid_0 $end
       $var wire 32 } data $end
       $var wire 1 "b valid $end
       $var wire 5 "c pipeline_addr_0 $end
       $var wire 1 "q mask $end
      $upscope $end
      $scope module _T_7 $end
       $var wire 32 I data $end
       $var wire 1 [ en $end
       $var wire 1 "5 clk $end
       $var wire 5 "p addr $end
      $upscope $end
      $scope module _T_16 $end
       $var wire 5 R addr $end
       $var wire 1 ~ clk $end
       $var wire 1 "! en $end
       $var wire 32 ": data $end
      $upscope $end
    $upscope $end
  $upscope $end
  $scope module id_stage $end
   $var wire 1 # imm_shamt $end
   $var wire 5 % rs2 $end
   $var wire 1 & inst_sra $end
   $var wire 7 0 func7 $end
   $var wire 1 2 io_exe2id_wreg $end
   $var wire 1 8 inst_addi $end
   $var wire 1 ; inst_srai $end
   $var wire 1 D inst_srli $end
   $var wire 1 E inst_slli $end
   $var wire 1 L id_alutype_temp_2 $end
   $var wire 1 N inst_add $end
   $var wire 32 T io_id_src1_o $end
   $var wire 1 Z inst_srl $end
   $var wire 1 \ inst_slti $end
   $var wire 32 c io_rd2 $end
   $var wire 32 m imm_ext $end
   $var wire 1 n io_rreg2 $end
   $var wire 3 r func3 $end
   $var wire 1 t id_alutype_temp_1 $end
   $var wire 1 u inst_sltu $end
   $var wire 5 | io_ra2 $end
   $var wire 8 "# _T $end
   $var wire 1 "% inst_and $end
   $var wire 32 "& io_id_inst_i $end
   $var wire 5 ") io_exe2id_wa $end
   $var wire 1 "* inst_xori $end
   $var wire 1 "+ immsel $end
   $var wire 1 "- inst_sub $end
   $var wire 1 ". inst_sll $end
   $var wire 1 "1 io_rreg1 $end
   $var wire 32 "6 io_exe2id_wd $end
   $var wire 1 "8 io_mem2id_wreg $end
   $var wire 1 "9 inst_or $end
   $var wire 7 "? opcode $end
   $var wire 5 "B io_id_wa_o $end
   $var wire 1 "D inst_xor $end
   $var wire 1 "E io_id_wreg_o $end
   $var wire 12 "F imm_I $end
   $var wire 5 "K io_ra1 $end
   $var wire 32 "M io_rd1 $end
   $var wire 1 "S inst_ori $end
   $var wire 1 "U inst_andi $end
   $var wire 2 "Z fwrd_reg2 $end
   $var wire 1 "[ id_alutype_temp_0 $end
   $var wire 32 "` io_mem2id_wd $end
   $var wire 8 "a io_id_aluop_o $end
   $var wire 32 "f id_inst $end
   $var wire 1 "j inst_sltiu $end
   $var wire 5 "t io_mem2id_wa $end
   $var wire 2 "w fwrd_reg1 $end
   $var wire 1 "y inst_slt $end
   $var wire 32 "{ io_id_src2_o $end
   $var wire 3 #! io_id_alutype_o $end
  $upscope $end
  $scope module idexe_reg $end
   $var wire 1 ! wreg_reg $end
   $var wire 5 ( io_id_wa $end
   $var wire 32 - io_id_src2 $end
   $var wire 1 ] reset $end
   $var wire 3 d io_id_alutype $end
   $var wire 8 g io_id_aluop $end
   $var wire 8 j aluop_reg $end
   $var wire 32 o io_id_src1 $end
   $var wire 5 q io_exe_wa $end
   $var wire 32 "' src1_reg $end
   $var wire 32 ", io_exe_src2 $end
   $var wire 1 "0 io_id_wreg $end
   $var wire 32 "C src2_reg $end
   $var wire 32 "W io_exe_src1 $end
   $var wire 1 "e clock $end
   $var wire 3 "v alutype_reg $end
   $var wire 1 "x io_exe_wreg $end
   $var wire 5 "} wa_reg $end
   $var wire 8 #) io_exe_aluop $end
   $var wire 3 #* io_exe_alutype $end
  $upscope $end
  $scope module exemem_reg $end
   $var wire 32 . io_exe_wd $end
   $var wire 1 < clock $end
   $var wire 32 e io_mem_wd $end
   $var wire 5 w io_mem_wa $end
   $var wire 32 "2 wd_reg $end
   $var wire 1 "= reset $end
   $var wire 1 "> io_exe_wreg $end
   $var wire 5 "h wa_reg $end
   $var wire 1 "i wreg_reg $end
   $var wire 1 "| io_mem_wreg $end
   $var wire 5 ## io_exe_wa $end
  $upscope $end
  $scope module if_stage $end
   $var wire 1 F reset $end
   $var wire 1 Q io_ice $end
   $var wire 32 _ io_pc $end
   $var wire 1 ` _T $end
   $var wire 32 i _GEN_0 $end
   $var wire 1 "o clock $end
   $var wire 32 #% pc_reg $end
   $var wire 32 #& io_iaddr $end
  $upscope $end
$upscope $end
$enddefinitions $end
$dumpvars
b00000000000000000000000000000000 Y
0"L
b000000000000000000000000000000000 "H
0&
b00000000000000000000000000000000 '
b00000 |
0=
0"1
b0000000 0
b00000 5
b00000000000000000000000000000000 "M
0"P
0"|
b00000 "T
0"g
0V
b00000000000000000000000000000000 "2
b00000000000000000000000000000000 "I
0"x
b00000000000000000000000000000000 "`
b00000000000000000000000000000000 }
b00 "Z
0"[
b000 #*
0~
0"r
0L
0"@
0D
0/
0x
1"q
b00000 p
0F
0[
b00000 S
b00000 "c
b00000000000000000000000000000000 "s
0z
0"n
0]
0H
0"<
b00000 ")
b00000000000000000000000000000000 A
b00000000 g
0+
b00000000000000000000000000000000 $
b00000000000000000000000000000000 "C
b00000000000000000000000000000000 "&
b000000000000000000000000000000000000000000000000000000000000000 f
b00000 "t
b00000 "_
0"j
b00000 "B
b00000 ##
0"U
b00000000000000000000000000000000 "R
0"8
b00000 "Y
1Q
0"d
0"O
b00000000000000000000000000000000 T
b00000000000000000000000000000000 ?
b00000 K
b00000 "p
0!
b000000000000 "F
b00000000000000000000000000000000 "N
0"4
b00000000000000000000000000000000 9
b00000000000000000000000000000000 m
0l
b00000 (
b00000000000000000000000000000000 e
0O
0#$
0".
b00000000000000000000000000000000 P
b00000000000000000000000000000000 3
0{
0"E
b00000000000000000000000000000000 J
b00000000000000000000000000000000 "~
b00000000000000000000000000000000 i
b00000000000000000000000000000000 #%
0`
b00000000000000000000000000000000 "/
0"*
0E
0"$
b00000 R
b00000000000000000000000000000000 )
b00000000000000000000000000000000 "z
0"o
b00000000000000000000000000000000 "W
b00000000000000000000000000000000 _
0"=
b00000000000000000000000000000000 B
b000 b
b00000000000000000000000000000000 -
b000 #!
0u
0"i
b00000 "V
b00000000000000000000000000000000 "'
b000 d
0;
b00000 "u
0"k
b00 "w
0Z
b00000000000000000000000000000000 "6
0"9
b00000000000000000000000000000000 >
b00000000 #(
0"e
07
0"
b00000000000000000000000000000000 "l
b00000000000000000000000000000000 ":
0N
0"-
b0000000 "?
b00000000000000000000000000000000 "f
b00000000000000000000000000000000 "Q
0"D
b00000000000000000000000000000000 I
b00000000000000000000000000000000 4
b00000000000000000000000000000000 .
b00000 :
b00000 %
b00000000000000000000000000000000 #&
b00000000000000000000000000000000 M
b00000000000000000000000000000000 "(
0"+
b00000000000000000000000000000000 y
01
b00000000000000000000000000000000 "{
0"%
b00000000000000000000000000000000 *
b00000000 #)
b00000 #'
b00000000000000000000000000000000 "A
b00000000000000000000000000000000 ",
b00000000000000000000000000000000 #"
b00000000 "J
b00000 "]
0t
0"S
0">
b00000000000000000000000000000000 X
b00000000000000000000000000000000 C
b00000000 "a
0"!
b00000000000000000000000000000000 o
0n
0<
b00000000000000000000000000000000 "7
b00000000000000000000000000000000 ""
b00000000 "#
0U
b00000 w
08
0#
b00000000000000000000000000000000 "3
02
0"b
b000 r
0"0
0"y
0h
0"\
0"G
b00000000000000000000000000000000 a
b00000000 j
b00000 "}
b00000 "h
b00000 "K
b00000000000000000000000000000000 c
b000 "v
0"m
0"X
0\
0G
0";
b00000 q
b00000000000000000000000000000000 @
0s
0^
b00000 k
b00000000000000000000000000000000 W
0,
0"5
b00000 "^
b00000000 6
b00000000000000000000000000000000 v
$end
#0
1"L
1"O
1F
1z
1V
1]
b00000000000000000000000000000100 i
1+
1"r
1/
1"=
#1
1<
1"e
1h
1"4
1~
1"5
1=
1^
1O
1"o
#6
0<
0"e
0h
0"4
0~
0"5
0=
0"o
0"=
0F
0z
0]
0O
0^
0"r
0"O
#11
1<
1"e
b00000000000000000000000000000100 Y
1h
1"4
b00000000000000000000000000000100 '
1~
b00000000000000000000000000001000 i
1"5
1=
1"o
b00000000000000000000000000000100 #%
b00000000000000000000000000000100 #&
1O
1^
b00000000000000000000000000000100 _
#16
b001 #!
0<
b00000001 g
b00010 R
b00011 "B
b00001 5
0h
0~
b10110011100000010010000000000000 "&
b00000000000000000000000000000010 a
0"o
0/
b00001 "p
b00000000000000000000000000000010 c
1N
1"!
b00010 "T
b0110011 "?
b001 d
b00000000000000000000000000000001 "M
0^
b00000000000000000000000000000001 I
b00010 |
b00000000000000000000000000000010 ":
b00000000000000000000000000000010 -
0"e
b00010 %
b10110011100000010010000000000000 "3
b00000000001000001000000110110011 "f
0"4
b00000000000000000000000000000001 o
0"5
0=
b00011 (
1[
b00001 "K
b00000000000000000000000000000001 "~
b00000000000000000000000000000001 >
b00000001 "a
b00000000000000000000000000000001 T
b00000000000000000000000000000010 "/
1U
1"E
1"0
1"[
b000000000010 "F
1"1
0O
b00000000000000000000000000000010 m
b00000000000000000000000000000010 "{
1"@
1n
#21
b000000000000000000000000000000000000000000000000000000000000001 f
1<
b00000000000000000000000000000001 "W
b00011 ##
1h
b00011 S
b001 "v
b00000001 6
1"n
b00011 "Y
b00000000000000000000000000000001 "'
b00000001 j
b001 b
1">
b00000000000000000000000000000100 y
b00000000000000000000000000000011 "6
12
b00000000000000000000000000000100 *
1^
b00000000000000000000000000000011 A
b00000000000000000000000000000100 X
b00000000000000000000000000000011 C
b00000000000000000000000000000011 .
b001 #*
1"4
b00011 "}
1=
b00011 q
b00000000000000000000000000000011 ?
b00000000000000000000000000001000 #&
b00000000000000000000000000000001 "(
b00000000000000000000000000000011 9
b00000000000000000000000000000100 $
b00000001 #(
b00011 "^
b00000000000000000000000000000010 ",
b00000000000000000000000000000010 "C
1~
b00000000000000000000000000001100 i
17
1"o
b00000000000000000000000000000011 "7
b00000000000000000000000000000011 ""
1"k
b00000000000000000000000000001000 _
1"e
b00000000000000000000000000000001 v
b00000000000000000000000000001000 Y
b00000000000000000000000000001000 '
b00000001 "J
1"5
1!
b00000000000000000000000000001000 #%
b00000000000000000000000000000010 @
1"x
b00011 ")
b00000000000000000000000000000001 W
b11111111111111111111111111111111 "z
1O
b000000000000000000000000000000011 "H
b00000001 #)
#26
b001 #!
0<
b00000001 g
b00010 R
b00001 "B
b00010 5
0h
0~
b10110011000000000010000100000000 "&
b00000000000000000000000000000010 a
0"o
0/
b00010 "p
b00000000000000000000000000000010 c
1N
1"!
b00010 "T
b0110011 "?
b001 d
b00000000000000000000000000000010 "M
0^
b00000000000000000000000000000010 I
b00010 |
b00000000000000000000000000000010 ":
b00000000000000000000000000000010 -
0"e
b00010 %
b10110011000000000010000100000000 "3
b00000000001000010000000010110011 "f
0"4
b00000000000000000000000000000010 o
0"5
0=
b00001 (
1[
b00010 "K
b00000000000000000000000000000010 "~
b00000000000000000000000000000010 >
b00000001 "a
b00000000000000000000000000000010 T
b00000000000000000000000000000010 "/
1U
1"E
1"0
1"[
b000000000010 "F
1"1
0O
b00000000000000000000000000000010 m
b00000000000000000000000000000010 "{
1"@
1n
#31
b000000000000000000000000000000000000000000000000000000000000010 f
1<
b00011 "t
b00000000000000000000000000000010 "W
b00001 ##
1h
b00001 S
b00001 "Y
b00000000000000000000000000000010 "'
b00000000000000000000000000000011 M
b00000000000000000000000000001000 y
b00000000000000000000000000000100 "6
b00000000000000000000000000001000 *
1"8
1^
b00000000000000000000000000000000 A
b00000000000000000000000000000011 "2
b00000000000000000000000000001000 X
b00000000000000000000000000000100 C
b00000000000000000000000000000100 .
b00000000000000000000000000000011 "Q
b00000000000000000000000000000011 "I
1"4
b00011 w
b00001 "}
b00011 "h
1=
b00000000000000000000000000000011 "`
b00001 q
b00000000000000000000000000000100 ?
b00000000000000000000000000001100 #&
b00000000000000000000000000000010 "(
b00000000000000000000000000000100 9
b00000000000000000000000000001000 $
1"\
b00001 "^
1~
b00000000000000000000000000010000 i
1"o
b00000000000000000000000000000010 "R
1"i
b00000000000000000000000000000100 "7
b00000000000000000000000000000011 e
b00000000000000000000000000000010 ""
1H
b00011 "V
b00000000000000000000000000001100 _
1"m
1"e
b00000000000000000000000000000000 v
b00000000000000000000000000001100 Y
1"|
b00000000000000000000000000001100 '
1"5
b00011 p
b00000000000000000000000000001100 #%
b00001 ")
b00000000000000000000000000000000 W
b00000000000000000000000000000000 "z
1O
b00011 "]
b000000000000000000000000000000100 "H
#36
b001 #!
0<
b00000001 g
b00001 R
b00010 "B
b00011 5
0h
0~
b00110011100000010001000100000000 "&
b00000000000000000000000000000001 a
0"o
b01 "Z
0/
b00011 "p
b00000000000000000000000000000001 c
1N
1"!
b00001 "T
b0110011 "?
b001 d
b00000000000000000000000000000001 "M
0^
b00000000000000000000000000000001 I
b00001 |
b00000000000000000000000000000001 ":
b00000000000000000000000000000100 -
0"e
b00001 %
b00110011100000010001000100000000 "3
b00000000000100011000000100110011 "f
0"4
b00000000000000000000000000000011 o
0"5
0=
b00010 (
1[
b00011 "K
b00000000000000000000000000000001 "~
b00000000000000000000000000000001 >
b00000001 "a
b00000000000000000000000000000011 T
b00000000000000000000000000000001 "/
b10 "w
1U
1"E
1"0
1"[
b000000000001 "F
1"1
0O
b00000000000000000000000000000001 m
b00000000000000000000000000000100 "{
1"@
1n
#41
b000000000000000000000000000000000000000000000000000000000000011 f
1<
b00001 "t
b00011 "_
b00000000000000000000000000000011 "W
b00010 ##
b00000000000000000000000000000011 }
1h
b00010 S
b00011 K
b00010 "Y
b00000000000000000000000000000011 "'
b00000000000000000000000000000100 M
b00000000000000000000000000110000 y
b00000000000000000000000000000111 "6
1G
b00000000000000000000000000001100 *
b00000000000000000000000000000011 "M
1{
1^
b00000000000000000000000000000011 "l
b00000000000000000000000000000111 A
b00000000000000000000000000000100 "2
b00000000000000000000000000001100 X
b00000000000000000000000000000111 C
b00000000000000000000000000000111 .
b00000000000000000000000000000100 "Q
b00000000000000000000000000000100 "I
1"4
b00001 w
b00010 "}
b00001 "h
1=
b00000000000000000000000000000100 "`
b00010 q
b00000000000000000000000000000111 ?
b00 "w
1"b
b00000000000000000000000000010000 #&
b00011 k
b00000000000000000000000000000011 "(
b00000000000000000000000000000111 9
b00000000000000000000000000001100 $
b00000000000000000000000000000011 "s
b00010 "^
b00000000000000000000000000000011 3
b00000000000000000000000000000011 #"
b00000000000000000000000000000100 ",
1"$
b00011 "u
b00000000000000000000000000000011 J
b00000000000000000000000000000100 "C
1~
1";
b00000000000000000000000000010100 i
1"o
b10 "Z
b00000000000000000000000000000000 "R
b00000000000000000000000000000111 "7
b00000000000000000000000000000100 e
b00000000000000000000000000000111 ""
b00001 "V
0+
b00000000000000000000000000010000 _
1"e
b00000000000000000000000000000001 v
b00000000000000000000000000010000 Y
b00000000000000000000000000010000 '
1"5
1x
b00001 p
0[
b00000000000000000000000000000011 "~
b00000000000000000000000000000011 >
b00000000000000000000000000010000 #%
b00000000000000000000000000000100 @
b00011 #'
1l
b00000000000000000000000000000001 W
b00010 ")
b11111111111111111111111111111111 "z
1O
b00011 :
b00001 "]
b000000000000000000000000000000111 "H
#46
b001 #!
0<
b00000001 g
b00010 R
b00011 "B
b00001 5
0h
0~
b10110011100000010010000000000000 "&
b00000000000000000000000000000010 a
0"o
b01 "Z
0/
b00001 "p
b00000000000000000000000000000010 c
1N
1"!
b00010 "T
b0110011 "?
b001 d
b00000000000000000000000000000001 "M
1+
0^
b00000000000000000000000000000001 I
b00010 |
b00000000000000000000000000000010 ":
b00000000000000000000000000000111 -
0"e
b00010 %
b10110011100000010010000000000000 "3
b00000000001000001000000110110011 "f
0"4
b00000000000000000000000000000100 o
0"5
0=
b00011 (
1[
b00001 "K
b00000000000000000000000000000001 "~
b00000000000000000000000000000001 >
b00000001 "a
b00000000000000000000000000000100 T
b00000000000000000000000000000010 "/
b10 "w
1U
1"E
1"0
1"[
b000000000010 "F
1"1
0O
b00000000000000000000000000000010 m
b00000000000000000000000000000111 "{
1"@
1n
#51
b000000000000000000000000000000000000000000000000000000000000100 f
1<
b00010 "t
b00001 "_
b00000000000000000000000000000100 "W
b00011 ##
b00000000000000000000000000000100 }
1h
b00011 S
b00001 K
b00011 "Y
b00000000000000000000000000000100 "'
b00000000000000000000000000000111 M
b00000000000000000000001000000000 y
b00000000000000000000000000001011 "6
b00000000000000000000000000010000 *
b00000000000000000000000000000100 "M
1^
b00000000000000000000000000000100 "l
b00000000000000000000000000000011 A
b00000000000000000000000000000111 "2
b00000000000000000000000000010000 X
b00000000000000000000000000001011 C
b00000000000000000000000000001011 .
b00000000000000000000000000000111 "Q
b00000000000000000000000000000111 "I
1"4
b00010 w
b00011 "}
b00010 "h
1=
b00000000000000000000000000000111 "`
b00011 q
b00000000000000000000000000001011 ?
b00 "w
b00000000000000000000000000010100 #&
1s
b00001 k
b00000000000000000000000000000100 "(
b00000000000000000000000000001011 9
b00000000000000000000000000010000 $
b00000000000000000000000000000011 P
b00000000000000000000000000000100 "s
b00011 "^
b00000000000000000000000000000100 3
b00000000000000000000000000000100 #"
b00000000000000000000000000000111 ",
b00001 "u
b00000000000000000000000000000100 J
b00000000000000000000000000000111 "C
1~
b00000000000000000000000000011000 i
1"o
b10 "Z
b00000000000000000000000000000100 "R
b00000000000000000000000000001011 "7
b00000000000000000000000000000111 e
b00010 "V
0+
b00000000000000000000000000010100 _
1"e
b00000000000000000000000000010100 Y
b00000000000000000000000000010100 '
1"5
b00010 p
0[
b00000000000000000000000000000100 "~
b00000000000000000000000000000100 >
b00000000000000000000000000010100 #%
b00000000000000000000000000000111 @
b00011 "c
b00001 #'
b00011 ")
b11111111111111111111111111111101 "z
1O
b00001 :
b00010 "]
b000000000000000000000000000001011 "H
#56
b000 #!
0<
b00000000 g
b00000 R
b00000 "B
b00000 5
0h
0~
b00000000000000000000000000000000 "&
b00000000000000000000000000000000 a
0"o
b00 "Z
1/
b00000 "p
b00000000000000000000000000000000 c
0N
0"!
b00000 "T
b0000000 "?
b000 d
b00000000000000000000000000000000 "M
1+
0^
b00000000000000000000000000000000 I
b00000 |
b00000000000000000000000000000000 ":
b00000000000000000000000000000000 -
0"e
b00000 %
b00000000000000000000000000000000 "3
b00000000000000000000000000000000 "f
0"4
b00000000000000000000000000000000 o
0"5
0=
b00000 (
b00000 "K
b00000000000000000000000000000000 "~
b00000000000000000000000000000000 >
b00000000 "a
b00000000000000000000000000000000 T
b00000000000000000000000000000000 "/
0U
0"E
0"0
0"[
b000000000000 "F
0"1
0O
b00000000000000000000000000000000 m
b00000000000000000000000000000000 "{
0"@
0n
#61
b000000000000000000000000000000000000000000000000000000000000000 f
1<
b00011 "t
b00010 "_
b00000000000000000000000000000000 "W
b00000 ##
b00000000000000000000000000000111 }
1h
b00000 S
b000 "v
b00010 K
b00000000 6
0"n
b00000 "Y
b00000000000000000000000000000000 "'
b00000000 j
b000 b
b00000000000000000000000000001011 M
0">
b00000000000000000000000000000000 y
b00000000000000000000000000000000 "6
02
b00000000000000000000000000010100 *
1^
b00000000000000000000000000000111 "l
b00000000000000000000000000000000 A
b00000000000000000000000000001011 "2
b00000000000000000000000000010100 X
b00000000000000000000000000000000 C
b00000000000000000000000000000000 .
b00000000000000000000000000001011 "Q
b00000000000000000000000000001011 "I
1"4
b00011 w
b000 #*
b00000 "}
b00011 "h
1=
b00000000000000000000000000001011 "`
b00000 q
b00000000000000000000000000000000 ?
b00000000000000000000000000011000 #&
b00010 k
b00000000000000000000000000000000 "(
b00000000000000000000000000000000 9
b00000000000000000000000000010100 $
b00000000 #(
b00000000000000000000000000000100 P
b00000000000000000000000000000111 "s
b00000 "^
b00000000000000000000000000000111 3
b00000000000000000000000000000111 #"
b00000000000000000000000000000000 ",
b00010 "u
b00000000000000000000000000000111 J
b00000000000000000000000000000000 "C
1~
b00000000000000000000000000011100 i
07
1"o
b00000000000000000000000000000000 "R
b00000000000000000000000000000000 "7
b00000000000000000000000000001011 e
b00000000000000000000000000000000 ""
0"k
b00011 "V
b00000000000000000000000000011000 _
1"e
b00000000000000000000000000000000 v
b00000000000000000000000000011000 Y
b00000000000000000000000000011000 '
b00000000 "J
1"5
b00011 p
0!
b00000000000000000000000000011000 #%
b00000000000000000000000000000000 @
0"x
b00001 "c
b00010 #'
b00000 ")
b00000000000000000000000000000000 W
b00000000000000000000000000000000 "z
1O
b00010 :
b00011 "]
b000000000000000000000000000000000 "H
b00000000 #)
#66
0<
0"e
0h
0"4
0~
0"5
0=
0^
0O
0"o
#71
b00000000000000000000000000001011 3
b00000000000000000000000000001011 #"
1<
b00011 "_
b00000 "t
b00011 "u
b00000000000000000000000000001011 J
b00000000000000000000000000001011 }
1h
b00011 K
1~
b00000000000000000000000000100000 i
1"o
b00000000000000000000000000000000 M
0"i
b00000000000000000000000000000000 e
b00000000000000000000000000011000 *
0H
0"8
b00000 "V
1^
b00000000000000000000000000001011 "l
b00000000000000000000000000011100 _
0"m
b00000000000000000000000000000000 "2
1"e
b00000000000000000000000000011000 X
b00000000000000000000000000000000 "Q
b00000000000000000000000000011100 Y
b00000000000000000000000000000000 "I
1"4
0"|
b00000 w
b00000000000000000000000000011100 '
1"5
b00000 "h
1=
b00000 p
b00000000000000000000000000000000 "`
b00000000000000000000000000011100 #%
b00000000000000000000000000011100 #&
b00010 "c
b00011 k
b00011 #'
b00000000000000000000000000011000 $
0"\
1O
b00011 :
b00000 "]
b00000000000000000000000000000111 P
b00000000000000000000000000001011 "s
#76
0<
0"e
0h
0"4
0~
0"5
0=
0^
0O
0"o
#81
b00000000000000000000000000000000 3
b00000000000000000000000000000000 #"
1<
b00000 "_
0"$
b00000 "u
b00000000000000000000000000000000 J
b00000000000000000000000000000000 }
1h
b00000 K
1~
0";
b00000000000000000000000000100100 i
1"o
0G
b00000000000000000000000000011100 *
0{
1^
b00000000000000000000000000000000 "l
b00000000000000000000000000100000 _
1"e
b00000000000000000000000000011100 X
b00000000000000000000000000100000 Y
1"4
b00000000000000000000000000100000 '
1"5
0x
1=
b00000000000000000000000000100000 #%
0"b
b00000000000000000000000000100000 #&
b00011 "c
b00000 k
b00000 #'
0l
b00000000000000000000000000011100 $
1O
b00000 :
b00000000000000000000000000001011 P
b00000000000000000000000000000000 "s
#86
0<
0"e
0h
0"4
0~
0"5
0=
0^
0O
0"o
#91
1<
1"e
b00000000000000000000000000100000 X
b00000000000000000000000000100100 Y
1h
1"4
b00000000000000000000000000100100 '
1~
b00000000000000000000000000101000 i
1"5
1=
1"o
b00000000000000000000000000100100 #%
b00000000000000000000000000100100 #&
0s
b00000 "c
b00000000000000000000000000100000 *
b00000000000000000000000000100000 $
1O
1^
b00000000000000000000000000000000 P
b00000000000000000000000000100100 _
#96
0<
0"e
0h
0"4
0~
0"5
0=
0^
0O
0"o
#101
1<
1"e
b00000000000000000000000000100100 X
b00000000000000000000000000101000 Y
1h
1"4
b00000000000000000000000000101000 '
1~
b00000000000000000000000000101100 i
1"5
1=
1"o
b00000000000000000000000000101000 #%
b00000000000000000000000000101000 #&
b00000000000000000000000000100100 *
b00000000000000000000000000100100 $
1O
1^
b00000000000000000000000000101000 _
#106
0<
0"e
0h
0"4
0~
0"5
0=
0^
0O
0"o
#111
1<
1"e
b00000000000000000000000000101000 X
b00000000000000000000000000101100 Y
1h
1"4
b00000000000000000000000000101100 '
1~
b00000000000000000000000000110000 i
1"5
1=
1"o
b00000000000000000000000000101100 #%
b00000000000000000000000000101100 #&
b00000000000000000000000000101000 *
b00000000000000000000000000101000 $
1O
1^
b00000000000000000000000000101100 _
#116
0<
0"e
0h
0"4
0~
0"5
0=
0^
0O
0"o
#121
1<
1"e
b00000000000000000000000000101100 X
b00000000000000000000000000110000 Y
1h
1"4
b00000000000000000000000000110000 '
1~
b00000000000000000000000000110100 i
1"5
1=
1"o
b00000000000000000000000000110000 #%
b00000000000000000000000000110000 #&
b00000000000000000000000000101100 *
b00000000000000000000000000101100 $
1O
1^
b00000000000000000000000000110000 _
#126
0<
0"e
0h
0"4
0~
0"5
0=
0^
0O
0"o
#131
1<
1"e
b00000000000000000000000000110000 X
b00000000000000000000000000110100 Y
1h
1"4
b00000000000000000000000000110100 '
1~
b00000000000000000000000000111000 i
1"5
1=
1"o
b00000000000000000000000000110100 #%
b00000000000000000000000000110100 #&
b00000000000000000000000000110000 *
b00000000000000000000000000110000 $
1O
1^
b00000000000000000000000000110100 _
#136
0<
0"e
0h
0"4
0~
0"5
0=
0^
0O
0"o
#141
1<
1"e
b00000000000000000000000000110100 X
b00000000000000000000000000111000 Y
1h
1"4
b00000000000000000000000000111000 '
1~
b00000000000000000000000000111100 i
1"5
1=
1"o
b00000000000000000000000000111000 #%
b00000000000000000000000000111000 #&
b00000000000000000000000000110100 *
b00000000000000000000000000110100 $
1O
1^
b00000000000000000000000000111000 _
#146
0<
0"e
0h
0"4
0~
0"5
0=
0^
0O
0"o
#151
1<
1"e
b00000000000000000000000000111000 X
b00000000000000000000000000111100 Y
1h
1"4
b00000000000000000000000000111100 '
1~
b00000000000000000000000001000000 i
1"5
1=
1"o
b00000000000000000000000000111100 #%
b00000000000000000000000000111100 #&
b00000000000000000000000000111000 *
b00000000000000000000000000111000 $
1O
1^
b00000000000000000000000000111100 _
#156
0<
0"e
0h
0"4
0~
0"5
0=
0^
0O
0"o
#161
1<
1"e
b00000000000000000000000000111100 X
b00000000000000000000000001000000 Y
1h
1"4
b00000000000000000000000001000000 '
1~
b00000000000000000000000001000100 i
1"5
1=
1"o
b00000000000000000000000001000000 #%
b00000000000000000000000001000000 #&
b00000000000000000000000000111100 *
b00000000000000000000000000111100 $
1O
1^
b00000000000000000000000001000000 _
