test_run_dir/myc01_core_should_test_Rtype/myc01_core.vcd
$date
2022-01-16T15:09+0000
$end
$version
0.2
$end
$comment

$end
$timescale 1ns  $end
$scope module myc01_core $end
 $var wire 1 " wb_stage $end
 $var wire 32 ( io_id_pc $end
 $var wire 1 * regfile $end
 $var wire 1 / if_stage $end
 $var wire 1 4 io_exe_wreg_o $end
 $var wire 32 ; io_exe_wd_o $end
 $var wire 5 M io_exe_wa_o $end
 $var wire 32 S io_iaddr $end
 $var wire 32 ", io_inst $end
 $var wire 1 "- clock $end
 $var wire 1 "3 exe_stage $end
 $var wire 1 "> exemem_reg $end
 $var wire 8 "A io_exe_aluop_o $end
 $var wire 1 "C io_ice $end
 $var wire 1 "G idexe_reg $end
 $var wire 1 "O memwb_reg $end
 $var wire 1 "Y mem_stage $end
 $var wire 1 "\ id_stage $end
 $var wire 1 "g reset $end
 $var wire 1 "u ifid_reg $end
  $scope module ifid_reg $end
   $var wire 32 # io_id_pc $end
   $var wire 32 % io_if_pc $end
   $var wire 1 I clock $end
   $var wire 32 Q pc_reg $end
   $var wire 1 "F reset $end
  $upscope $end
  $scope module mem_stage $end
   $var wire 32 G io_mem_dreg_o $end
   $var wire 32 "@ io_mem_wd_i $end
   $var wire 5 "M io_mem_wa_o $end
   $var wire 1 "R io_mem_wreg_o $end
   $var wire 5 "S io_mem_wa_i $end
   $var wire 1 "b io_mem_wreg_i $end
  $upscope $end
  $scope module memwb_reg $end
   $var wire 1 9 clock $end
   $var wire 1 A io_wb_wreg $end
   $var wire 1 B io_mem_wreg $end
   $var wire 32 D dreg_reg $end
   $var wire 5 E wa_reg $end
   $var wire 5 e io_wb_wa $end
   $var wire 5 j io_mem_wa $end
   $var wire 1 t reset $end
   $var wire 1 | wreg_reg $end
   $var wire 32 "H io_mem_dreg $end
   $var wire 32 "h io_wb_dreg $end
  $upscope $end
  $scope module exe_stage $end
   $var wire 32 ' shiftres $end
   $var wire 8 3 io_exe_aluop_o $end
   $var wire 32 6 arithres $end
   $var wire 32 < io_exe_src2_i $end
   $var wire 32 = xorAns $end
   $var wire 32 > srlAns $end
   $var wire 32 ? addAns $end
   $var wire 32 R sltuAns $end
   $var wire 3 ^ io_exe_alutype_i $end
   $var wire 63 ` _GEN_0 $end
   $var wire 32 p sltAns $end
   $var wire 32 s sllAns $end
   $var wire 32 z orAns $end
   $var wire 32 "" io_exe_src1_i $end
   $var wire 32 "/ io_exe_wd_o $end
   $var wire 32 "8 sraAns $end
   $var wire 33 "? _T $end
   $var wire 32 "E logicres $end
   $var wire 32 "J andAns $end
   $var wire 5 "P io_exe_wa_o $end
   $var wire 5 "T io_exe_wa_i $end
   $var wire 1 "` io_exe_wreg_o $end
   $var wire 1 "c io_exe_wreg_i $end
   $var wire 32 "n subAns $end
   $var wire 8 "z io_exe_aluop_i $end
  $upscope $end
  $scope module wb_stage $end
   $var wire 32 0 io_wb_dreg_i $end
   $var wire 1 u io_wb_wreg_i $end
   $var wire 1 "2 io_wb_wreg_o $end
   $var wire 5 "i io_wb_wa_o $end
   $var wire 32 "s io_wb_wd_o $end
   $var wire 5 "x io_wb_wa_i $end
  $upscope $end
  $scope module regfile $end
   $var wire 1 ) _GEN_3 $end
   $var wire 1 - _T $end
   $var wire 32 1 regs $end
   $var wire 5 2 io_ra1 $end
   $var wire 32 : _GEN_0 $end
   $var wire 1 O io_re2 $end
   $var wire 1 P _GEN_11 $end
   $var wire 1 X clock $end
   $var wire 32 [ _GEN_8 $end
   $var wire 1 r io_we $end
   $var wire 32 "( io_rd2 $end
   $var wire 1 "7 io_re1 $end
   $var wire 5 "K io_ra2 $end
   $var wire 5 "U io_wa $end
   $var wire 32 "a io_wd $end
   $var wire 32 "q io_rd1 $end
    $scope module regs $end
      $scope module _T_21 $end
       $var wire 5 7 addr $end
       $var wire 32 J pipeline_data_0 $end
       $var wire 1 b clk $end
       $var wire 1 f en $end
       $var wire 1 m pipeline_valid_0 $end
       $var wire 32 w data $end
       $var wire 1 "W valid $end
       $var wire 5 "X pipeline_addr_0 $end
       $var wire 1 "f mask $end
      $upscope $end
      $scope module _T_7 $end
       $var wire 32 C data $end
       $var wire 1 U en $end
       $var wire 1 ". clk $end
       $var wire 5 "e addr $end
      $upscope $end
      $scope module _T_16 $end
       $var wire 5 L addr $end
       $var wire 1 x clk $end
       $var wire 1 y en $end
       $var wire 32 "1 data $end
      $upscope $end
    $upscope $end
  $upscope $end
  $scope module id_stage $end
   $var wire 1 $ inst_sra $end
   $var wire 7 . func7 $end
   $var wire 1 5 inst_addi $end
   $var wire 1 F id_alutype_temp_2 $end
   $var wire 1 H inst_add $end
   $var wire 32 N io_id_src1_o $end
   $var wire 1 T inst_srl $end
   $var wire 1 V inst_slti $end
   $var wire 32 \ io_rd2 $end
   $var wire 32 g imm_ext $end
   $var wire 1 h io_rreg2 $end
   $var wire 3 l func3 $end
   $var wire 1 n id_alutype_temp_1 $end
   $var wire 1 o inst_sltu $end
   $var wire 5 v io_ra2 $end
   $var wire 8 { _T $end
   $var wire 1 } inst_and $end
   $var wire 32 ~ io_id_inst_i $end
   $var wire 1 "# inst_xori $end
   $var wire 1 "$ immsel $end
   $var wire 1 "% inst_sub $end
   $var wire 1 "' inst_sll $end
   $var wire 1 "* io_rreg1 $end
   $var wire 1 "0 inst_or $end
   $var wire 7 "6 opcode $end
   $var wire 5 "9 io_id_wa_o $end
   $var wire 1 ": inst_xor $end
   $var wire 1 "< io_id_wreg_o $end
   $var wire 12 "= imm_I $end
   $var wire 5 "B io_ra1 $end
   $var wire 32 "D io_rd1 $end
   $var wire 1 "I inst_ori $end
   $var wire 1 "L inst_andi $end
   $var wire 1 "Q id_alutype_temp_0 $end
   $var wire 8 "V io_id_aluop_o $end
   $var wire 32 "[ id_inst $end
   $var wire 1 "_ inst_sltiu $end
   $var wire 1 "l inst_slt $end
   $var wire 32 "m io_id_src2_o $end
   $var wire 3 "r io_id_alutype_o $end
  $upscope $end
  $scope module idexe_reg $end
   $var wire 1 ! wreg_reg $end
   $var wire 5 & io_id_wa $end
   $var wire 32 + io_id_src2 $end
   $var wire 1 W reset $end
   $var wire 3 ] io_id_alutype $end
   $var wire 8 a io_id_aluop $end
   $var wire 8 d aluop_reg $end
   $var wire 32 i io_id_src1 $end
   $var wire 5 k io_exe_wa $end
   $var wire 32 "! src1_reg $end
   $var wire 32 "& io_exe_src2 $end
   $var wire 1 ") io_id_wreg $end
   $var wire 32 "; src2_reg $end
   $var wire 32 "N io_exe_src1 $end
   $var wire 1 "Z clock $end
   $var wire 3 "j alutype_reg $end
   $var wire 1 "k io_exe_wreg $end
   $var wire 5 "p wa_reg $end
   $var wire 8 "y io_exe_aluop $end
   $var wire 3 "{ io_exe_alutype $end
  $upscope $end
  $scope module exemem_reg $end
   $var wire 32 , io_exe_wd $end
   $var wire 1 8 clock $end
   $var wire 32 _ io_mem_wd $end
   $var wire 5 q io_mem_wa $end
   $var wire 32 "+ wd_reg $end
   $var wire 1 "4 reset $end
   $var wire 1 "5 io_exe_wreg $end
   $var wire 5 "] wa_reg $end
   $var wire 1 "^ wreg_reg $end
   $var wire 1 "o io_mem_wreg $end
   $var wire 5 "t io_exe_wa $end
  $upscope $end
  $scope module if_stage $end
   $var wire 1 @ reset $end
   $var wire 1 K io_ice $end
   $var wire 32 Y io_pc $end
   $var wire 1 Z _T $end
   $var wire 32 c _GEN_0 $end
   $var wire 1 "d clock $end
   $var wire 32 "v pc_reg $end
   $var wire 32 "w io_iaddr $end
  $upscope $end
$upscope $end
$enddefinitions $end
$dumpvars
0X
b00000000000000000000000000000000 Y
0"7
0"L
b00000000000000000000000000000000 <
b00000000000000000000000000000000 '
0o
0"c
b00000000 "y
b00000000 d
b00000000000000000000000000000000 "8
b00000 v
b00000000 "A
b00000 "i
b00000 "T
0"g
0V
b00000000000000000000000000000000 :
b000 "j
0m
b00000 "9
b00000000000000000000000000000000 Q
b00000 "e
b00000 "P
0"F
05
b000 "{
b00000000000000000000000000000000 6
0")
b00000000000000000000000000000000 w
b00000000000000000000000000000000 0
0"#
0/
0x
0F
0":
b00000 "x
b00000000000000000000000000000000 "s
0)
0r
b00000000000000000000000000000000 s
0"Q
0"<
b00000 j
0@
0H
b00000000000000000000000000000000 "&
0W
b00000000000000000000000000000000 ;
b00000000 a
b00000 "t
b00000 2
b00000 "B
b000 ]
b000000000000000000000000000000000000000000000000000000000000000 `
b00000000000000000000000000000000 (
0"l
0"d
0"O
b00000000000000000000000000000000 ?
0"2
b00000 "p
0!
b00000 "S
b00000000000000000000000000000000 "N
0"4
b00000 "M
0"`
0O
0"C
b000000000000000000000000000000000 "?
0".
0f
0"Z
0I
04
b00000000000000000000000000000000 J
b00000000000000000000000000000000 "a
b00000000000000000000000000000000 i
b00000000000000000000000000000000 "D
b00000000000000000000000000000000 "/
b000 l
0"*
0b
b00000000000000000000000000000000 "1
0"$
0"u
b00000000000000000000000000000000 "H
b00000000000000000000000000000000 "@
b00000000000000000000000000000000 "+
b00000 7
0"o
b00000000000000000000000000000000 _
b00000000000000000000000000000000 "v
b000 "r
0u
b00000000000000000000000000000000 D
b00000 e
b0000000 .
b00000 "X
0"k
b00000000000000000000000000000000 p
0Z
b00000000000000000000000000000000 [
b00000000000000000000000000000000 S
b00000000000000000000000000000000 "!
b000 ^
b00000000000000000000000000000000 >
0T
b00000000 {
0"3
b00000 L
0"
b00000000000000000000000000000000 #
b00000000 "V
0"_
09
0"-
1"f
0P
0"'
b00000000000000000000000000000000 "h
0|
0-
b00000000000000000000000000000000 "w
b000000000000 "=
b00000000000000000000000000000000 "E
b00000000000000000000000000000000 "(
0"W
b00000000000000000000000000000000 \
b00000000000000000000000000000000 G
b00000000 "z
0"%
0"Y
b00000000 3
b00000000000000000000000000000000 ",
b00000000000000000000000000000000 ,
b00000 M
b00000 "]
0t
0">
b00000000000000000000000000000000 ";
b00000000000000000000000000000000 C
0B
0n
b00000000000000000000000000000000 =
b00000000000000000000000000000000 "q
b00000000000000000000000000000000 ""
1K
0U
0"I
b00000000000000000000000000000000 N
08
b00000000000000000000000000000000 "m
b00000 E
b00000 "U
0"b
b00000000000000000000000000000000 "J
b00000000000000000000000000000000 g
b00000000000000000000000000000000 R
0"0
b00000000000000000000000000000000 ~
0}
0h
0"\
0"G
b00000 &
0"^
b00000 "K
b00000000000000000000000000000000 c
b00000000000000000000000000000000 "[
b00000000000000000000000000000000 1
b0000000 "6
0y
b00000000000000000000000000000000 z
b00000 q
0*
b00000000000000000000000000000000 +
0"R
b00000 k
0A
0"5
0$
b00000000000000000000000000000000 "n
b00000000000000000000000000000000 %
$end
#0
1-
b00000000000000000000000000000100 c
1@
1"4
1"g
1"C
1"F
1W
1t
1P
1)
#1
1X
18
19
1x
1"-
1I
1"Z
1b
1".
1"d
#6
0X
0"4
0"g
0x
0"-
0"Z
0b
0".
0@
08
0"F
09
0W
0I
0t
0"d
#11
b00000000000000000000000000000100 %
1X
b00000000000000000000000000000100 Y
b00000000000000000000000000000100 S
b00000000000000000000000000000100 "v
1x
1"-
1"Z
1b
1".
b00000000000000000000000000001000 c
b00000000000000000000000000000100 "w
18
19
1I
1"d
#16
b10010011100000010100000000000000 ",
b00000000000000000000000000000100 g
1"$
b00001 "B
15
b10010011100000010100000000000000 ~
b00000000000000000000000000000001 i
b00001011 a
b00100 L
1"<
0"Z
0b
b000000000100 "=
b00000000000000000000000000000001 N
b00000000000000000000000000000001 "q
b0010011 "6
1y
b00001 2
1"7
b001 ]
b00001011 "V
b00000000000000000000000000000100 +
0I
b00011 "9
0"d
b00000000000000000000000000000100 "m
0-
b00001 "e
0X
b00000000000000000000000000000001 C
b00100 v
1"Q
b00011 &
0x
0"-
b00100 "K
0".
b00000000000000000000000000000001 "D
1U
08
b00000000010000001000000110010011 "[
b00000000000000000000000000000001 "1
09
1")
b00000000000000000000000000000001 :
1"*
b001 "r
#21
b00000000000000000000000000000100 Q
b00000000000000000000000000000100 <
b00011 "t
14
b00000000000000000000000000001000 S
b00000000000000000000000000001000 "v
b00000000000000000000000000000101 6
b11111111111111111111111111111101 "n
1b
b00011 M
b00011 "p
b00000000000000000000000000000001 "!
b00001011 d
b001 "j
b001 ^
1I
b00000000000000000000000000000101 ,
1"d
b000000000000000000000000000000000000000000000000000000000000001 `
1X
b00000000000000000000000000000101 =
b00000000000000000000000000000100 (
1"`
1".
b00000000000000000000000000000101 ?
b00000000000000000000000000001000 "w
b00000000000000000000000000010000 s
b00011 k
b00001011 "y
19
b001 "{
b00000000000000000000000000000101 ;
b00001011 3
b00001011 "A
b00000000000000000000000000000001 R
b00000000000000000000000000000100 ";
b00000000000000000000000000000100 "&
1"Z
b00000000000000000000000000001100 c
b00011 "T
b000000000000000000000000000000101 "?
b00000000000000000000000000000101 z
b00000000000000000000000000000001 ""
1"k
b00000000000000000000000000000001 "N
b00011 "P
b00000000000000000000000000001000 %
b00000000000000000000000000001000 Y
1x
1"5
1"-
b00000000000000000000000000000001 p
1!
b00000000000000000000000000000101 "/
1"c
18
b00000000000000000000000000000100 #
b00001011 "z
#26
b00000000000000000000000000000000 ",
b00000000000000000000000000000000 g
0"$
b00000 "B
05
b00000000000000000000000000000000 ~
b00000000000000000000000000000000 i
b00000000 a
b00000 L
0"<
0"Z
0b
b000000000000 "=
b00000000000000000000000000000000 N
b00000000000000000000000000000000 "q
b0000000 "6
0y
b00000 2
0"7
b000 ]
b00000000 "V
b00000000000000000000000000000000 +
0I
b00000 "9
0"d
b00000000000000000000000000000000 "m
1-
b00000 "e
0X
b00000000000000000000000000000000 C
b00000 v
0"Q
b00000 &
0x
0"-
b00000 "K
0".
b00000000000000000000000000000000 "D
0U
08
b00000000000000000000000000000000 "[
b00000000000000000000000000000000 "1
09
0")
b00000000000000000000000000000000 :
0"*
b000 "r
#31
b00000000000000000000000000001000 Q
b00000000000000000000000000000000 <
b00000 "t
04
b00000000000000000000000000001100 S
b00000000000000000000000000001100 "v
b00000000000000000000000000000000 6
b00000000000000000000000000000000 "n
b00011 j
1b
b00000 M
b00000 "p
b00011 "S
b00000000000000000000000000000000 "!
b00000000 d
b00000000000000000000000000000101 G
b000 "j
b00011 "M
b000 ^
1I
b00000000000000000000000000000000 ,
1"d
b000000000000000000000000000000000000000000000000000000000000000 `
1X
b00000000000000000000000000000000 =
b00000000000000000000000000001000 (
0"`
1".
b00011 q
b00000000000000000000000000000000 ?
b00000000000000000000000000001100 "w
1"b
b00000000000000000000000000000000 s
b00000 k
b00000000 "y
19
b000 "{
b00000000000000000000000000000000 ;
1"^
b00000000 3
b00000000 "A
b00000000000000000000000000000000 R
b00000000000000000000000000000000 ";
b00000000000000000000000000000000 "&
1"o
1"Z
1"R
b00000000000000000000000000010000 c
b00000 "T
b000000000000000000000000000000000 "?
b00000000000000000000000000000000 z
b00000000000000000000000000000000 ""
0"k
b00000000000000000000000000000000 "N
b00000000000000000000000000000101 _
1B
b00000 "P
b00000000000000000000000000001100 %
b00000000000000000000000000001100 Y
1x
0"5
1"-
b00000000000000000000000000000000 p
0!
b00000000000000000000000000000000 "/
0"c
18
b00000000000000000000000000001000 #
b00000000 "z
b00011 "]
b00000000000000000000000000000101 "H
b00000000000000000000000000000101 "@
b00000000000000000000000000000101 "+
#36
0X
08
09
0x
0"-
0I
0"Z
0b
0".
0"d
#41
b00000000000000000000000000000101 "s
0"^
1f
b00000000000000000000000000001100 Q
1"W
b00000000000000000000000000010000 S
b00000000000000000000000000010000 "v
b00011 7
0"o
b00000 j
1"Z
1b
0"R
b00000000000000000000000000000101 0
b00000000000000000000000000010100 c
b00000 "S
b00011 "i
b00000000000000000000000000000000 G
b00011 e
b00011 "U
b00000 "M
1I
1|
1A
b00000000000000000000000000000000 _
1"d
0B
1u
1"2
b00000000000000000000000000010000 %
1X
b00000000000000000000000000010000 Y
b00000000000000000000000000000101 D
b00000000000000000000000000000101 w
b00011 E
1x
b00000000000000000000000000000101 "h
1"-
b00000000000000000000000000001100 (
1".
b00000000000000000000000000000101 "a
b00000 q
1r
0"b
b00000000000000000000000000010000 "w
b00011 "x
18
b00000000000000000000000000001100 #
19
b00000 "]
b00000000000000000000000000000000 "H
b00000000000000000000000000000000 "@
b00000000000000000000000000000000 "+
#46
0X
08
09
0x
0"-
0I
0"Z
0b
0".
0"d
#51
0f
b00000000000000000000000000010000 Q
0"W
b00000000000000000000000000000101 J
b00011 "X
b00000000000000000000000000010100 S
b00000000000000000000000000010100 "v
b00000 7
1"Z
1b
b00000000000000000000000000000000 0
b00000000000000000000000000011000 c
b00000 "i
b00000 e
b00000 "U
1I
0|
0A
1"d
0u
0"2
b00000000000000000000000000010100 %
1X
b00000000000000000000000000010100 Y
b00000000000000000000000000000000 D
b00000000000000000000000000000000 w
b00000 E
1x
b00000000000000000000000000000000 "h
1"-
b00000000000000000000000000010000 (
1".
b00000000000000000000000000000000 "a
0r
b00000000000000000000000000010100 "w
b00000 "x
18
b00000000000000000000000000010000 #
19
1m
b00000000000000000000000000000000 "s
#56
0X
08
09
0x
0"-
0I
0"Z
0b
0".
0"d
#61
b00000000000000000000000000010100 Q
b00000000000000000000000000011000 %
1X
b00000000000000000000000000000000 J
b00000000000000000000000000011000 Y
b00000 "X
b00000000000000000000000000011000 S
b00000000000000000000000000011000 "v
1x
1"-
b00000000000000000000000000010100 (
1"Z
1b
1".
b00000000000000000000000000011100 c
b00000000000000000000000000011000 "w
18
b00000000000000000000000000010100 #
19
0m
1I
1"d
#66
0X
08
09
0x
0"-
0I
0"Z
0b
0".
0"d
#71
b00000000000000000000000000011000 Q
b00000000000000000000000000011100 %
1X
b00000000000000000000000000011100 Y
b00000000000000000000000000011100 S
b00000000000000000000000000011100 "v
1x
1"-
b00000000000000000000000000011000 (
1"Z
1b
1".
b00000000000000000000000000100000 c
b00000000000000000000000000011100 "w
18
b00000000000000000000000000011000 #
19
1I
1"d
#76
0X
08
09
0x
0"-
0I
0"Z
0b
0".
0"d
#81
b00000000000000000000000000011100 Q
b00000000000000000000000000100000 %
1X
b00000000000000000000000000100000 Y
b00000000000000000000000000100000 S
b00000000000000000000000000100000 "v
1x
1"-
b00000000000000000000000000011100 (
1"Z
1b
1".
b00000000000000000000000000100100 c
b00000000000000000000000000100000 "w
18
b00000000000000000000000000011100 #
19
1I
1"d
#86
0X
08
09
0x
0"-
0I
0"Z
0b
0".
0"d
#91
b00000000000000000000000000100000 Q
b00000000000000000000000000100100 %
1X
b00000000000000000000000000100100 Y
b00000000000000000000000000100100 S
b00000000000000000000000000100100 "v
1x
1"-
b00000000000000000000000000100000 (
1"Z
1b
1".
b00000000000000000000000000101000 c
b00000000000000000000000000100100 "w
18
b00000000000000000000000000100000 #
19
1I
1"d
#96
0X
08
09
0x
0"-
0I
0"Z
0b
0".
0"d
#101
b00000000000000000000000000100100 Q
b00000000000000000000000000101000 %
1X
b00000000000000000000000000101000 Y
b00000000000000000000000000101000 S
b00000000000000000000000000101000 "v
1x
1"-
b00000000000000000000000000100100 (
1"Z
1b
1".
b00000000000000000000000000101100 c
b00000000000000000000000000101000 "w
18
b00000000000000000000000000100100 #
19
1I
1"d
#106
0X
08
09
0x
0"-
0I
0"Z
0b
0".
0"d
#111
b00000000000000000000000000101000 Q
b00000000000000000000000000101100 %
1X
b00000000000000000000000000101100 Y
b00000000000000000000000000101100 S
b00000000000000000000000000101100 "v
1x
1"-
b00000000000000000000000000101000 (
1"Z
1b
1".
b00000000000000000000000000110000 c
b00000000000000000000000000101100 "w
18
b00000000000000000000000000101000 #
19
1I
1"d
#116
0X
08
09
0x
0"-
0I
0"Z
0b
0".
0"d
#121
b00000000000000000000000000101100 Q
b00000000000000000000000000110000 %
1X
b00000000000000000000000000110000 Y
b00000000000000000000000000110000 S
b00000000000000000000000000110000 "v
1x
1"-
b00000000000000000000000000101100 (
1"Z
1b
1".
b00000000000000000000000000110100 c
b00000000000000000000000000110000 "w
18
b00000000000000000000000000101100 #
19
1I
1"d
#126
b10010011101000010100000010000000 ",
b11111111111111111111100000000100 g
1"$
b00001 "B
b10010011101000010100000010000000 ~
b00000000000000000000000000000001 i
b00001100 a
b00100 L
1"<
0"Z
0b
b100000000100 "=
b00000000000000000000000000000001 N
b00000000000000000000000000000001 "q
b0010011 "6
1y
b00001 2
1"7
b001 ]
b10000000 {
b00001100 "V
b11111111111111111111100000000100 +
0I
b00011 "9
0"d
b11111111111111111111100000000100 "m
0-
b00001 "e
0X
b00000000000000000000000000000001 C
b00100 v
b1000000 .
1"Q
b00011 &
0x
0"-
b00100 "K
0".
b00000000000000000000000000000001 "D
1U
08
b10000000010000001010000110010011 "[
1V
b00000000000000000000000000000001 "1
09
b010 l
1")
b00000000000000000000000000000001 :
1"*
b001 "r
#131
b00001100 3
b00000000000000000000000000110000 Q
b11111111111111111111100000000100 <
b00011 "t
b00001100 "A
14
b00000000000000000000000000000001 R
b00000000000000000000000000110100 S
b00000000000000000000000000110100 "v
b11111111111111111111100000000100 ";
b11111111111111111111100000000100 "&
b00000000000000000000011111111101 "n
1"Z
1b
b00011 M
b00011 "p
b00000000000000000000000000111000 c
b00000000000000000000000000000001 "!
b00011 "T
b011111111111111111111100000000101 "?
b00001100 d
b11111111111111111111100000000101 z
b00000000000000000000000000000001 ""
b001 "j
1"k
b001 ^
b00000000000000000000000000000001 "N
1I
1"d
b000000000000000000000000000000000000000000000000000000000000001 `
b00011 "P
b00000000000000000000000000110100 %
1X
b00000000000000000000000000110100 Y
1x
1"5
b11111111111111111111100000000101 =
1"-
1"`
b00000000000000000000000000110000 (
1".
1!
b11111111111111111111100000000101 ?
b00000000000000000000000000110100 "w
b00000000000000000000000000010000 s
1"c
18
b00011 k
b00000000000000000000000000110000 #
b00001100 "y
19
b00001100 "z
b001 "{
#136
b00000000000000000000000000000000 ",
b00000000000000000000000000000000 g
0"$
b00000 "B
b00000000000000000000000000000000 ~
b00000000000000000000000000000000 i
b00000000 a
b00000 L
0"<
0"Z
0b
b000000000000 "=
b00000000000000000000000000000000 N
b00000000000000000000000000000000 "q
b0000000 "6
0y
b00000 2
0"7
b000 ]
b00000000 {
b00000000 "V
b00000000000000000000000000000000 +
0I
b00000 "9
0"d
b00000000000000000000000000000000 "m
1-
b00000 "e
0X
b00000000000000000000000000000000 C
b00000 v
b0000000 .
0"Q
b00000 &
0x
0"-
b00000 "K
0".
b00000000000000000000000000000000 "D
0U
08
b00000000000000000000000000000000 "[
0V
b00000000000000000000000000000000 "1
09
b000 l
0")
b00000000000000000000000000000000 :
0"*
b000 "r
#141
b00000000000000000000000000110100 Q
b00000000000000000000000000000000 <
b00000 "t
04
b00000000000000000000000000111000 S
b00000000000000000000000000111000 "v
b00000000000000000000000000000000 "n
b00011 j
1b
b00000 M
b00000 "p
b00011 "S
b00000000000000000000000000000000 "!
b00000000 d
b000 "j
b00011 "M
b000 ^
1I
1"d
b000000000000000000000000000000000000000000000000000000000000000 `
1X
b00000000000000000000000000000000 =
b00000000000000000000000000110100 (
0"`
b00011 q
1".
b00000000000000000000000000000000 ?
b00000000000000000000000000111000 "w
1"b
b00000000000000000000000000000000 s
b00000 k
b00000000 "y
19
b000 "{
1"^
b00000000 3
b00000000 "A
b00000000000000000000000000000000 R
b00000000000000000000000000000000 ";
b00000000000000000000000000000000 "&
1"o
1"Z
1"R
b00000000000000000000000000111100 c
b00000 "T
b000000000000000000000000000000000 "?
b00000000000000000000000000000000 z
b00000000000000000000000000000000 ""
0"k
b00000000000000000000000000000000 "N
1B
b00000 "P
b00000000000000000000000000111000 %
b00000000000000000000000000111000 Y
1x
0"5
1"-
0!
0"c
18
b00000000000000000000000000110100 #
b00000000 "z
b00011 "]
#146
0X
08
09
0x
0"-
0I
0"Z
0b
0".
0"d
#151
0"^
1f
b00000000000000000000000000111000 Q
1"W
b00000000000000000000000000111100 S
b00000000000000000000000000111100 "v
b00011 7
0"o
b00000 j
1"Z
1b
0"R
b00000000000000000000000001000000 c
b00000 "S
b00011 "i
b00011 e
b00011 "U
b00000 "M
1I
1|
1A
1"d
0B
1u
1"2
b00000000000000000000000000111100 %
1X
b00000000000000000000000000111100 Y
b00011 E
1x
1"-
b00000000000000000000000000111000 (
1".
b00000 q
1r
0"b
b00000000000000000000000000111100 "w
b00011 "x
18
b00000000000000000000000000111000 #
19
b00000 "]
#156
0X
08
09
0x
0"-
0I
0"Z
0b
0".
0"d
#161
0f
b00000000000000000000000000111100 Q
0"W
b00011 "X
b00000000000000000000000001000000 S
b00000000000000000000000001000000 "v
b00000 7
1"Z
1b
b00000000000000000000000001000100 c
b00000 "i
b00000 e
b00000 "U
1I
0|
0A
1"d
0u
0"2
b00000000000000000000000001000000 %
1X
b00000000000000000000000001000000 Y
b00000 E
1x
1"-
b00000000000000000000000000111100 (
1".
0r
b00000000000000000000000001000000 "w
b00000 "x
18
b00000000000000000000000000111100 #
19
1m
#166
0X
08
09
0x
0"-
0I
0"Z
0b
0".
0"d
#171
b00000000000000000000000001000000 Q
b00000000000000000000000001000100 %
1X
b00000000000000000000000001000100 Y
b00000 "X
b00000000000000000000000001000100 S
b00000000000000000000000001000100 "v
1x
1"-
b00000000000000000000000001000000 (
1"Z
1b
1".
b00000000000000000000000001001000 c
b00000000000000000000000001000100 "w
18
b00000000000000000000000001000000 #
19
0m
1I
1"d
#176
0X
08
09
0x
0"-
0I
0"Z
0b
0".
0"d
#181
b00000000000000000000000001000100 Q
b00000000000000000000000001001000 %
1X
b00000000000000000000000001001000 Y
b00000000000000000000000001001000 S
b00000000000000000000000001001000 "v
1x
1"-
b00000000000000000000000001000100 (
1"Z
1b
1".
b00000000000000000000000001001100 c
b00000000000000000000000001001000 "w
18
b00000000000000000000000001000100 #
19
1I
1"d
#186
0X
08
09
0x
0"-
0I
0"Z
0b
0".
0"d
#191
b00000000000000000000000001001000 Q
b00000000000000000000000001001100 %
1X
b00000000000000000000000001001100 Y
b00000000000000000000000001001100 S
b00000000000000000000000001001100 "v
1x
1"-
b00000000000000000000000001001000 (
1"Z
1b
1".
b00000000000000000000000001010000 c
b00000000000000000000000001001100 "w
18
b00000000000000000000000001001000 #
19
1I
1"d
#196
0X
08
09
0x
0"-
0I
0"Z
0b
0".
0"d
#201
b00000000000000000000000001001100 Q
b00000000000000000000000001010000 %
1X
b00000000000000000000000001010000 Y
b00000000000000000000000001010000 S
b00000000000000000000000001010000 "v
1x
1"-
b00000000000000000000000001001100 (
1"Z
1b
1".
b00000000000000000000000001010100 c
b00000000000000000000000001010000 "w
18
b00000000000000000000000001001100 #
19
1I
1"d
#206
0X
08
09
0x
0"-
0I
0"Z
0b
0".
0"d
#211
b00000000000000000000000001010000 Q
b00000000000000000000000001010100 %
1X
b00000000000000000000000001010100 Y
b00000000000000000000000001010100 S
b00000000000000000000000001010100 "v
1x
1"-
b00000000000000000000000001010000 (
1"Z
1b
1".
b00000000000000000000000001011000 c
b00000000000000000000000001010100 "w
18
b00000000000000000000000001010000 #
19
1I
1"d
#216
0X
08
09
0x
0"-
0I
0"Z
0b
0".
0"d
#221
b00000000000000000000000001010100 Q
b00000000000000000000000001011000 %
1X
b00000000000000000000000001011000 Y
b00000000000000000000000001011000 S
b00000000000000000000000001011000 "v
1x
1"-
b00000000000000000000000001010100 (
1"Z
1b
1".
b00000000000000000000000001011100 c
b00000000000000000000000001011000 "w
18
b00000000000000000000000001010100 #
19
1I
1"d
#226
0X
08
09
0x
0"-
0I
0"Z
0b
0".
0"d
#231
b00000000000000000000000001011000 Q
b00000000000000000000000001011100 %
1X
b00000000000000000000000001011100 Y
b00000000000000000000000001011100 S
b00000000000000000000000001011100 "v
1x
1"-
b00000000000000000000000001011000 (
1"Z
1b
1".
b00000000000000000000000001100000 c
b00000000000000000000000001011100 "w
18
b00000000000000000000000001011000 #
19
1I
1"d
#236
b10010011101100010100000010000000 ",
1"_
b11111111111111111111100000000100 g
1"$
b00001 "B
b10010011101100010100000010000000 ~
b00000000000000000000000000000001 i
b00001101 a
b00100 L
1"<
0"Z
0b
b100000000100 "=
b00000000000000000000000000000001 N
b00000000000000000000000000000001 "q
b0010011 "6
1y
b00001 2
1"7
b001 ]
b10000000 {
b00001101 "V
b11111111111111111111100000000100 +
0I
b00011 "9
0"d
b11111111111111111111100000000100 "m
0-
b00001 "e
0X
b00000000000000000000000000000001 C
b00100 v
b1000000 .
1"Q
b00011 &
0x
0"-
b00100 "K
0".
b00000000000000000000000000000001 "D
1U
08
b10000000010000001011000110010011 "[
b00000000000000000000000000000001 "1
09
b011 l
1")
b00000000000000000000000000000001 :
1"*
b001 "r
#241
b00000000000000000000000001011100 Q
b11111111111111111111100000000100 <
b00011 "t
14
b00000000000000000000000001100000 S
b00000000000000000000000001100000 "v
b00000000000000000000000000000001 6
b00000000000000000000011111111101 "n
1b
b00011 M
b00011 "p
b00000000000000000000000000000001 "!
b00001101 d
b001 "j
b001 ^
1I
b00000000000000000000000000000001 ,
1"d
b000000000000000000000000000000000000000000000000000000000000001 `
1X
b11111111111111111111100000000101 =
b00000000000000000000000001011100 (
1"`
1".
b11111111111111111111100000000101 ?
b00000000000000000000000001100000 "w
b00000000000000000000000000010000 s
b00011 k
b00001101 "y
19
b001 "{
b00000000000000000000000000000001 ;
b00001101 3
b00001101 "A
b00000000000000000000000000000001 R
b11111111111111111111100000000100 ";
b11111111111111111111100000000100 "&
1"Z
b00000000000000000000000001100100 c
b00011 "T
b011111111111111111111100000000101 "?
b11111111111111111111100000000101 z
b00000000000000000000000000000001 ""
1"k
b00000000000000000000000000000001 "N
b00011 "P
b00000000000000000000000001100000 %
b00000000000000000000000001100000 Y
1x
1"5
1"-
1!
b00000000000000000000000000000001 "/
1"c
18
b00000000000000000000000001011100 #
b00001101 "z
