test_run_dir/myc01_core_should_test_jal/myc01_core.vcd
$date
2022-01-30T16:01+0000
$end
$version
0.2
$end
$comment

$end
$timescale 1ns  $end
$scope module myc01_core $end
 $var wire 1 $ wb_stage $end
 $var wire 32 2 io_id_pc $end
 $var wire 1 5 regfile $end
 $var wire 1 > if_stage $end
 $var wire 1 G io_exe_wreg_o $end
 $var wire 32 R io_exe_wd_o $end
 $var wire 32 X io_din $end
 $var wire 5 o io_exe_wa_o $end
 $var wire 32 { io_iaddr $end
 $var wire 1 "G io_dce $end
 $var wire 1 "i ctrl $end
 $var wire 32 "s io_inst $end
 $var wire 1 "t clock $end
 $var wire 1 #' exe_stage $end
 $var wire 1 #6 exemem_reg $end
 $var wire 8 #< io_exe_aluop_o $end
 $var wire 1 #> io_ice $end
 $var wire 4 #B io_we $end
 $var wire 1 #F idexe_reg $end
 $var wire 1 #P memwb_reg $end
 $var wire 1 #` mem_stage $end
 $var wire 1 #f id_stage $end
 $var wire 32 #v io_daddr $end
 $var wire 1 #x reset $end
 $var wire 32 $5 io_dm $end
 $var wire 1 $8 ifid_reg $end
  $scope module ifid_reg $end
   $var wire 32 ' io_id_pc $end
   $var wire 32 . io_if_pc $end
   $var wire 1 i clock $end
   $var wire 32 z pc_reg $end
   $var wire 1 #D reset $end
  $upscope $end
  $scope module mem_stage $end
   $var wire 32 " io_din $end
   $var wire 1 & dwe_temp_0 $end
   $var wire 1 6 inst_lb $end
   $var wire 8 9 io_mem_aluop_i $end
   $var wire 1 K dwe_temp_3 $end
   $var wire 1 f dre_temp_2 $end
   $var wire 32 h io_mem_dreg_o $end
   $var wire 1 r io_dce $end
   $var wire 1 "& inst_sw $end
   $var wire 32 "8 io_daddr $end
   $var wire 1 "9 inst_sh $end
   $var wire 1 "D inst_lhu $end
   $var wire 1 "I dwe_temp_2 $end
   $var wire 1 "P inst_sb $end
   $var wire 1 "o dre_temp_1 $end
   $var wire 1 ## io_load_unsign $end
   $var wire 1 #. dwe_temp_1 $end
   $var wire 1 #3 inst_lbu $end
   $var wire 32 #9 io_mem_wd_i $end
   $var wire 4 #: io_dre $end
   $var wire 5 #L io_mem_wa_o $end
   $var wire 1 #T dre_temp_0 $end
   $var wire 1 #W io_mem_wreg_o $end
   $var wire 5 #X io_mem_wa_i $end
   $var wire 32 #c io_mem_din_i $end
   $var wire 1 #k dre_temp_3 $end
   $var wire 1 #l io_mem_wreg_i $end
   $var wire 1 #n _T $end
   $var wire 4 #o io_dwe $end
   $var wire 1 #u inst_lw $end
   $var wire 1 #} io_mem_mreg_o $end
   $var wire 1 $3 inst_lh $end
   $var wire 1 $; io_mem_mreg_i $end
  $upscope $end
  $scope module memwb_reg $end
   $var wire 1 P clock $end
   $var wire 1 T io_wb_load_unsign $end
   $var wire 1 \ io_mem_mreg $end
   $var wire 1 _ io_wb_wreg $end
   $var wire 1 a io_mem_wreg $end
   $var wire 32 c dreg_reg $end
   $var wire 5 d wa_reg $end
   $var wire 4 u io_wb_dre $end
   $var wire 1 "# unsign_reg $end
   $var wire 5 "3 io_wb_wa $end
   $var wire 1 "6 io_wb_mreg $end
   $var wire 5 "> io_mem_wa $end
   $var wire 1 "B io_mem_load_unsign $end
   $var wire 4 "E io_mem_dre $end
   $var wire 1 "N reset $end
   $var wire 1 "` wreg_reg $end
   $var wire 32 #H io_mem_dreg $end
   $var wire 4 #d dre_reg $end
   $var wire 32 #z io_wb_dreg $end
   $var wire 1 $+ mreg_reg $end
  $upscope $end
  $scope module exe_stage $end
   $var wire 1 * io_exe_mreg_i $end
   $var wire 32 , io_exe_din_o $end
   $var wire 47 0 _GEN_4 $end
   $var wire 32 1 shiftres $end
   $var wire 32 = luiAns $end
   $var wire 8 F io_exe_aluop_o $end
   $var wire 32 H io_exe_din_i $end
   $var wire 47 L arithres $end
   $var wire 32 S io_exe_src2_i $end
   $var wire 32 V xorAns $end
   $var wire 32 W srlAns $end
   $var wire 32 Y addAns $end
   $var wire 32 y sltuAns $end
   $var wire 3 "* io_exe_alutype_i $end
   $var wire 63 ", _GEN_0 $end
   $var wire 32 "J sltAns $end
   $var wire 32 "M sllAns $end
   $var wire 32 "U ret_addr $end
   $var wire 32 "] io_exe_pc_i $end
   $var wire 32 "_ orAns $end
   $var wire 32 "f io_exe_src1_i $end
   $var wire 32 "y io_exe_wd_o $end
   $var wire 44 "{ _GEN_2 $end
   $var wire 32 #- sraAns $end
   $var wire 33 #8 _T $end
   $var wire 32 #A logicres $end
   $var wire 32 #I andAns $end
   $var wire 5 #R io_exe_wa_o $end
   $var wire 5 #Y io_exe_wa_i $end
   $var wire 1 #j io_exe_wreg_o $end
   $var wire 1 #p io_exe_wreg_i $end
   $var wire 32 #y jalAns $end
   $var wire 32 $& subAns $end
   $var wire 1 $- io_exe_mreg_o $end
   $var wire 47 $/ auipcAns $end
   $var wire 8 $> io_exe_aluop_i $end
  $upscope $end
  $scope module wb_stage $end
   $var wire 32 ; io_dm $end
   $var wire 32 B io_wb_dreg_i $end
   $var wire 1 Z io_wb_load_unsign $end
   $var wire 32 "@ data $end
   $var wire 1 "O io_wb_wreg_i $end
   $var wire 4 "V io_wb_dre_i $end
   $var wire 1 #& io_wb_wreg_o $end
   $var wire 1 #U io_wb_mreg_i $end
   $var wire 5 #| io_wb_wa_o $end
   $var wire 32 $2 io_wb_wd_o $end
   $var wire 5 $: io_wb_wa_i $end
  $upscope $end
  $scope module regfile $end
   $var wire 1 4 _GEN_3 $end
   $var wire 1 : _T $end
   $var wire 32 C regs $end
   $var wire 5 E io_ra1 $end
   $var wire 32 Q _GEN_0 $end
   $var wire 1 t io_re2 $end
   $var wire 1 w _GEN_11 $end
   $var wire 1 "" clock $end
   $var wire 32 "' _GEN_8 $end
   $var wire 1 "L io_we $end
   $var wire 32 "n io_rd2 $end
   $var wire 1 #, io_re1 $end
   $var wire 5 #J io_ra2 $end
   $var wire 5 #Z io_wa $end
   $var wire 32 #m io_wd $end
   $var wire 32 $, io_rd1 $end
    $scope module regs $end
      $scope module _T_21 $end
       $var wire 5 M addr $end
       $var wire 32 l pipeline_data_0 $end
       $var wire 1 "0 clk $end
       $var wire 1 "4 en $end
       $var wire 1 "A pipeline_valid_0 $end
       $var wire 32 "Z data $end
       $var wire 1 #] valid $end
       $var wire 5 #_ pipeline_addr_0 $end
       $var wire 1 #t mask $end
      $upscope $end
      $scope module _T_7 $end
       $var wire 32 b data $end
       $var wire 1 } en $end
       $var wire 1 "u clk $end
       $var wire 5 #r addr $end
      $upscope $end
      $scope module _T_16 $end
       $var wire 5 p addr $end
       $var wire 1 "\ clk $end
       $var wire 1 "^ en $end
       $var wire 32 #$ data $end
      $upscope $end
    $upscope $end
  $upscope $end
  $scope module id_stage $end
   $var wire 1 ! inst_lw $end
   $var wire 1 % imm_shamt $end
   $var wire 5 ( rs2 $end
   $var wire 1 ) inst_sra $end
   $var wire 32 3 io_jump_addr $end
   $var wire 7 < func7 $end
   $var wire 1 @ io_exe2id_wreg $end
   $var wire 1 D inst_lh $end
   $var wire 1 J inst_addi $end
   $var wire 1 N inst_srai $end
   $var wire 1 [ inst_srli $end
   $var wire 1 ] inst_slli $end
   $var wire 1 ` inst_bgeu $end
   $var wire 1 e id_alutype_temp_2 $end
   $var wire 1 g inst_add $end
   $var wire 5 j rd $end
   $var wire 1 k inst_beq $end
   $var wire 1 n imm_Stype $end
   $var wire 32 q io_id_src1_o $end
   $var wire 1 | inst_srl $end
   $var wire 1 ~ inst_slti $end
   $var wire 32 ") io_rd2 $end
   $var wire 1 "1 inst_bge $end
   $var wire 32 "5 imm_ext $end
   $var wire 1 "7 io_rreg2 $end
   $var wire 1 "; inst_sb $end
   $var wire 3 "? func3 $end
   $var wire 1 "C inst_lhu $end
   $var wire 1 "F id_alutype_temp_1 $end
   $var wire 1 "H inst_sltu $end
   $var wire 21 "Q imm_J $end
   $var wire 12 "R imm_S $end
   $var wire 32 "S io_id_pc_i $end
   $var wire 1 "W inst_lbu $end
   $var wire 5 "X io_ra2 $end
   $var wire 1 "Y inst_sw $end
   $var wire 1 "[ inst_sh $end
   $var wire 1 "a inst_and $end
   $var wire 1 "b inst_lui $end
   $var wire 32 "c io_id_inst_i $end
   $var wire 5 "g io_exe2id_wa $end
   $var wire 1 "h inst_xori $end
   $var wire 1 "j inst_blt $end
   $var wire 1 "k inst_sub $end
   $var wire 1 "m inst_sll $end
   $var wire 1 "q io_rreg1 $end
   $var wire 1 "v io_jump_flag $end
   $var wire 32 "w io_exe2id_wd $end
   $var wire 32 "x io_id_pc_o $end
   $var wire 1 "z io_id_hold_i $end
   $var wire 1 "} io_mem2id_wreg $end
   $var wire 1 "~ inst_or $end
   $var wire 1 #) imm_Utype $end
   $var wire 7 #+ opcode $end
   $var wire 5 #/ io_id_wa_o $end
   $var wire 1 #0 inst_xor $end
   $var wire 1 #2 io_id_wreg_o $end
   $var wire 12 #4 imm_I $end
   $var wire 32 #5 io_id_din_o $end
   $var wire 1 #7 inst_auipc $end
   $var wire 1 #; imm_Itype $end
   $var wire 5 #= io_ra1 $end
   $var wire 32 #? io_rd1 $end
   $var wire 20 #@ imm_U $end
   $var wire 1 #G inst_ori $end
   $var wire 1 #K inst_andi $end
   $var wire 2 #Q fwrd_reg2 $end
   $var wire 1 #S id_alutype_temp_0 $end
   $var wire 1 #V io_id_mreg_o $end
   $var wire 32 #[ io_mem2id_wd $end
   $var wire 8 #\ io_id_aluop_o $end
   $var wire 1 #^ imm_Jtype $end
   $var wire 32 #e id_inst $end
   $var wire 1 #i inst_sltiu $end
   $var wire 1 #w inst_bltu $end
   $var wire 5 #{ io_mem2id_wa $end
   $var wire 2 $! fwrd_reg1 $end
   $var wire 1 $% inst_slt $end
   $var wire 32 $' io_id_src2_o $end
   $var wire 3 $. io_id_alutype_o $end
   $var wire 1 $0 inst_bne $end
   $var wire 1 $4 inst_lb $end
  $upscope $end
  $scope module idexe_reg $end
   $var wire 1 # wreg_reg $end
   $var wire 32 + io_id_pc $end
   $var wire 5 / io_id_wa $end
   $var wire 32 7 io_id_src2 $end
   $var wire 1 A io_exe_mreg $end
   $var wire 32 U io_exe_din $end
   $var wire 32 s pc_reg $end
   $var wire 1 "! reset $end
   $var wire 3 "( io_id_alutype $end
   $var wire 8 ". io_id_aluop $end
   $var wire 8 "2 aluop_reg $end
   $var wire 32 ": io_exe_pc $end
   $var wire 32 "< io_id_src1 $end
   $var wire 5 "= io_exe_wa $end
   $var wire 1 "T mreg_reg $end
   $var wire 32 "d src1_reg $end
   $var wire 32 "l io_exe_src2 $end
   $var wire 1 "p io_id_wreg $end
   $var wire 1 #! io_id_mreg $end
   $var wire 32 #1 src2_reg $end
   $var wire 32 #O io_exe_src1 $end
   $var wire 1 #b clock $end
   $var wire 3 $" alutype_reg $end
   $var wire 1 $# io_exe_wreg $end
   $var wire 32 $$ din_reg $end
   $var wire 5 $* wa_reg $end
   $var wire 32 $1 io_id_din $end
   $var wire 8 $= io_exe_aluop $end
   $var wire 3 $? io_exe_alutype $end
  $upscope $end
  $scope module exemem_reg $end
   $var wire 32 8 io_exe_wd $end
   $var wire 1 I io_mem_mreg $end
   $var wire 1 O clock $end
   $var wire 32 v io_exe_din $end
   $var wire 1 x mreg_reg $end
   $var wire 32 "+ io_mem_wd $end
   $var wire 8 "- io_mem_aluop $end
   $var wire 5 "K io_mem_wa $end
   $var wire 32 "r wd_reg $end
   $var wire 32 #" io_mem_din $end
   $var wire 1 #( reset $end
   $var wire 1 #* io_exe_wreg $end
   $var wire 1 #a io_exe_mreg $end
   $var wire 5 #g wa_reg $end
   $var wire 1 #h wreg_reg $end
   $var wire 8 #~ aluop_reg $end
   $var wire 32 $( din_reg $end
   $var wire 1 $) io_mem_wreg $end
   $var wire 5 $6 io_exe_wa $end
   $var wire 8 $< io_exe_aluop $end
  $upscope $end
  $scope module ctrl $end
   $var wire 1 - reset $end
   $var wire 1 #% hold_flag_reg $end
   $var wire 1 #C clock $end
   $var wire 1 #M io_hold_flag_exe $end
   $var wire 1 #s io_jump_flag $end
  $upscope $end
  $scope module if_stage $end
   $var wire 1 ? io_jump_flag $end
   $var wire 1 ^ reset $end
   $var wire 1 m io_ice $end
   $var wire 32 "$ io_pc $end
   $var wire 33 "% _T $end
   $var wire 32 "/ _GEN_0 $end
   $var wire 32 "e io_jump_addr $end
   $var wire 32 "| pc_next $end
   $var wire 1 #E ice_reg $end
   $var wire 32 #N pc_plus4 $end
   $var wire 1 #q clock $end
   $var wire 32 $7 pc_reg $end
   $var wire 32 $9 io_iaddr $end
  $upscope $end
$upscope $end
$enddefinitions $end
$dumpvars
0#D
0$%
0"1
b00000000000000000000000000000000 $,
b00000000000000000000000000000000 "U
b00000000000000000000000000000000 "M
0"P
b00000 "=
b00000000000000000000000000000000 "8
0"v
0#W
0$8
0m
b00000000000000000000000000000000 Q
b000000000000000000000000000000000 #8
b000000000000000000000000000000000 "%
0~
0#S
0$4
b00000000000000000000000000000000 b
0a
b00000 #|
0#!
0D
0"#
b00000000000000000000000000000000 "y
0$0
b00000000000000000000000000000000 s
b000 "(
0]
0#2
b00000 j
0r
0@
b00000000000000000000000000000000 $7
b00000000000000000000000000000000 #9
b00000000000000000000000000000000 #$
b00000000 #<
0#w
0#b
0#M
b00000000000000000000000000000000 q
0#E
0"O
0#0
0>
0#s
0"}
0#^
b00000 (
0"`
0#,
0O
0"C
b00000000000000000000000000000000 #z
b00000000000000000000000000000000 #e
0:
b00000000000000000000000000000000 3
b00000000000000000000000000000000 #H
b00000000000000000000000000000000 "5
b0000 #o
0`
b00000 #{
b00000000000000000000000000000000 #v
b00000000000000000000000000000000 "c
0?
b00000 #Z
0"o
0#P
b00000 #=
b00000000000000000000000000000000000000000000000 0
b00000000000000000000000000000000 B
0#a
b00000 "X
b00000000000000000000000000000000 "S
0"k
0Z
b000000000000000000000 "Q
0"N
b00000000000000000000000000000000 S
0$-
0"9
0k
0N
b00000000000000000000000000000000 #y
b00000000000000000000000000000000 2
0"~
b00000000000000000000000000000000 "f
b00000000000000000000000000000000 $(
b00000 #L
0|
0J
0#p
b00000000000000000000000000000000 "w
b00000000000000000000000000000000 $9
b00000000000000000000000000000000 $$
b00000000000000000000000000000000 .
0#>
0-
b00000 "g
0"z
b00000000 $<
b00000000000000000000000000000000 #?
b00000000000000000000000000000000 {
0"Y
b00000000000000000000000000000000000000000000000 L
b00000000000000000000000000000000 #"
b00000000000000000000 #@
b00000000000000000000000000000000 "$
b00000000000000000000000000000000 ,
0#`
0n
0#.
b00000000000000000000000000000000 =
b00000000000000000000000000000000 #5
0"I
0#*
b00000000000000000000000000000000 #c
b00000000000000000000000000000000 #N
b00000 E
0#
b00000000000000000000000000000000 "e
b00000000000000000000000000000000 #1
b00000000000000000000000000000000 $'
1#t
0$;
0}
0"q
0$3
0"\
0"G
0K
0#(
b000000000000000000000000000000000000000000000000000000000000000 ",
0#k
b00000 #X
b00000000 "2
b00000000000000000000000000000000 z
0"m
0\
b00000000000000000000000000000000 H
0";
0"&
0G
b00000000000000000000000000000000 +
0*
b00000000000000000000000000000000 "_
b00000000000000000000000000000000 Y
0"L
0"7
0""
b00000000000000000000000000000000 '
b00000000000000000000000000000000 $2
0&
b00000 #g
b00000 #J
b00000000000000000000000000000000 "d
b00000000000000000000000000000000 $&
b00000000000000000000000000000000 l
0#]
0$)
b0000 #:
b000 $.
0#n
b00000000000000000000000000000000 #A
b00000000000000000000000000000000 h
0g
0"F
0#'
b00000 "3
05
0"[
b00000000000000000000000000000000000000000000000 $/
b00000000 9
0x
b00000 p
0[
b00000 #Y
b00000 $:
b00000000000000000000000000000000 "s
b00000000000000000000000000000000 $5
0#l
0)
b00000 #r
b00000 d
b00000000000000000000000000000000 ;
0#}
b00000 $6
0#h
b00000000000000000000000000000000 $1
0"j
0#K
0#6
0%
06
0!
0#G
b00000 ">
b00000000000000000000000000000000 V
0"4
0f
0#;
0#&
b0000 "E
0I
04
b00000000000000000000000000000000 #-
b00000000000000000000000000000000 "/
0#i
0w
0#7
b0000 "V
b00000 o
b00000000000000000000000000000000 #[
0"u
0#V
b00000000000000000000000000000000 "r
b00000000000000000000000000000000 "]
b00000000000000000000000000000000 "@
b00000000000000000000000000000000 "+
b00000000 ".
0"i
0$+
0"T
b00000000000000000000000000000000 "<
b00000000000000000000000000000000 "'
0#x
0#F
0i
b00000000000000000000000000000000 U
0T
0"H
0#)
b00000000000000000000000000000000 8
b00000 #R
b00000000000000000000000000000000 "l
b00000 /
b00000000000000000000000000000000 ":
0"a
b0000 #B
0e
0$#
0"D
0#%
b00000 #/
0P
b00000000000000000000000000000000 #I
b00000000 #~
b000 $?
b00000 #_
b000 $"
0#j
0"t
0#U
b00000000000000000000000000000000 y
0"W
0"B
0##
b00000000000000000000000000000000000000000000 "{
b0000 #d
b00000000 $>
b00000 M
0#f
0"p
b0000 u
b000 "?
b00000000 "-
0"h
b000 "*
b00000000000000000000000000000000 X
b00000000000000000000000000000000 C
0"6
0"!
b000000000000 "R
b00000000000000000000000000000000 #m
0t
b00000000000000000000000000000000 "Z
0_
b0000000 #+
b00000000 F
b00000000000000000000000000000000 7
b00000000000000000000000000000000 "
b00 $!
0#u
b00000000000000000000000000000000 "|
0"b
0#C
b00000000000000000000000000000000 "J
b00000000000000000000000000000000 R
0"0
b0000000 <
b00 #Q
0#q
b00000000000000000000000000000000 "x
b000000000000 #4
b00000 $*
0#T
0"^
b00000 "K
b00000000000000000000000000000000 c
0"A
b00000000000000000000000000000000 ")
b00000000000000000000000000000000 1
b00000000 #\
b00000000 $=
0^
0#3
b00000000000000000000000000000000 W
0A
0$
b00000000000000000000000000000000 "n
b00000000000000000000000000000000 #O
b00000000000000000000000000000000 v
$end
#0
b00000000000000000000000000000100 #N
1-
b00000000000000000000000000000100 #y
14
b000000000000000000000000000000100 "%
1w
b00000000000000000000000000000100 "|
1"!
1#D
1#(
1:
1"N
1^
1#x
#1
1"t
1#C
1"0
1"u
1""
1"\
1i
1O
1#b
1#q
1P
#6
0-
0"t
0"u
0i
0#C
0"!
0"0
0#D
0""
0"\
0#(
0O
0^
0"N
0#b
0#q
0P
0#x
#11
1"t
1"u
1i
b00000000000000000000000000000100 "/
1#C
1"0
1""
1"\
1O
1m
1#b
1#q
1#>
1P
1#E
#16
0"t
0#C
0"0
0"u
0""
0"\
0i
0O
0#b
0#q
0P
#21
b00000000000000000000000000001000 #N
1"t
b00000000000000000000000000000100 "$
b00000000000000000000000000000100 .
1"u
b00000000000000000000000000000100 $7
b000000000000000000000000000001000 "%
b00000000000000000000000000001000 "|
1i
b00000000000000000000000000000100 $9
1#C
b00000000000000000000000000001000 "/
1"0
1""
1"\
b00000000000000000000000000000100 {
1O
1#b
1#q
1P
#26
b00101 #r
b00000000000000000000000000000100 Q
0"t
b00000000011000101001 #@
b11 $!
1}
1"v
1$0
b11110000000000000000000011111111 "n
b00000000000000000000000000000100 "<
b01000 j
b11110000000000000000000011111111 "'
b00000000000000000000000000000100 b
b11 #Q
b000000000110 #4
b00000000000000000000000000000100 $,
0#b
b000101001000000000110 "Q
b00101 E
b00110 (
1#,
b00100000 ".
b00000000000000000000000000000100 q
1?
0#C
0"0
0"\
b00101 #=
0#q
b00100000 #\
0P
b01100011100101000110001000000000 "s
1"^
b00000000000000000000000000000100 #?
1#s
0"u
b00110 "X
b11110000000000000000000011111111 #$
0i
b11110000000000000000000011111111 7
b11110000000000000000000011111111 $1
b01000 /
b000000001000 "R
1"q
b00110 #J
b11110000000000000000000011111111 #5
b001 "?
1"7
0""
b01000 #/
1t
b11110000000000000000000011111111 $'
b00000000011000101001010001100011 #e
b00000000000000000000000000000000 "|
b1100011 #+
b00110 p
b00000000000000000000000000000000 "/
b01100011100101000110001000000000 "c
b11110000000000000000000011111111 ")
0O
0:
#31
b11110000000000000000000011111111 S
0"v
b00000 j
b00000000000000000000000000000000 b
b00 #Q
1"p
b000000000000 #4
b00000000000000000000000000000100 "S
b00000000000000000000000000000001 y
b00000000000000000000000000000000 $,
b00000000000000000000000000000000 {
1#b
1#M
b11110000000000000000000011111111 "l
b11110000000000000000000011111111 ,
b00000000000000000000000000000100 "d
b00001111111111111111111100000101 $&
b001 $.
b00100000 "2
b00000000000000000000000000000100 "f
1#C
b11110000000000000000000011111111 $$
b001 "(
1#q
b11110000000000000000000011111111000000000000 "{
b00100000 $=
b00001011 #\
0"^
b00000000000000000000000000000000 #?
b000000000000000000000000000000000000000000000000000000000000100 ",
1"u
1J
b00000000000000000000000000000000 $7
b00000 "X
b00000000000000000000000000000000 #$
b00000000000000000000000000000000 $1
1#;
b01000 "=
b00100000 F
b00000 #J
b00000000000000000000000000000000 #5
b000 "?
0"7
1""
b00000000000000000000000000000100 +
b00000 #/
b00011110000000000000000000011111111000000000000 $/
b00000000000000000000000000000100 #N
b11110000000000000000000011111111 v
b00000000000000000000000000010011 #e
b11110000000000000000000100000011 Y
b00000000000000000000000000000100 '
b11110000000000000000000011111111 U
b01000 #Y
b00000000000000000000000000000100 "x
1O
1:
1#S
b00000 #r
b00000000000000000000000000000000 Q
1"t
b01000 $6
b11110000000000000000000011111111 "_
b00000000000000000000 #@
b011110000000000000000000100000011 #8
0}
b000000000000000000000000000000100 "%
b00000000000000000000000000000100 #O
0$0
b00000000000000000000000000000000 "n
b00000000000000000000000000000000 "<
b00000000000000000000000000000000 "'
b00000000000000000000000000000100 2
b00000000000000000000000000000000 .
b000000000000000000000 "Q
1#2
b01000 o
b00000 E
b01000 $*
b00000000000011111111000000000000 =
b00000000000000000000000000000100 #I
b00000 (
b00001011 ".
b00000000000000000000000000000000 q
0?
b00000000000000000000000000000000 $9
1"0
b11110000000000000000000011111011 V
1"\
b00000 #=
1P
b00000000000000000000000000000100 3
0#s
b00000000000000000000000000000000 "$
1i
b00000000000000000000000000000000 7
b00000 /
b000000000000 "R
b01000 #R
b00000000000000000000000000000100 z
b11110000000000000000000011111111 H
0t
b00000000000000000000000000000000 $'
b11110000000000000000000011111111 #1
b00000000000000000000000000000100 "e
b00100000 $>
b01000 "g
b00000000000000000000000000000100 "|
b0010011 #+
b00000 p
1#%
b00000000000000000000000000000100 "/
b00100000 #<
b00000000000000000000000000000000 ")
b00100000 $<
1"z
#36
0"t
0#C
0"0
0"u
b00010011000001000000000100000001 "c
0""
0"\
0i
0O
0#b
0#q
0P
b00010011000001000000000100000001 "s
#41
b00000000000000000000000000000000 S
b01000 j
b00000000000000000000000000000010 b
b00000000000000000000000000000000000000000000100 0
b000000010000 #4
b01000 ">
b00000000000000000000000000000000 "S
b00000000000000000000000000000000 y
1G
b00000000000000000000000000000010 $,
b00000000000000000000000000000100 {
1#b
0#M
b00000000000000000000000000000000 "l
b00000000000000000000000000000000 ,
b00000000000000000000000000000000 "d
b00000000000000000000000000000000 $&
b00000000000000000000000000000100 ":
b00001011 "2
b00000000000000000000000000001000 #y
b11110000000000000000000011111111 $(
b00000000000000000000000000000000 "f
1#*
1#C
b00000000000000000000000000000000 $$
1#q
b00000000000000000000000000000000000000000000 "{
b00001011 $=
1"^
b00000000000000000000000000000010 #?
b000000000000000000000000000000000000000000000000000000000000000 ",
1"u
b00000000000000000000000000000100 $7
b10000 "X
b00000000000000000000000000000001 #$
b00000 "=
b01000 #g
b00001011 F
b10000 #J
1""
b00000000000000000000000000000000 +
b01000 #/
b00000000000000000000000000000000000000000000100 $/
b00000000000000000000000000001000 #N
b00000000000000000000000000000000 v
b00000001000000010000010000010011 #e
b00000000000000000000000000000000 Y
b00000000000000000000000000000000 '
b00100000 "-
b00000000000000000000000000000000 U
1@
b00000 #Y
b00000000000000000000000000000000 "x
1#
1#p
1O
0:
b00000000000000000000000000000100 "]
b00010 #r
b00000000000000000000000000000010 Q
1#j
1"t
b00000 $6
b00000000000000000000000000000000 "_
b00000001000000010000 #@
b000000000000000000000000000000000 #8
1}
b000000000000000000000000000001000 "%
b00000000000000000000000000000000 #O
b00000000000000000000000000000010 "<
b00000000000000000000000000000000 2
b00000000000000000000000000000100 .
b000010000000000010000 "Q
b01000 #{
b00000 o
b00010 E
b001 $?
b00000 $*
b00000000000000000000000000000000 =
b00000000000000000000000000000000 #I
b001 $"
b01000 "K
b10000 (
b00000000000000000000000000000010 q
b01000 #X
b00000000000000000000000000000100 $9
1"0
b00000000000000000000000000000100 s
b00000000000000000000000000000000 V
b00100000 9
1"\
b00010 #=
b001 "*
1P
b00000000000000000000000000010000 3
b11110000000000000000000011111111 #"
b00000000000000000000000000000100 "$
1i
b00000000000000000000000000010000 7
b01000 /
b000000001000 "R
b00000 #R
b00000000000000000000000000000000 z
b00100000 #~
b00000000000000000000000000000000 H
b01000 #L
b11110000000000000000000011111111 #c
b00000000000000000000000000010000 $'
b00000000000000000000000000000000 #1
b00000000000000000000000000010000 "e
b00001011 $>
b00000 "g
b00000000000000000000000000001000 "|
b00000000000000000000000000010000 "5
b10000 p
1$#
0#%
b00000000000000000000000000001000 "/
b00001011 #<
b00001011 $<
0"z
#46
b00101 #r
b00000000000000000000000000000100 Q
0"t
b00000000011000101000 #@
b11 $!
1}
b11110000000000000000000011111111 "n
b00000000000000000000000000000100 "<
b01000 j
b11110000000000000000000011111111 "'
b00000000000000000000000000000100 b
0"p
b11 #Q
b000000000110 #4
b00000000000000000000000000000100 $,
0#b
b000 $.
0#2
b000101000000000000110 "Q
b00101 E
b00110 (
1#,
b00011111 ".
b00000000000000000000000000000100 q
0#C
0"0
b000 "(
1k
0"\
b00101 #=
0#q
b00011111 #\
0P
b01100011100001000110001000000000 "s
1"^
b00000000000000000000000000000000 3
b00000000000000000000000000000100 #?
0"u
0J
b00110 "X
b11110000000000000000000011111111 #$
0i
b11110000000000000000000011111111 7
b11110000000000000000000011111111 $1
0#;
b01000 /
b000000001000 "R
1"q
b00110 #J
b11110000000000000000000011111111 #5
1"7
0""
b01000 #/
1t
b00000000000000000000000000000000 "e
b11110000000000000000000011111111 $'
b00000000011000101000010001100011 #e
b1100011 #+
b00000000000000000000000000000000 "5
b00110 p
b01100011100001000110001000000000 "c
b11110000000000000000000011111111 ")
0O
0:
0#S
#51
0#j
1"t
b01000 $6
b11110000000000000000000011111111 "_
b011110000000000000000000100000011 #8
b000000000000000000000000000001100 "%
b11110000000000000000000011111111 S
1#l
1#W
b00000000000000000000000000000100 #O
b01000 M
b00000000000000000000000000000000000000000000000 0
b00000000000000000000000000000100 "S
b00000 ">
b00000000000000000000000000000001 y
b01000 d
1#h
0G
b00000000000000000000000000000100 2
b00000000000000000000000000001000 {
1#b
b11110000000000000000000011111111 "l
b11110000000000000000000011111111 ,
b00000000000000000000000000000100 "d
b00001111111111111111111100000101 $&
b00000000000000000000000000000000 ":
b00011111 "2
b00000000000000000000000000000100 #y
b00000000000000000000000000001000 .
b00000000000000000000000000000000 $(
b00000000000000000000000000000100 "f
0#*
b00000 #{
b01000 o
b000 $?
b01000 $*
b00000000000011111111000000000000 =
b00000000000000000000000000000100 #I
b000 $"
b00000 "K
1"}
b00000 #X
1#C
b11110000000000000000000011111111 $$
b00000000000000000000000000001000 $9
1"0
b00000000000000000000000000000000 s
b11110000000000000000000011111011 V
b01000 #Z
b00001011 9
1"\
b000 "*
1#q
b11110000000000000000000011111111000000000000 "{
1P
b00011111 $=
b00000000000000000000000000000100 3
b00000000000000000000000000000000 #"
b000000000000000000000000000000000000000000000000000000000000100 ",
b00000000000000000000000000001000 "$
1"u
b00000000000000000000000000001000 $7
1i
1a
b01000 "=
b00000 #g
b01000 #R
b00011111 F
b00000000000000000000000000000100 z
1""
b00001011 #~
b11110000000000000000000011111111 H
b00000 #L
b00000000000000000000000000000100 +
b00000000000000000000000000000000 #c
b00011110000000000000000000011111111000000000000 $/
b00000000000000000000000000001100 #N
b00000000000000000000000000000100 "e
b11110000000000000000000011111111 #1
b01000 "3
b11110000000000000000000011111111 v
b11110000000000000000000100000011 Y
b00011111 $>
1$)
b01000 "g
b00000000000000000000000000000100 '
b00000000000000000000000000001100 "|
b01000 #|
b00001011 "-
0$#
b00000000000000000000000000001100 "/
b11110000000000000000000011111111 U
0@
b01000 $:
b01000 #Y
b00000000000000000000000000000100 "x
0#
b00011111 #<
0#p
b00011111 $<
1O
b00000000000000000000000000000000 "]
#56
b00010 #r
b00000000000000000000000000000010 Q
0"t
b00000001000000010000 #@
b11 $!
1}
b00000000000000000000000000000000 "n
b00000000000000000000000000000010 "<
b00000000000000000000000000000000 "'
b01000 j
b00000000000000000000000000000010 b
b00 #Q
1"p
b000000010000 #4
b00000000000000000000000000000010 $,
0#b
b001 $.
b000010000000000010000 "Q
1#2
b00010 E
b10000 (
1#,
b00001011 ".
b00000000000000000000000000000010 q
0#C
0"0
0k
b001 "(
0"\
b00010 #=
0#q
b00001011 #\
0P
b00010011000001000000000100000001 "s
1"^
b00000000000000000000000000000010 #?
b00000000000000000000000000010100 3
0"u
1J
b10000 "X
b00000000000000000000000000000001 #$
0i
b00000000000000000000000000010000 7
b00000000000000000000000000000000 $1
1#;
b01000 /
b000000001000 "R
1"q
b10000 #J
b00000000000000000000000000000000 #5
0"7
0""
b01000 #/
0t
b00000000000000000000000000010000 $'
b00000000000000000000000000010100 "e
b00000001000000010000010000010011 #e
b0010011 #+
b00000000000000000000000000010000 "5
b10000 p
b00010011000001000000000100000001 "c
b00000000000000000000000000000000 ")
0O
0:
1#S
