test_run_dir/myc01_core_should_test_Rtype_sllisrai/myc01_core.vcd
$date
2022-01-18T03:28+0000
$end
$version
0.2
$end
$comment

$end
$timescale 1ns  $end
$scope module myc01_core $end
 $var wire 1 " wb_stage $end
 $var wire 32 * io_id_pc $end
 $var wire 1 , regfile $end
 $var wire 1 1 if_stage $end
 $var wire 1 7 io_exe_wreg_o $end
 $var wire 32 ? io_exe_wd_o $end
 $var wire 5 S io_exe_wa_o $end
 $var wire 32 Y io_iaddr $end
 $var wire 32 "3 io_inst $end
 $var wire 1 "4 clock $end
 $var wire 1 "< exe_stage $end
 $var wire 1 "G exemem_reg $end
 $var wire 8 "J io_exe_aluop_o $end
 $var wire 1 "L io_ice $end
 $var wire 1 "P idexe_reg $end
 $var wire 1 "X memwb_reg $end
 $var wire 1 "d mem_stage $end
 $var wire 1 "g id_stage $end
 $var wire 1 "r reset $end
 $var wire 1 #$ ifid_reg $end
  $scope module ifid_reg $end
   $var wire 32 $ io_id_pc $end
   $var wire 32 ' io_if_pc $end
   $var wire 1 O clock $end
   $var wire 32 X pc_reg $end
   $var wire 1 "O reset $end
  $upscope $end
  $scope module mem_stage $end
   $var wire 32 M io_mem_dreg_o $end
   $var wire 32 "I io_mem_wd_i $end
   $var wire 5 "V io_mem_wa_o $end
   $var wire 1 "\ io_mem_wreg_o $end
   $var wire 5 "] io_mem_wa_i $end
   $var wire 1 "m io_mem_wreg_i $end
  $upscope $end
  $scope module memwb_reg $end
   $var wire 1 = clock $end
   $var wire 1 G io_wb_wreg $end
   $var wire 1 H io_mem_wreg $end
   $var wire 32 J dreg_reg $end
   $var wire 5 K wa_reg $end
   $var wire 5 k io_wb_wa $end
   $var wire 5 p io_mem_wa $end
   $var wire 1 z reset $end
   $var wire 1 "$ wreg_reg $end
   $var wire 32 "Q io_mem_dreg $end
   $var wire 32 "s io_wb_dreg $end
  $upscope $end
  $scope module exe_stage $end
   $var wire 32 ) shiftres $end
   $var wire 8 6 io_exe_aluop_o $end
   $var wire 32 9 arithres $end
   $var wire 32 @ io_exe_src2_i $end
   $var wire 32 A xorAns $end
   $var wire 32 B srlAns $end
   $var wire 32 C addAns $end
   $var wire 32 W sltuAns $end
   $var wire 3 b io_exe_alutype_i $end
   $var wire 63 f _GEN_0 $end
   $var wire 32 v sltAns $end
   $var wire 32 y sllAns $end
   $var wire 32 "" orAns $end
   $var wire 32 "( io_exe_src1_i $end
   $var wire 32 "7 io_exe_wd_o $end
   $var wire 32 "A sraAns $end
   $var wire 33 "H _T $end
   $var wire 32 "N logicres $end
   $var wire 32 "R andAns $end
   $var wire 5 "Y io_exe_wa_o $end
   $var wire 5 "^ io_exe_wa_i $end
   $var wire 1 "k io_exe_wreg_o $end
   $var wire 1 "n io_exe_wreg_i $end
   $var wire 32 "z subAns $end
   $var wire 8 #( io_exe_aluop_i $end
  $upscope $end
  $scope module wb_stage $end
   $var wire 32 3 io_wb_dreg_i $end
   $var wire 1 { io_wb_wreg_i $end
   $var wire 1 "; io_wb_wreg_o $end
   $var wire 5 "u io_wb_wa_o $end
   $var wire 32 #" io_wb_wd_o $end
   $var wire 5 #' io_wb_wa_i $end
  $upscope $end
  $scope module regfile $end
   $var wire 1 + _GEN_3 $end
   $var wire 1 / _T $end
   $var wire 32 4 regs $end
   $var wire 5 5 io_ra1 $end
   $var wire 32 > _GEN_0 $end
   $var wire 1 U io_re2 $end
   $var wire 1 V _GEN_11 $end
   $var wire 1 ^ clock $end
   $var wire 32 a _GEN_8 $end
   $var wire 1 x io_we $end
   $var wire 32 "/ io_rd2 $end
   $var wire 1 "@ io_re1 $end
   $var wire 5 "T io_ra2 $end
   $var wire 5 "_ io_wa $end
   $var wire 32 "l io_wd $end
   $var wire 32 "~ io_rd1 $end
    $scope module regs $end
      $scope module _T_21 $end
       $var wire 5 : addr $end
       $var wire 32 P pipeline_data_0 $end
       $var wire 1 h clk $end
       $var wire 1 l en $end
       $var wire 1 s pipeline_valid_0 $end
       $var wire 32 } data $end
       $var wire 1 "b valid $end
       $var wire 5 "c pipeline_addr_0 $end
       $var wire 1 "q mask $end
      $upscope $end
      $scope module _T_7 $end
       $var wire 32 I data $end
       $var wire 1 [ en $end
       $var wire 1 "5 clk $end
       $var wire 5 "p addr $end
      $upscope $end
      $scope module _T_16 $end
       $var wire 5 R addr $end
       $var wire 1 ~ clk $end
       $var wire 1 "! en $end
       $var wire 32 ": data $end
      $upscope $end
    $upscope $end
  $upscope $end
  $scope module id_stage $end
   $var wire 1 # imm_shamt $end
   $var wire 5 % rs2 $end
   $var wire 1 & inst_sra $end
   $var wire 7 0 func7 $end
   $var wire 1 2 io_exe2id_wreg $end
   $var wire 1 8 inst_addi $end
   $var wire 1 ; inst_srai $end
   $var wire 1 D inst_srli $end
   $var wire 1 E inst_slli $end
   $var wire 1 L id_alutype_temp_2 $end
   $var wire 1 N inst_add $end
   $var wire 32 T io_id_src1_o $end
   $var wire 1 Z inst_srl $end
   $var wire 1 \ inst_slti $end
   $var wire 32 c io_rd2 $end
   $var wire 32 m imm_ext $end
   $var wire 1 n io_rreg2 $end
   $var wire 3 r func3 $end
   $var wire 1 t id_alutype_temp_1 $end
   $var wire 1 u inst_sltu $end
   $var wire 5 | io_ra2 $end
   $var wire 8 "# _T $end
   $var wire 1 "% inst_and $end
   $var wire 32 "& io_id_inst_i $end
   $var wire 5 ") io_exe2id_wa $end
   $var wire 1 "* inst_xori $end
   $var wire 1 "+ immsel $end
   $var wire 1 "- inst_sub $end
   $var wire 1 ". inst_sll $end
   $var wire 1 "1 io_rreg1 $end
   $var wire 32 "6 io_exe2id_wd $end
   $var wire 1 "8 io_mem2id_wreg $end
   $var wire 1 "9 inst_or $end
   $var wire 7 "? opcode $end
   $var wire 5 "B io_id_wa_o $end
   $var wire 1 "D inst_xor $end
   $var wire 1 "E io_id_wreg_o $end
   $var wire 12 "F imm_I $end
   $var wire 5 "K io_ra1 $end
   $var wire 32 "M io_rd1 $end
   $var wire 1 "S inst_ori $end
   $var wire 1 "U inst_andi $end
   $var wire 2 "Z fwrd_reg2 $end
   $var wire 1 "[ id_alutype_temp_0 $end
   $var wire 32 "` io_mem2id_wd $end
   $var wire 8 "a io_id_aluop_o $end
   $var wire 32 "f id_inst $end
   $var wire 1 "j inst_sltiu $end
   $var wire 5 "t io_mem2id_wa $end
   $var wire 2 "w fwrd_reg1 $end
   $var wire 1 "y inst_slt $end
   $var wire 32 "{ io_id_src2_o $end
   $var wire 3 #! io_id_alutype_o $end
  $upscope $end
  $scope module idexe_reg $end
   $var wire 1 ! wreg_reg $end
   $var wire 5 ( io_id_wa $end
   $var wire 32 - io_id_src2 $end
   $var wire 1 ] reset $end
   $var wire 3 d io_id_alutype $end
   $var wire 8 g io_id_aluop $end
   $var wire 8 j aluop_reg $end
   $var wire 32 o io_id_src1 $end
   $var wire 5 q io_exe_wa $end
   $var wire 32 "' src1_reg $end
   $var wire 32 ", io_exe_src2 $end
   $var wire 1 "0 io_id_wreg $end
   $var wire 32 "C src2_reg $end
   $var wire 32 "W io_exe_src1 $end
   $var wire 1 "e clock $end
   $var wire 3 "v alutype_reg $end
   $var wire 1 "x io_exe_wreg $end
   $var wire 5 "} wa_reg $end
   $var wire 8 #) io_exe_aluop $end
   $var wire 3 #* io_exe_alutype $end
  $upscope $end
  $scope module exemem_reg $end
   $var wire 32 . io_exe_wd $end
   $var wire 1 < clock $end
   $var wire 32 e io_mem_wd $end
   $var wire 5 w io_mem_wa $end
   $var wire 32 "2 wd_reg $end
   $var wire 1 "= reset $end
   $var wire 1 "> io_exe_wreg $end
   $var wire 5 "h wa_reg $end
   $var wire 1 "i wreg_reg $end
   $var wire 1 "| io_mem_wreg $end
   $var wire 5 ## io_exe_wa $end
  $upscope $end
  $scope module if_stage $end
   $var wire 1 F reset $end
   $var wire 1 Q io_ice $end
   $var wire 32 _ io_pc $end
   $var wire 1 ` _T $end
   $var wire 32 i _GEN_0 $end
   $var wire 1 "o clock $end
   $var wire 32 #% pc_reg $end
   $var wire 32 #& io_iaddr $end
  $upscope $end
$upscope $end
$enddefinitions $end
$dumpvars
b00000000000000000000000000000000 Y
0"L
b000000000000000000000000000000000 "H
0&
b00000000000000000000000000000000 '
b00000 |
0=
0"1
b0000000 0
b00000 5
b00000000000000000000000000000000 "M
0"P
0"|
b00000 "T
0"g
0V
b00000000000000000000000000000000 "2
b00000000000000000000000000000000 "I
0"x
b00000000000000000000000000000000 "`
b00000000000000000000000000000000 }
b00 "Z
0"[
b000 #*
0~
0"r
0L
0"@
0D
0/
0x
1"q
b00000 p
0F
0[
b00000 S
b00000 "c
b00000000000000000000000000000000 "s
0z
0"n
0]
0H
0"<
b00000 ")
b00000000000000000000000000000000 A
b00000000 g
0+
b00000000000000000000000000000000 $
b00000000000000000000000000000000 "C
b00000000000000000000000000000000 "&
b000000000000000000000000000000000000000000000000000000000000000 f
b00000 "t
b00000 "_
0"j
b00000 "B
b00000 ##
0"U
b00000000000000000000000000000000 "R
0"8
b00000 "Y
1Q
0"d
0"O
b00000000000000000000000000000000 T
b00000000000000000000000000000000 ?
b00000 K
b00000 "p
0!
b000000000000 "F
b00000000000000000000000000000000 "N
0"4
b00000000000000000000000000000000 9
b00000000000000000000000000000000 m
0l
b00000 (
b00000000000000000000000000000000 e
0O
0#$
0".
b00000000000000000000000000000000 P
b00000000000000000000000000000000 3
0{
0"E
b00000000000000000000000000000000 J
b00000000000000000000000000000000 "~
b00000000000000000000000000000000 i
b00000000000000000000000000000000 #%
0`
b00000000000000000000000000000000 "/
0"*
0E
0"$
b00000 R
b00000000000000000000000000000000 )
b00000000000000000000000000000000 "z
0"o
b00000000000000000000000000000000 "W
b00000000000000000000000000000000 _
0"=
b00000000000000000000000000000000 B
b000 b
b00000000000000000000000000000000 -
b000 #!
0u
0"i
b00000 "V
b00000000000000000000000000000000 "'
b000 d
0;
b00000 "u
0"k
b00 "w
0Z
b00000000000000000000000000000000 "6
0"9
b00000000000000000000000000000000 >
b00000000 #(
0"e
07
0"
b00000000000000000000000000000000 "l
b00000000000000000000000000000000 ":
0N
0"-
b0000000 "?
b00000000000000000000000000000000 "f
b00000000000000000000000000000000 "Q
0"D
b00000000000000000000000000000000 I
b00000000000000000000000000000000 4
b00000000000000000000000000000000 .
b00000 :
b00000 %
b00000000000000000000000000000000 #&
b00000000000000000000000000000000 M
b00000000000000000000000000000000 "(
0"+
b00000000000000000000000000000000 y
01
b00000000000000000000000000000000 "{
0"%
b00000000000000000000000000000000 *
b00000000 #)
b00000 #'
b00000000000000000000000000000000 "A
b00000000000000000000000000000000 ",
b00000000000000000000000000000000 #"
b00000000 "J
b00000 "]
0t
0"S
0">
b00000000000000000000000000000000 X
b00000000000000000000000000000000 C
b00000000 "a
0"!
b00000000000000000000000000000000 o
0n
0<
b00000000000000000000000000000000 "7
b00000000000000000000000000000000 ""
b00000000 "#
0U
b00000 w
08
0#
b00000000000000000000000000000000 "3
02
0"b
b000 r
0"0
0"y
0h
0"\
0"G
b00000000000000000000000000000000 a
b00000000 j
b00000 "}
b00000 "h
b00000 "K
b00000000000000000000000000000000 c
b000 "v
0"m
0"X
0\
0G
0";
b00000 q
b00000000000000000000000000000000 @
0s
0^
b00000 k
b00000000000000000000000000000000 W
0,
0"5
b00000 "^
b00000000 6
b00000000000000000000000000000000 v
$end
#0
1"L
1"O
1F
1z
1V
1]
b00000000000000000000000000000100 i
1+
1"r
1/
1"=
#1
1<
1"e
1h
1"4
1~
1"5
1=
1^
1O
1"o
#6
0<
0"e
0h
0"4
0~
0"5
0=
0"o
0"=
0F
0z
0]
0O
0^
0"r
0"O
#11
1<
1"e
b00000000000000000000000000000100 Y
1h
1"4
b00000000000000000000000000000100 '
1~
b00000000000000000000000000001000 i
1"5
1=
1"o
b00000000000000000000000000000100 #%
b00000000000000000000000000000100 #&
1O
1^
b00000000000000000000000000000100 _
#16
0<
b00010001 g
b00100 R
b00011 "B
b00110 5
0h
0~
b10010011000100010100001100000000 "&
1L
0"o
0/
b00110 "p
1"!
b00100 "T
b0010011 "?
b100 d
b11110000000000000000000011111111 "M
0^
b11110000000000000000000011111111 I
b00100 |
b00000000000000000000000000000001 ":
b00000000000000000000000000000100 -
0"e
b00100 %
b10010011000100010100001100000000 "3
b00000000010000110001000110010011 "f
0"4
b11110000000000000000000011111111 o
1E
0"5
0=
b00011 (
1[
b00110 "K
b11110000000000000000000011111111 "~
b11110000000000000000000011111111 >
b00010001 "a
b11110000000000000000000011111111 T
b001 r
1"E
1"0
1#
b000000000100 "F
1"1
0O
b00000000000000000000000000000100 m
b00000000000000000000000000000100 "{
1"@
b100 #!
#21
b000000000000000000000000000000011110000000000000000000011111111 f
1<
b11110000000000000000000011111111 "W
b00011 ##
1h
b00011 S
b100 "v
b00010001 6
1"n
b00011 "Y
b11110000000000000000000011111111 "'
b00010001 j
b100 b
1">
b00000000000000000000111111110000 y
b00000000000000000000111111110000 "6
12
b00000000000000000000000000000100 *
1^
b11110000000000000000000011111011 A
b00000000000000000000000000000100 X
b11110000000000000000000100000011 C
b00000000000000000000111111110000 .
b100 #*
1"4
b00011 "}
1=
b00011 q
b00000000000000000000111111110000 ?
b00000000000000000000000000001000 #&
b11110000000000000000000011111111 "(
b00000000000000000000000000000100 $
b00010001 #(
b00011 "^
b11111111000000000000000000001111 "A
b00000000000000000000000000000100 ",
b00000000000000000000000000000100 "C
1~
b00000000000000000000000000001100 i
17
1"o
b00000000000000000000000000000100 "R
b00000000000000000000111111110000 "7
b11110000000000000000000011111111 ""
1"k
b00000000000000000000000000001000 _
b00001111000000000000000000001111 B
1"e
b00000000000000000000000000000001 v
b00000000000000000000000000001000 Y
b00000000000000000000000000001000 '
b00010001 "J
1"5
b00000000000000000000111111110000 )
1!
b00000000000000000000000000001000 #%
b00000000000000000000000000000100 @
1"x
b00011 ")
b11110000000000000000000011111011 "z
1O
b011110000000000000000000100000011 "H
b00010001 #)
#26
0<
b00010010 g
b00100 R
b00011 "B
b00110 5
0h
0~
b10010011010100010100001100000000 "&
1L
0"o
0/
b00110 "p
1"!
b00100 "T
b0010011 "?
b100 d
b11110000000000000000000011111111 "M
0^
b11110000000000000000000011111111 I
b00100 |
b00000000000000000000000000000001 ":
b00000000000000000000000000000100 -
0"e
b00100 %
b10010011010100010100001100000000 "3
b00000000010000110101000110010011 "f
1D
0"4
b11110000000000000000000011111111 o
0E
0"5
0=
b00011 (
1[
b00110 "K
b11110000000000000000000011111111 "~
b11110000000000000000000011111111 >
b00010010 "a
b11110000000000000000000011111111 T
b101 r
1"E
1"0
1#
b000000000100 "F
1"1
0O
b00000000000000000000000000000100 m
b00000000000000000000000000000100 "{
1"@
b100 #!
#31
1<
b00011 "t
1h
1~
b00010010 6
b00000000000000000000000000010000 i
b00010010 j
1"o
b00000000000000000000111111110000 M
b00001111000000000000000000001111 "6
1"i
b00001111000000000000000000001111 "7
b00000000000000000000111111110000 e
b00000000000000000000000000001000 *
1H
1"8
b00011 "V
1^
b00000000000000000000000000001100 _
1"m
b00000000000000000000111111110000 "2
1"e
b00000000000000000000000000001000 X
b00001111000000000000000000001111 .
b00000000000000000000111111110000 "Q
b00000000000000000000000000001100 Y
b00000000000000000000111111110000 "I
1"4
1"|
b00011 w
b00000000000000000000000000001100 '
b00010010 "J
1"5
b00011 "h
1=
b00011 p
b00000000000000000000111111110000 "`
b00001111000000000000000000001111 )
b00001111000000000000000000001111 ?
b00000000000000000000000000001100 #%
b00000000000000000000000000001100 #&
b00000000000000000000000000001000 $
1"\
b00010010 #(
1O
b00011 "]
b00010010 #)
#36
b100 #!
0<
b00010011 g
b00100 R
b00011 "B
b00110 5
0h
0~
b10010011010100010100001101000000 "&
1L
0"o
0/
b00110 "p
b0100000 0
1"!
b00100 "T
b0010011 "?
b100 d
b11110000000000000000000011111111 "M
b01000000 "#
0^
b11110000000000000000000011111111 I
b00100 |
b00000000000000000000000000000001 ":
b00000000000000000000000000000100 -
0"e
b00100 %
b10010011010100010100001101000000 "3
b01000000010000110101000110010011 "f
0D
0"4
b11110000000000000000000011111111 o
0"5
0=
b00011 (
1[
b00110 "K
b11110000000000000000000011111111 "~
b11110000000000000000000011111111 >
b00010011 "a
b11110000000000000000000011111111 T
b101 r
1"E
1"0
1#
b010000000100 "F
1"1
0O
b00000000000000000000010000000100 m
b00000000000000000000000000000100 "{
1;
1"@
#41
b00000000000000000000111111110000 3
b00000000000000000000111111110000 #"
1<
b00011 "_
1"$
b00011 "u
b00000000000000000000111111110000 J
b00000000000000000000111111110000 }
1h
b00011 K
1~
1";
b00010011 6
b00000000000000000000000000010100 i
b00010011 j
1"o
b00001111000000000000000000001111 M
b11111111000000000000000000001111 "6
1G
b11111111000000000000000000001111 "7
b00001111000000000000000000001111 e
b00000000000000000000000000001100 *
1{
1^
b00000000000000000000111111110000 "l
b00000000000000000000000000010000 _
b00001111000000000000000000001111 "2
1"e
b00000000000000000000000000001100 X
b11111111000000000000000000001111 .
b00001111000000000000000000001111 "Q
b00000000000000000000000000010000 Y
b00001111000000000000000000001111 "I
1"4
b00000000000000000000000000010000 '
b00010011 "J
1"5
1x
1=
b00001111000000000000000000001111 "`
b11111111000000000000000000001111 )
b11111111000000000000000000001111 ?
b00000000000000000000000000010000 #%
1"b
b00000000000000000000000000010000 #&
b00011 k
b00011 #'
1l
b00000000000000000000000000001100 $
b00010011 #(
1O
b00011 :
b00010011 #)
b00000000000000000000111111110000 "s
#46
b000 #!
0<
b00000000 g
b00000 R
b00000 "B
b00000 5
0h
0~
b00000000000000000000000000000000 "&
0L
0"o
1/
b00000 "p
b0000000 0
0"!
b00000 "T
b0000000 "?
b000 d
b00000000000000000000000000000000 "M
b00000000 "#
0^
b00000000000000000000000000000000 I
b00000 |
b00000000000000000000000000000000 ":
b00000000000000000000000000000000 -
0"e
b00000 %
b00000000000000000000000000000000 "3
b00000000000000000000000000000000 "f
0"4
b00000000000000000000000000000000 o
0"5
0=
b00000 (
0[
b00000 "K
b00000000000000000000000000000000 "~
b00000000000000000000000000000000 >
b00000000 "a
b00000000000000000000000000000000 T
b000 r
0"E
0"0
0#
b000000000000 "F
0"1
0O
b00000000000000000000000000000000 m
b00000000000000000000000000000000 "{
0;
0"@
#51
b000000000000000000000000000000000000000000000000000000000000000 f
1<
b00000000000000000000000000000000 "W
b00000 ##
b00001111000000000000000000001111 }
1h
b00000 S
b000 "v
b00000000 6
0"n
b00000 "Y
b00000000000000000000000000000000 "'
b00000000 j
b000 b
b11111111000000000000000000001111 M
0">
b00000000000000000000000000000000 y
b00000000000000000000000000000000 "6
02
b00000000000000000000000000010000 *
1^
b00001111000000000000000000001111 "l
b00000000000000000000000000000000 A
b11111111000000000000000000001111 "2
b00000000000000000000000000010000 X
b00000000000000000000000000000000 C
b00000000000000000000000000000000 .
b11111111000000000000000000001111 "Q
b11111111000000000000000000001111 "I
1"4
b000 #*
b00000 "}
1=
b11111111000000000000000000001111 "`
b00000 q
b00000000000000000000000000000000 ?
b00000000000000000000000000010100 #&
1s
b00000000000000000000000000000000 "(
b00000000000000000000000000010000 $
b00000000 #(
b00000000000000000000111111110000 P
b00001111000000000000000000001111 "s
b00000 "^
b00001111000000000000000000001111 3
b00001111000000000000000000001111 #"
b00000000000000000000000000000000 ",
b00000000000000000000000000000000 "A
b00001111000000000000000000001111 J
b00000000000000000000000000000000 "C
1~
b00000000000000000000000000011000 i
07
1"o
b00000000000000000000000000000000 "R
b00000000000000000000000000000000 "7
b11111111000000000000000000001111 e
b00000000000000000000000000000000 ""
0"k
b00000000000000000000000000010100 _
b00000000000000000000000000000000 B
1"e
b00000000000000000000000000000000 v
b00000000000000000000000000010100 Y
b00000000000000000000000000010100 '
b00000000 "J
1"5
b00000000000000000000000000000000 )
0!
b00000000000000000000000000010100 #%
b00000000000000000000000000000000 @
0"x
b00011 "c
b00000 ")
b00000000000000000000000000000000 "z
1O
b000000000000000000000000000000000 "H
b00000000 #)
#56
0<
0"e
0h
0"4
0~
0"5
0=
0^
0O
0"o
#61
b11111111000000000000000000001111 3
b11111111000000000000000000001111 #"
1<
b00000 "t
b11111111000000000000000000001111 J
b11111111000000000000000000001111 }
1h
1~
b00000000000000000000000000011100 i
1"o
b00000000000000000000000000000000 M
0"i
b00000000000000000000000000000000 e
b00000000000000000000000000010100 *
0H
0"8
b00000 "V
1^
b11111111000000000000000000001111 "l
b00000000000000000000000000011000 _
0"m
b00000000000000000000000000000000 "2
1"e
b00000000000000000000000000010100 X
b00000000000000000000000000000000 "Q
b00000000000000000000000000011000 Y
b00000000000000000000000000000000 "I
1"4
0"|
b00000 w
b00000000000000000000000000011000 '
1"5
b00000 "h
1=
b00000 p
b00000000000000000000000000000000 "`
b00000000000000000000000000011000 #%
b00000000000000000000000000011000 #&
b00000000000000000000000000010100 $
0"\
1O
b00000 "]
b00001111000000000000000000001111 P
b11111111000000000000000000001111 "s
#66
0<
0"e
0h
0"4
0~
0"5
0=
0^
0O
0"o
#71
b00000000000000000000000000000000 3
b00000000000000000000000000000000 #"
1<
b00000 "_
0"$
b00000 "u
b00000000000000000000000000000000 J
b00000000000000000000000000000000 }
1h
b00000 K
1~
0";
b00000000000000000000000000100000 i
1"o
0G
b00000000000000000000000000011000 *
0{
1^
b00000000000000000000000000000000 "l
b00000000000000000000000000011100 _
1"e
b00000000000000000000000000011000 X
b00000000000000000000000000011100 Y
1"4
b00000000000000000000000000011100 '
1"5
0x
1=
b00000000000000000000000000011100 #%
0"b
b00000000000000000000000000011100 #&
b00000 k
b00000 #'
0l
b00000000000000000000000000011000 $
1O
b00000 :
b11111111000000000000000000001111 P
b00000000000000000000000000000000 "s
#76
0<
0"e
0h
0"4
0~
0"5
0=
0^
0O
0"o
#81
1<
1"e
b00000000000000000000000000011100 X
b00000000000000000000000000100000 Y
1h
1"4
b00000000000000000000000000100000 '
1~
b00000000000000000000000000100100 i
1"5
1=
1"o
b00000000000000000000000000100000 #%
b00000000000000000000000000100000 #&
0s
b00000 "c
b00000000000000000000000000011100 *
b00000000000000000000000000011100 $
1O
1^
b00000000000000000000000000000000 P
b00000000000000000000000000100000 _
#86
0<
0"e
0h
0"4
0~
0"5
0=
0^
0O
0"o
#91
1<
1"e
b00000000000000000000000000100000 X
b00000000000000000000000000100100 Y
1h
1"4
b00000000000000000000000000100100 '
1~
b00000000000000000000000000101000 i
1"5
1=
1"o
b00000000000000000000000000100100 #%
b00000000000000000000000000100100 #&
b00000000000000000000000000100000 *
b00000000000000000000000000100000 $
1O
1^
b00000000000000000000000000100100 _
#96
0<
0"e
0h
0"4
0~
0"5
0=
0^
0O
0"o
#101
1<
1"e
b00000000000000000000000000100100 X
b00000000000000000000000000101000 Y
1h
1"4
b00000000000000000000000000101000 '
1~
b00000000000000000000000000101100 i
1"5
1=
1"o
b00000000000000000000000000101000 #%
b00000000000000000000000000101000 #&
b00000000000000000000000000100100 *
b00000000000000000000000000100100 $
1O
1^
b00000000000000000000000000101000 _
#106
0<
0"e
0h
0"4
0~
0"5
0=
0^
0O
0"o
#111
1<
1"e
b00000000000000000000000000101000 X
b00000000000000000000000000101100 Y
1h
1"4
b00000000000000000000000000101100 '
1~
b00000000000000000000000000110000 i
1"5
1=
1"o
b00000000000000000000000000101100 #%
b00000000000000000000000000101100 #&
b00000000000000000000000000101000 *
b00000000000000000000000000101000 $
1O
1^
b00000000000000000000000000101100 _
#116
0<
0"e
0h
0"4
0~
0"5
0=
0^
0O
0"o
#121
1<
1"e
b00000000000000000000000000101100 X
b00000000000000000000000000110000 Y
1h
1"4
b00000000000000000000000000110000 '
1~
b00000000000000000000000000110100 i
1"5
1=
1"o
b00000000000000000000000000110000 #%
b00000000000000000000000000110000 #&
b00000000000000000000000000101100 *
b00000000000000000000000000101100 $
1O
1^
b00000000000000000000000000110000 _
#126
0<
0"e
0h
0"4
0~
0"5
0=
0^
0O
0"o
#131
1<
1"e
b00000000000000000000000000110000 X
b00000000000000000000000000110100 Y
1h
1"4
b00000000000000000000000000110100 '
1~
b00000000000000000000000000111000 i
1"5
1=
1"o
b00000000000000000000000000110100 #%
b00000000000000000000000000110100 #&
b00000000000000000000000000110000 *
b00000000000000000000000000110000 $
1O
1^
b00000000000000000000000000110100 _
#136
0<
0"e
0h
0"4
0~
0"5
0=
0^
0O
0"o
#141
1<
1"e
b00000000000000000000000000110100 X
b00000000000000000000000000111000 Y
1h
1"4
b00000000000000000000000000111000 '
1~
b00000000000000000000000000111100 i
1"5
1=
1"o
b00000000000000000000000000111000 #%
b00000000000000000000000000111000 #&
b00000000000000000000000000110100 *
b00000000000000000000000000110100 $
1O
1^
b00000000000000000000000000111000 _
#146
0<
0"e
0h
0"4
0~
0"5
0=
0^
0O
0"o
#151
1<
1"e
b00000000000000000000000000111000 X
b00000000000000000000000000111100 Y
1h
1"4
b00000000000000000000000000111100 '
1~
b00000000000000000000000001000000 i
1"5
1=
1"o
b00000000000000000000000000111100 #%
b00000000000000000000000000111100 #&
b00000000000000000000000000111000 *
b00000000000000000000000000111000 $
1O
1^
b00000000000000000000000000111100 _
