test_run_dir/ifid_reg_should_test/ifid_reg.vcd
$date
2022-01-08T12:00+0000
$end
$version
0.2
$end
$comment

$end
$timescale 1ns  $end
$scope module ifid_reg $end
 $var wire 32 ! io_id_pc $end
 $var wire 32 " io_if_pc $end
 $var wire 32 # pc_reg $end
 $var wire 1 $ clock $end
 $var wire 1 % reset $end
$upscope $end
$enddefinitions $end
$dumpvars
0%
b00000000000000000000000000000000 #
b00000000000000000000000000000000 !
0$
b00000000000000000000000000000000 "
$end
#0
1%
#1
1$
#6
0%
0$
#11
1$
#16
b00000000000000000000000000000001 "
0$
#21
b00000000000000000000000000000001 !
b00000000000000000000000000000001 #
1$
#26
b00000000000000000000000000000010 "
0$
#31
b00000000000000000000000000000010 !
b00000000000000000000000000000010 #
1$
#36
b00000000000000000000000000000011 "
0$
#41
b00000000000000000000000000000011 !
b00000000000000000000000000000011 #
1$
#46
b00000000000000000000000000000100 "
0$
#51
b00000000000000000000000000000100 !
b00000000000000000000000000000100 #
1$
#56
b00000000000000000000000000000101 "
0$
#61
b00000000000000000000000000000101 !
b00000000000000000000000000000101 #
1$
#66
b00000000000000000000000000000110 "
0$
#71
b00000000000000000000000000000110 !
b00000000000000000000000000000110 #
1$
#76
b00000000000000000000000000000111 "
0$
#81
b00000000000000000000000000000111 !
b00000000000000000000000000000111 #
1$
#86
b00000000000000000000000000001000 "
0$
#91
b00000000000000000000000000001000 !
b00000000000000000000000000001000 #
1$
#96
b00000000000000000000000000001001 "
0$
#101
b00000000000000000000000000001001 !
b00000000000000000000000000001001 #
1$
#106
b00000000000000000000000000001010 "
0$
#111
b00000000000000000000000000001010 !
b00000000000000000000000000001010 #
1$
#116
b00000000000000000000000000001011 "
0$
#121
b00000000000000000000000000001011 !
b00000000000000000000000000001011 #
1$
#126
b00000000000000000000000000001100 "
0$
#131
b00000000000000000000000000001100 !
b00000000000000000000000000001100 #
1$
#136
b00000000000000000000000000001101 "
0$
#141
b00000000000000000000000000001101 !
b00000000000000000000000000001101 #
1$
#146
b00000000000000000000000000001110 "
0$
#151
b00000000000000000000000000001110 !
b00000000000000000000000000001110 #
1$
#156
b00000000000000000000000000001111 "
0$
#161
b00000000000000000000000000001111 !
b00000000000000000000000000001111 #
1$
#166
b00000000000000000000000000010000 "
0$
#171
b00000000000000000000000000010000 !
b00000000000000000000000000010000 #
1$
#176
b00000000000000000000000000010001 "
0$
#181
b00000000000000000000000000010001 !
b00000000000000000000000000010001 #
1$
#186
b00000000000000000000000000010010 "
0$
#191
b00000000000000000000000000010010 !
b00000000000000000000000000010010 #
1$
#196
b00000000000000000000000000010011 "
0$
#201
b00000000000000000000000000010011 !
b00000000000000000000000000010011 #
1$
#206
b00000000000000000000000000010100 "
0$
#211
b00000000000000000000000000010100 !
b00000000000000000000000000010100 #
1$
#216
b00000000000000000000000000010101 "
0$
#221
b00000000000000000000000000010101 !
b00000000000000000000000000010101 #
1$
#226
b00000000000000000000000000010110 "
0$
#231
b00000000000000000000000000010110 !
b00000000000000000000000000010110 #
1$
#236
b00000000000000000000000000010111 "
0$
#241
b00000000000000000000000000010111 !
b00000000000000000000000000010111 #
1$
#246
b00000000000000000000000000011000 "
0$
#251
b00000000000000000000000000011000 !
b00000000000000000000000000011000 #
1$
#256
b00000000000000000000000000011001 "
0$
#261
b00000000000000000000000000011001 !
b00000000000000000000000000011001 #
1$
#266
b00000000000000000000000000011010 "
0$
#271
b00000000000000000000000000011010 !
b00000000000000000000000000011010 #
1$
#276
b00000000000000000000000000011011 "
0$
#281
b00000000000000000000000000011011 !
b00000000000000000000000000011011 #
1$
#286
b00000000000000000000000000011100 "
0$
#291
b00000000000000000000000000011100 !
b00000000000000000000000000011100 #
1$
#296
b00000000000000000000000000011101 "
0$
#301
b00000000000000000000000000011101 !
b00000000000000000000000000011101 #
1$
#306
b00000000000000000000000000011110 "
0$
#311
b00000000000000000000000000011110 !
b00000000000000000000000000011110 #
1$
#316
b00000000000000000000000000011111 "
0$
#321
b00000000000000000000000000011111 !
b00000000000000000000000000011111 #
1$
#326
b00000000000000000000000000100000 "
0$
#331
b00000000000000000000000000100000 !
b00000000000000000000000000100000 #
1$
#336
b00000000000000000000000000100001 "
0$
#341
b00000000000000000000000000100001 !
b00000000000000000000000000100001 #
1$
#346
b00000000000000000000000000100010 "
0$
#351
b00000000000000000000000000100010 !
b00000000000000000000000000100010 #
1$
#356
b00000000000000000000000000100011 "
0$
#361
b00000000000000000000000000100011 !
b00000000000000000000000000100011 #
1$
#366
b00000000000000000000000000100100 "
0$
#371
b00000000000000000000000000100100 !
b00000000000000000000000000100100 #
1$
#376
b00000000000000000000000000100101 "
0$
#381
b00000000000000000000000000100101 !
b00000000000000000000000000100101 #
1$
#386
b00000000000000000000000000100110 "
0$
#391
b00000000000000000000000000100110 !
b00000000000000000000000000100110 #
1$
#396
b00000000000000000000000000100111 "
0$
#401
b00000000000000000000000000100111 !
b00000000000000000000000000100111 #
1$
#406
b00000000000000000000000000101000 "
0$
#411
b00000000000000000000000000101000 !
b00000000000000000000000000101000 #
1$
#416
b00000000000000000000000000101001 "
0$
#421
b00000000000000000000000000101001 !
b00000000000000000000000000101001 #
1$
#426
b00000000000000000000000000101010 "
0$
#431
b00000000000000000000000000101010 !
b00000000000000000000000000101010 #
1$
#436
b00000000000000000000000000101011 "
0$
#441
b00000000000000000000000000101011 !
b00000000000000000000000000101011 #
1$
#446
b00000000000000000000000000101100 "
0$
#451
b00000000000000000000000000101100 !
b00000000000000000000000000101100 #
1$
#456
b00000000000000000000000000101101 "
0$
#461
b00000000000000000000000000101101 !
b00000000000000000000000000101101 #
1$
#466
b00000000000000000000000000101110 "
0$
#471
b00000000000000000000000000101110 !
b00000000000000000000000000101110 #
1$
#476
b00000000000000000000000000101111 "
0$
#481
b00000000000000000000000000101111 !
b00000000000000000000000000101111 #
1$
#486
b00000000000000000000000000110000 "
0$
#491
b00000000000000000000000000110000 !
b00000000000000000000000000110000 #
1$
#496
b00000000000000000000000000110001 "
0$
#501
b00000000000000000000000000110001 !
b00000000000000000000000000110001 #
1$
#506
b00000000000000000000000000000000 "
0$
#511
b00000000000000000000000000000000 !
b00000000000000000000000000000000 #
1$
