test_run_dir/regfile_should_test/regfile.vcd
$date
2022-01-09T06:51+0000
$end
$version
0.2
$end
$comment

$end
$timescale 1ns  $end
$scope module regfile $end
 $var wire 5 " io_wa $end
 $var wire 1 # _T $end
 $var wire 32 $ io_wd $end
 $var wire 32 ( _GEN_8 $end
 $var wire 32 ) io_rd2 $end
 $var wire 1 , io_re1 $end
 $var wire 5 / io_ra2 $end
 $var wire 1 2 clock $end
 $var wire 32 4 regs $end
 $var wire 32 5 io_rd1 $end
 $var wire 1 6 io_we $end
 $var wire 1 7 _GEN_11 $end
 $var wire 5 9 io_ra1 $end
 $var wire 32 : _GEN_0 $end
 $var wire 1 = reset $end
 $var wire 1 > _GEN_3 $end
 $var wire 1 B io_re2 $end
  $scope module regs $end
    $scope module _T_21 $end
     $var wire 32 ! data $end
     $var wire 5 - pipeline_addr_0 $end
     $var wire 1 . pipeline_valid_0 $end
     $var wire 1 0 mask $end
     $var wire 5 1 addr $end
     $var wire 1 8 clk $end
     $var wire 32 < pipeline_data_0 $end
     $var wire 1 @ valid $end
     $var wire 1 A en $end
    $upscope $end
    $scope module _T_16 $end
     $var wire 32 % data $end
     $var wire 1 & en $end
     $var wire 5 ; addr $end
     $var wire 1 ? clk $end
    $upscope $end
    $scope module _T_7 $end
     $var wire 1 ' clk $end
     $var wire 1 * en $end
     $var wire 5 + addr $end
     $var wire 32 3 data $end
    $upscope $end
  $upscope $end
$upscope $end
$enddefinitions $end
$dumpvars
b00000000000000000000000000000000 <
0&
0'
b00000000000000000000000000000000 (
0=
b00000000000000000000000000000000 !
0>
b00000 -
06
07
b00000 /
08
0#
b00000000000000000000000000000000 :
10
b00000000000000000000000000000000 3
02
b00000000000000000000000000000000 4
b00000 +
b00000000000000000000000000000000 5
0.
b00000 ;
b00000000000000000000000000000000 )
0?
0*
b00000 "
0@
b00000000000000000000000000000000 $
0A
0,
b00000000000000000000000000000000 %
b00000 9
0B
b00000 1
$end
#0
1#
1=
17
1>
#1
1?
18
12
1'
#6
0?
08
02
0'
0=
#11
1?
18
12
1'
#16
0?
08
02
0'
#21
1?
18
12
1'
#26
0?
08
02
0'
#31
1?
18
12
1'
#36
0?
08
02
0'
#41
1?
18
12
1'
#46
0?
08
02
0'
#51
1?
18
12
1'
#56
0?
08
02
0'
16
#61
1?
18
12
1'
#66
b00000000000000000000000000000001 !
0?
b00001 "
b00001 1
1@
08
02
0'
b00000000000000000000000000000001 $
1A
#71
b00001 -
b00000000000000000000000000000001 <
1?
1.
18
12
1'
#76
b00000000000000000000000000000010 !
0?
b00010 "
b00010 1
08
02
0'
b00000000000000000000000000000010 $
#81
b00010 -
b00000000000000000000000000000010 <
1?
18
12
1'
#86
b00000000000000000000000000000011 !
0?
b00011 "
b00011 1
08
02
0'
b00000000000000000000000000000011 $
#91
b00011 -
b00000000000000000000000000000011 <
1?
18
12
1'
#96
b00000000000000000000000000000100 !
0?
b00100 "
b00100 1
08
02
0'
b00000000000000000000000000000100 $
#101
b00100 -
b00000000000000000000000000000100 <
1?
18
12
1'
#106
b00000000000000000000000000000101 !
0?
b00101 "
b00101 1
08
02
0'
b00000000000000000000000000000101 $
#111
b00101 -
b00000000000000000000000000000101 <
1?
18
12
1'
#116
b00000000000000000000000000000110 !
0?
b00110 "
b00110 1
08
02
0'
b00000000000000000000000000000110 $
#121
b00110 -
b00000000000000000000000000000110 <
1?
18
12
1'
#126
b00000000000000000000000000000111 !
0?
b00111 "
b00111 1
08
02
0'
b00000000000000000000000000000111 $
#131
b00111 -
b00000000000000000000000000000111 <
1?
18
12
1'
#136
b00000000000000000000000000001000 !
0?
b01000 "
b01000 1
08
02
0'
b00000000000000000000000000001000 $
#141
b01000 -
b00000000000000000000000000001000 <
1?
18
12
1'
#146
b00000000000000000000000000001001 !
0?
b01001 "
b01001 1
08
02
0'
b00000000000000000000000000001001 $
#151
b01001 -
b00000000000000000000000000001001 <
1?
18
12
1'
#156
b00000000000000000000000000001010 !
0?
b01010 "
b01010 1
08
02
0'
b00000000000000000000000000001010 $
#161
b01010 -
b00000000000000000000000000001010 <
1?
18
12
1'
#166
b00000000000000000000000000001011 !
0?
b01011 "
b01011 1
08
02
0'
b00000000000000000000000000001011 $
#171
b01011 -
b00000000000000000000000000001011 <
1?
18
12
1'
#176
b00000000000000000000000000001100 !
0?
b01100 "
b01100 1
08
02
0'
b00000000000000000000000000001100 $
#181
b01100 -
b00000000000000000000000000001100 <
1?
18
12
1'
#186
b00000000000000000000000000001101 !
0?
b01101 "
b01101 1
08
02
0'
b00000000000000000000000000001101 $
#191
b01101 -
b00000000000000000000000000001101 <
1?
18
12
1'
#196
b00000000000000000000000000001110 !
0?
b01110 "
b01110 1
08
02
0'
b00000000000000000000000000001110 $
#201
b01110 -
b00000000000000000000000000001110 <
1?
18
12
1'
#206
b00000000000000000000000000001111 !
0?
b01111 "
b01111 1
08
02
0'
b00000000000000000000000000001111 $
#211
b01111 -
b00000000000000000000000000001111 <
1?
18
12
1'
#216
b00000000000000000000000000010000 !
0?
b10000 "
b10000 1
08
02
0'
b00000000000000000000000000010000 $
#221
b10000 -
b00000000000000000000000000010000 <
1?
18
12
1'
#226
b00000000000000000000000000010001 !
0?
b10001 "
b10001 1
08
02
0'
b00000000000000000000000000010001 $
#231
b10001 -
b00000000000000000000000000010001 <
1?
18
12
1'
#236
b00000000000000000000000000010010 !
0?
b10010 "
b10010 1
08
02
0'
b00000000000000000000000000010010 $
#241
b10010 -
b00000000000000000000000000010010 <
1?
18
12
1'
#246
b00000000000000000000000000010011 !
0?
b10011 "
b10011 1
08
02
0'
b00000000000000000000000000010011 $
#251
b10011 -
b00000000000000000000000000010011 <
1?
18
12
1'
#256
b00000000000000000000000000010100 !
0?
b10100 "
b10100 1
08
02
0'
b00000000000000000000000000010100 $
#261
b10100 -
b00000000000000000000000000010100 <
1?
18
12
1'
#266
b00000000000000000000000000010101 !
0?
b10101 "
b10101 1
08
02
0'
b00000000000000000000000000010101 $
#271
b10101 -
b00000000000000000000000000010101 <
1?
18
12
1'
#276
b00000000000000000000000000010110 !
0?
b10110 "
b10110 1
08
02
0'
b00000000000000000000000000010110 $
#281
b10110 -
b00000000000000000000000000010110 <
1?
18
12
1'
#286
b00000000000000000000000000010111 !
0?
b10111 "
b10111 1
08
02
0'
b00000000000000000000000000010111 $
#291
b10111 -
b00000000000000000000000000010111 <
1?
18
12
1'
#296
b00000000000000000000000000011000 !
0?
b11000 "
b11000 1
08
02
0'
b00000000000000000000000000011000 $
#301
b11000 -
b00000000000000000000000000011000 <
1?
18
12
1'
#306
b00000000000000000000000000011001 !
0?
b11001 "
b11001 1
08
02
0'
b00000000000000000000000000011001 $
#311
b11001 -
b00000000000000000000000000011001 <
1?
18
12
1'
#316
b00000000000000000000000000011010 !
0?
b11010 "
b11010 1
08
02
0'
b00000000000000000000000000011010 $
#321
b11010 -
b00000000000000000000000000011010 <
1?
18
12
1'
#326
b00000000000000000000000000011011 !
0?
b11011 "
b11011 1
08
02
0'
b00000000000000000000000000011011 $
#331
b11011 -
b00000000000000000000000000011011 <
1?
18
12
1'
#336
b00000000000000000000000000011100 !
0?
b11100 "
b11100 1
08
02
0'
b00000000000000000000000000011100 $
#341
b11100 -
b00000000000000000000000000011100 <
1?
18
12
1'
#346
b00000000000000000000000000011101 !
0?
b11101 "
b11101 1
08
02
0'
b00000000000000000000000000011101 $
#351
b11101 -
b00000000000000000000000000011101 <
1?
18
12
1'
#356
b00000000000000000000000000011110 !
0?
b11110 "
b11110 1
08
02
0'
b00000000000000000000000000011110 $
#361
b11110 -
b00000000000000000000000000011110 <
1?
18
12
1'
#366
b00000000000000000000000000011111 !
0?
b11111 "
b11111 1
08
02
0'
b00000000000000000000000000011111 $
#371
b11111 -
b00000000000000000000000000011111 <
1?
18
12
1'
#376
b00000000000000000000000000000000 !
1B
0?
b00000 "
b00000 1
0@
08
02
0'
06
b00000000000000000000000000000000 $
0A
1,
#381
b00000 -
b00000000000000000000000000000000 <
1?
0.
18
12
1'
#386
b00000000000000000000000000000001 3
b00000000000000000000000000000001 %
1&
b00000000000000000000000000000001 5
0'
b00000000000000000000000000000001 (
b00001 /
b00000000000000000000000000000001 )
0?
08
0#
02
1*
b00001 9
b00001 +
b00000000000000000000000000000001 :
b00001 ;
#391
1?
18
12
1'
#396
b00000000000000000000000000000010 3
b00000000000000000000000000000010 %
b00000000000000000000000000000010 5
0'
b00000000000000000000000000000010 (
b00010 /
b00000000000000000000000000000010 )
0?
08
02
b00010 9
b00010 +
b00000000000000000000000000000010 :
b00010 ;
#401
1?
18
12
1'
#406
b00000000000000000000000000000011 3
b00000000000000000000000000000011 %
b00000000000000000000000000000011 5
0'
b00000000000000000000000000000011 (
b00011 /
b00000000000000000000000000000011 )
0?
08
02
b00011 9
b00011 +
b00000000000000000000000000000011 :
b00011 ;
#411
1?
18
12
1'
#416
b00000000000000000000000000000100 3
b00000000000000000000000000000100 %
b00000000000000000000000000000100 5
0'
b00000000000000000000000000000100 (
b00100 /
b00000000000000000000000000000100 )
0?
08
02
b00100 9
b00100 +
b00000000000000000000000000000100 :
b00100 ;
#421
1?
18
12
1'
#426
b00000000000000000000000000000101 3
b00000000000000000000000000000101 %
b00000000000000000000000000000101 5
0'
b00000000000000000000000000000101 (
b00101 /
b00000000000000000000000000000101 )
0?
08
02
b00101 9
b00101 +
b00000000000000000000000000000101 :
b00101 ;
#431
1?
18
12
1'
#436
b00000000000000000000000000000110 3
b00000000000000000000000000000110 %
b00000000000000000000000000000110 5
0'
b00000000000000000000000000000110 (
b00110 /
b00000000000000000000000000000110 )
0?
08
02
b00110 9
b00110 +
b00000000000000000000000000000110 :
b00110 ;
#441
1?
18
12
1'
#446
b00000000000000000000000000000111 3
b00000000000000000000000000000111 %
b00000000000000000000000000000111 5
0'
b00000000000000000000000000000111 (
b00111 /
b00000000000000000000000000000111 )
0?
08
02
b00111 9
b00111 +
b00000000000000000000000000000111 :
b00111 ;
#451
1?
18
12
1'
#456
b00000000000000000000000000001000 3
b00000000000000000000000000001000 %
b00000000000000000000000000001000 5
0'
b00000000000000000000000000001000 (
b01000 /
b00000000000000000000000000001000 )
0?
08
02
b01000 9
b01000 +
b00000000000000000000000000001000 :
b01000 ;
#461
1?
18
12
1'
#466
b00000000000000000000000000001001 3
b00000000000000000000000000001001 %
b00000000000000000000000000001001 5
0'
b00000000000000000000000000001001 (
b01001 /
b00000000000000000000000000001001 )
0?
08
02
b01001 9
b01001 +
b00000000000000000000000000001001 :
b01001 ;
#471
1?
18
12
1'
#476
b00000000000000000000000000001010 3
b00000000000000000000000000001010 %
b00000000000000000000000000001010 5
0'
b00000000000000000000000000001010 (
b01010 /
b00000000000000000000000000001010 )
0?
08
02
b01010 9
b01010 +
b00000000000000000000000000001010 :
b01010 ;
#481
1?
18
12
1'
#486
b00000000000000000000000000001011 3
b00000000000000000000000000001011 %
b00000000000000000000000000001011 5
0'
b00000000000000000000000000001011 (
b01011 /
b00000000000000000000000000001011 )
0?
08
02
b01011 9
b01011 +
b00000000000000000000000000001011 :
b01011 ;
#491
1?
18
12
1'
#496
b00000000000000000000000000001100 3
b00000000000000000000000000001100 %
b00000000000000000000000000001100 5
0'
b00000000000000000000000000001100 (
b01100 /
b00000000000000000000000000001100 )
0?
08
02
b01100 9
b01100 +
b00000000000000000000000000001100 :
b01100 ;
#501
1?
18
12
1'
#506
b00000000000000000000000000001101 3
b00000000000000000000000000001101 %
b00000000000000000000000000001101 5
0'
b00000000000000000000000000001101 (
b01101 /
b00000000000000000000000000001101 )
0?
08
02
b01101 9
b01101 +
b00000000000000000000000000001101 :
b01101 ;
#511
1?
18
12
1'
#516
b00000000000000000000000000001110 3
b00000000000000000000000000001110 %
b00000000000000000000000000001110 5
0'
b00000000000000000000000000001110 (
b01110 /
b00000000000000000000000000001110 )
0?
08
02
b01110 9
b01110 +
b00000000000000000000000000001110 :
b01110 ;
#521
1?
18
12
1'
#526
b00000000000000000000000000001111 3
b00000000000000000000000000001111 %
b00000000000000000000000000001111 5
0'
b00000000000000000000000000001111 (
b01111 /
b00000000000000000000000000001111 )
0?
08
02
b01111 9
b01111 +
b00000000000000000000000000001111 :
b01111 ;
#531
1?
18
12
1'
#536
b00000000000000000000000000010000 3
b00000000000000000000000000010000 %
b00000000000000000000000000010000 5
0'
b00000000000000000000000000010000 (
b10000 /
b00000000000000000000000000010000 )
0?
08
02
b10000 9
b10000 +
b00000000000000000000000000010000 :
b10000 ;
#541
1?
18
12
1'
#546
b00000000000000000000000000010001 3
b00000000000000000000000000010001 %
b00000000000000000000000000010001 5
0'
b00000000000000000000000000010001 (
b10001 /
b00000000000000000000000000010001 )
0?
08
02
b10001 9
b10001 +
b00000000000000000000000000010001 :
b10001 ;
#551
1?
18
12
1'
#556
b00000000000000000000000000010010 3
b00000000000000000000000000010010 %
b00000000000000000000000000010010 5
0'
b00000000000000000000000000010010 (
b10010 /
b00000000000000000000000000010010 )
0?
08
02
b10010 9
b10010 +
b00000000000000000000000000010010 :
b10010 ;
#561
1?
18
12
1'
#566
b00000000000000000000000000010011 3
b00000000000000000000000000010011 %
b00000000000000000000000000010011 5
0'
b00000000000000000000000000010011 (
b10011 /
b00000000000000000000000000010011 )
0?
08
02
b10011 9
b10011 +
b00000000000000000000000000010011 :
b10011 ;
#571
1?
18
12
1'
#576
b00000000000000000000000000010100 3
b00000000000000000000000000010100 %
b00000000000000000000000000010100 5
0'
b00000000000000000000000000010100 (
b10100 /
b00000000000000000000000000010100 )
0?
08
02
b10100 9
b10100 +
b00000000000000000000000000010100 :
b10100 ;
#581
1?
18
12
1'
#586
b00000000000000000000000000010101 3
b00000000000000000000000000010101 %
b00000000000000000000000000010101 5
0'
b00000000000000000000000000010101 (
b10101 /
b00000000000000000000000000010101 )
0?
08
02
b10101 9
b10101 +
b00000000000000000000000000010101 :
b10101 ;
#591
1?
18
12
1'
#596
b00000000000000000000000000010110 3
b00000000000000000000000000010110 %
b00000000000000000000000000010110 5
0'
b00000000000000000000000000010110 (
b10110 /
b00000000000000000000000000010110 )
0?
08
02
b10110 9
b10110 +
b00000000000000000000000000010110 :
b10110 ;
#601
1?
18
12
1'
#606
b00000000000000000000000000010111 3
b00000000000000000000000000010111 %
b00000000000000000000000000010111 5
0'
b00000000000000000000000000010111 (
b10111 /
b00000000000000000000000000010111 )
0?
08
02
b10111 9
b10111 +
b00000000000000000000000000010111 :
b10111 ;
#611
1?
18
12
1'
#616
b00000000000000000000000000011000 3
b00000000000000000000000000011000 %
b00000000000000000000000000011000 5
0'
b00000000000000000000000000011000 (
b11000 /
b00000000000000000000000000011000 )
0?
08
02
b11000 9
b11000 +
b00000000000000000000000000011000 :
b11000 ;
#621
1?
18
12
1'
#626
b00000000000000000000000000011001 3
b00000000000000000000000000011001 %
b00000000000000000000000000011001 5
0'
b00000000000000000000000000011001 (
b11001 /
b00000000000000000000000000011001 )
0?
08
02
b11001 9
b11001 +
b00000000000000000000000000011001 :
b11001 ;
#631
1?
18
12
1'
#636
b00000000000000000000000000011010 3
b00000000000000000000000000011010 %
b00000000000000000000000000011010 5
0'
b00000000000000000000000000011010 (
b11010 /
b00000000000000000000000000011010 )
0?
08
02
b11010 9
b11010 +
b00000000000000000000000000011010 :
b11010 ;
#641
1?
18
12
1'
#646
b00000000000000000000000000011011 3
b00000000000000000000000000011011 %
b00000000000000000000000000011011 5
0'
b00000000000000000000000000011011 (
b11011 /
b00000000000000000000000000011011 )
0?
08
02
b11011 9
b11011 +
b00000000000000000000000000011011 :
b11011 ;
#651
1?
18
12
1'
#656
b00000000000000000000000000011100 3
b00000000000000000000000000011100 %
b00000000000000000000000000011100 5
0'
b00000000000000000000000000011100 (
b11100 /
b00000000000000000000000000011100 )
0?
08
02
b11100 9
b11100 +
b00000000000000000000000000011100 :
b11100 ;
#661
1?
18
12
1'
#666
b00000000000000000000000000011101 3
b00000000000000000000000000011101 %
b00000000000000000000000000011101 5
0'
b00000000000000000000000000011101 (
b11101 /
b00000000000000000000000000011101 )
0?
08
02
b11101 9
b11101 +
b00000000000000000000000000011101 :
b11101 ;
#671
1?
18
12
1'
#676
b00000000000000000000000000011110 3
b00000000000000000000000000011110 %
b00000000000000000000000000011110 5
0'
b00000000000000000000000000011110 (
b11110 /
b00000000000000000000000000011110 )
0?
08
02
b11110 9
b11110 +
b00000000000000000000000000011110 :
b11110 ;
#681
1?
18
12
1'
#686
b00000000000000000000000000011111 3
b00000000000000000000000000011111 %
b00000000000000000000000000011111 5
0'
b00000000000000000000000000011111 (
b11111 /
b00000000000000000000000000011111 )
0?
08
02
b11111 9
b11111 +
b00000000000000000000000000011111 :
b11111 ;
#691
1?
18
12
1'
#696
b00000000000000000000000000000010 !
0?
08
02
0'
16
b00000000000000000000000000000010 $
#701
1?
b00000000000000000000000000000010 <
18
12
1'
#706
b00000000000000000000000000000000 3
b00000000000000000000000000000000 5
06
17
b00000 /
b00000 1
02
0*
b00000 +
0A
0,
0B
b00000000000000000000000000000000 %
0&
0'
b00000000000000000000000000000000 (
1>
b00000000000000000000000000000000 )
b00000000000000000000000000000000 !
0?
b00000 "
0@
08
1#
b00000 9
b00000000000000000000000000000000 $
b00000000000000000000000000000000 :
b00000 ;
#711
1?
b00000000000000000000000000000000 <
18
12
1'
