test_run_dir/if_stage_should_test/if_stage.vcd
$date
2022-01-08T11:24+0000
$end
$version
0.2
$end
$comment

$end
$timescale 1ns  $end
$scope module if_stage $end
 $var wire 32 ! io_pc $end
 $var wire 1 " _T $end
 $var wire 32 # pc_reg $end
 $var wire 32 $ io_iaddr $end
 $var wire 1 % clock $end
 $var wire 1 & io_ice $end
 $var wire 32 ' _GEN_0 $end
 $var wire 1 ( reset $end
$upscope $end
$enddefinitions $end
$dumpvars
0%
0"
b00000000000000000000000000000000 #
b00000000000000000000000000000000 '
b00000000000000000000000000000000 $
b00000000000000000000000000000000 !
1&
0(
$end
#0
b00000000000000000000000000000100 '
1(
#1
1%
#6
0%
0(
#11
b00000000000000000000000000000100 !
1%
b00000000000000000000000000000100 #
b00000000000000000000000000001000 '
b00000000000000000000000000000100 $
#16
0%
#21
b00000000000000000000000000001000 !
1%
b00000000000000000000000000001000 #
b00000000000000000000000000001100 '
b00000000000000000000000000001000 $
#26
0%
#31
b00000000000000000000000000001100 !
1%
b00000000000000000000000000001100 #
b00000000000000000000000000010000 '
b00000000000000000000000000001100 $
#36
0%
#41
b00000000000000000000000000010000 !
1%
b00000000000000000000000000010000 #
b00000000000000000000000000010100 '
b00000000000000000000000000010000 $
#46
0%
#51
b00000000000000000000000000010100 !
1%
b00000000000000000000000000010100 #
b00000000000000000000000000011000 '
b00000000000000000000000000010100 $
#56
0%
#61
b00000000000000000000000000011000 !
1%
b00000000000000000000000000011000 #
b00000000000000000000000000011100 '
b00000000000000000000000000011000 $
#66
0%
#71
b00000000000000000000000000011100 !
1%
b00000000000000000000000000011100 #
b00000000000000000000000000100000 '
b00000000000000000000000000011100 $
#76
0%
#81
b00000000000000000000000000100000 !
1%
b00000000000000000000000000100000 #
b00000000000000000000000000100100 '
b00000000000000000000000000100000 $
#86
0%
#91
b00000000000000000000000000100100 !
1%
b00000000000000000000000000100100 #
b00000000000000000000000000101000 '
b00000000000000000000000000100100 $
#96
0%
#101
b00000000000000000000000000101000 !
1%
b00000000000000000000000000101000 #
b00000000000000000000000000101100 '
b00000000000000000000000000101000 $
#106
0%
#111
b00000000000000000000000000101100 !
1%
b00000000000000000000000000101100 #
b00000000000000000000000000110000 '
b00000000000000000000000000101100 $
#116
0%
#121
b00000000000000000000000000110000 !
1%
b00000000000000000000000000110000 #
b00000000000000000000000000110100 '
b00000000000000000000000000110000 $
#126
0%
#131
b00000000000000000000000000110100 !
1%
b00000000000000000000000000110100 #
b00000000000000000000000000111000 '
b00000000000000000000000000110100 $
#136
0%
#141
b00000000000000000000000000111000 !
1%
b00000000000000000000000000111000 #
b00000000000000000000000000111100 '
b00000000000000000000000000111000 $
#146
0%
#151
b00000000000000000000000000111100 !
1%
b00000000000000000000000000111100 #
b00000000000000000000000001000000 '
b00000000000000000000000000111100 $
#156
0%
#161
b00000000000000000000000001000000 !
1%
b00000000000000000000000001000000 #
b00000000000000000000000001000100 '
b00000000000000000000000001000000 $
#166
0%
#171
b00000000000000000000000001000100 !
1%
b00000000000000000000000001000100 #
b00000000000000000000000001001000 '
b00000000000000000000000001000100 $
#176
0%
#181
b00000000000000000000000001001000 !
1%
b00000000000000000000000001001000 #
b00000000000000000000000001001100 '
b00000000000000000000000001001000 $
#186
0%
#191
b00000000000000000000000001001100 !
1%
b00000000000000000000000001001100 #
b00000000000000000000000001010000 '
b00000000000000000000000001001100 $
#196
0%
#201
b00000000000000000000000001010000 !
1%
b00000000000000000000000001010000 #
b00000000000000000000000001010100 '
b00000000000000000000000001010000 $
#206
0%
#211
b00000000000000000000000001010100 !
1%
b00000000000000000000000001010100 #
b00000000000000000000000001011000 '
b00000000000000000000000001010100 $
#216
0%
#221
b00000000000000000000000001011000 !
1%
b00000000000000000000000001011000 #
b00000000000000000000000001011100 '
b00000000000000000000000001011000 $
#226
0%
#231
b00000000000000000000000001011100 !
1%
b00000000000000000000000001011100 #
b00000000000000000000000001100000 '
b00000000000000000000000001011100 $
#236
0%
#241
b00000000000000000000000001100000 !
1%
b00000000000000000000000001100000 #
b00000000000000000000000001100100 '
b00000000000000000000000001100000 $
#246
0%
#251
b00000000000000000000000001100100 !
1%
b00000000000000000000000001100100 #
b00000000000000000000000001101000 '
b00000000000000000000000001100100 $
#256
0%
#261
b00000000000000000000000001101000 !
1%
b00000000000000000000000001101000 #
b00000000000000000000000001101100 '
b00000000000000000000000001101000 $
#266
0%
#271
b00000000000000000000000001101100 !
1%
b00000000000000000000000001101100 #
b00000000000000000000000001110000 '
b00000000000000000000000001101100 $
#276
0%
#281
b00000000000000000000000001110000 !
1%
b00000000000000000000000001110000 #
b00000000000000000000000001110100 '
b00000000000000000000000001110000 $
#286
0%
#291
b00000000000000000000000001110100 !
1%
b00000000000000000000000001110100 #
b00000000000000000000000001111000 '
b00000000000000000000000001110100 $
#296
0%
#301
b00000000000000000000000001111000 !
1%
b00000000000000000000000001111000 #
b00000000000000000000000001111100 '
b00000000000000000000000001111000 $
#306
0%
#311
b00000000000000000000000001111100 !
1%
b00000000000000000000000001111100 #
b00000000000000000000000010000000 '
b00000000000000000000000001111100 $
#316
0%
#321
b00000000000000000000000010000000 !
1%
b00000000000000000000000010000000 #
b00000000000000000000000010000100 '
b00000000000000000000000010000000 $
#326
0%
#331
b00000000000000000000000010000100 !
1%
b00000000000000000000000010000100 #
b00000000000000000000000010001000 '
b00000000000000000000000010000100 $
#336
0%
#341
b00000000000000000000000010001000 !
1%
b00000000000000000000000010001000 #
b00000000000000000000000010001100 '
b00000000000000000000000010001000 $
#346
0%
#351
b00000000000000000000000010001100 !
1%
b00000000000000000000000010001100 #
b00000000000000000000000010010000 '
b00000000000000000000000010001100 $
#356
0%
#361
b00000000000000000000000010010000 !
1%
b00000000000000000000000010010000 #
b00000000000000000000000010010100 '
b00000000000000000000000010010000 $
#366
0%
#371
b00000000000000000000000010010100 !
1%
b00000000000000000000000010010100 #
b00000000000000000000000010011000 '
b00000000000000000000000010010100 $
#376
0%
#381
b00000000000000000000000010011000 !
1%
b00000000000000000000000010011000 #
b00000000000000000000000010011100 '
b00000000000000000000000010011000 $
#386
0%
#391
b00000000000000000000000010011100 !
1%
b00000000000000000000000010011100 #
b00000000000000000000000010100000 '
b00000000000000000000000010011100 $
#396
0%
#401
b00000000000000000000000010100000 !
1%
b00000000000000000000000010100000 #
b00000000000000000000000010100100 '
b00000000000000000000000010100000 $
#406
0%
#411
b00000000000000000000000010100100 !
1%
b00000000000000000000000010100100 #
b00000000000000000000000010101000 '
b00000000000000000000000010100100 $
#416
0%
#421
b00000000000000000000000010101000 !
1%
b00000000000000000000000010101000 #
b00000000000000000000000010101100 '
b00000000000000000000000010101000 $
#426
0%
#431
b00000000000000000000000010101100 !
1%
b00000000000000000000000010101100 #
b00000000000000000000000010110000 '
b00000000000000000000000010101100 $
#436
0%
#441
b00000000000000000000000010110000 !
1%
b00000000000000000000000010110000 #
b00000000000000000000000010110100 '
b00000000000000000000000010110000 $
#446
0%
#451
b00000000000000000000000010110100 !
1%
b00000000000000000000000010110100 #
b00000000000000000000000010111000 '
b00000000000000000000000010110100 $
#456
0%
#461
b00000000000000000000000010111000 !
1%
b00000000000000000000000010111000 #
b00000000000000000000000010111100 '
b00000000000000000000000010111000 $
#466
0%
#471
b00000000000000000000000010111100 !
1%
b00000000000000000000000010111100 #
b00000000000000000000000011000000 '
b00000000000000000000000010111100 $
#476
0%
#481
b00000000000000000000000011000000 !
1%
b00000000000000000000000011000000 #
b00000000000000000000000011000100 '
b00000000000000000000000011000000 $
#486
0%
#491
b00000000000000000000000011000100 !
1%
b00000000000000000000000011000100 #
b00000000000000000000000011001000 '
b00000000000000000000000011000100 $
#496
0%
#501
b00000000000000000000000011001000 !
1%
b00000000000000000000000011001000 #
b00000000000000000000000011001100 '
b00000000000000000000000011001000 $
#506
0%
#511
b00000000000000000000000011001100 !
1%
b00000000000000000000000011001100 #
b00000000000000000000000011010000 '
b00000000000000000000000011001100 $
